{
    "['60.00 N', '0.00', '18.000', 'n', '2.000', '2.000']": [
        6.424913442799168,
        18.06386130785757,
        2.0,
        38.0
    ],
    "['60.00 N', '0.00', '18.000', 'n', '2.100', '2.000']": [
        6.546317883186017,
        15.741191534516265,
        -2.0,
        36.0
    ],
    "['60.00 N', '0.00', '18.000', 'n', '2.200', '2.100']": [
        6.5452649666966405,
        12.137283122799282,
        -6.0,
        32.0
    ],
    "['60.00 N', '0.00', '18.000', 'n', '2.300', '2.100']": [
        7.143065649253177,
        10.356172350008158,
        -10.0,
        31.0
    ],
    "['60.00 N', '0.00', '18.000', 'n', '2.200', '2.200']": [
        6.418729588102392,
        10.74525277566195,
        -6.0,
        29.0
    ],
    "['60.00 N', '0.00', '18.000', 'n', '2.300', '2.000']": [
        8.179630621722616,
        12.24576478321416,
        -10.0,
        35.0
    ],
    "['60.00 N', '0.00', '18.000', 'n', '2.100', '2.100']": [
        6.432382796773663,
        14.326998327889285,
        -2.0,
        34.0
    ],
    "['60.00 N', '0.00', '18.000', 'n', '2.200', '2.000']": [
        7.154390259146601,
        13.798276832913084,
        -6.0,
        35.0
    ],
    "['60.00 N', '0.00', '18.000', 'n', '2.400', '2.200']": [
        7.135099468038405,
        7.4771928217237305,
        -14.0,
        27.0
    ],
    "['60.00 N', '0.00', '18.000', 'n', '2.300', '2.300']": [
        6.4118807175163175,
        7.5436705604907495,
        -10.0,
        25.0
    ],
    "['60.00 N', '0.00', '18.000', 'n', '2.400', '2.400']": [
        6.439171832736359,
        5.4041653706574175,
        -14.0,
        21.0
    ],
    "['60.00 N', '0.00', '18.000', 'n', '2.300', '2.200']": [
        6.568607434896922,
        8.755108547344182,
        -10.0,
        28.0
    ],
    "['60.00 N', '0.00', '18.000', 'n', '2.400', '2.100']": [
        8.202253011166437,
        9.310500116589226,
        -14.0,
        31.0
    ],
    "['60.00 N', '0.00', '18.000', 'n', '2.400', '2.000']": [
        9.590911293452574,
        11.255337588167242,
        -14.0,
        35.0
    ],
    "['60.00 N', '0.00', '18.000', 'n', '2.500', '2.000']": [
        11.199186556000479,
        10.942269082173466,
        -18.0,
        35.0
    ],
    "['60.00 N', '0.00', '18.000', 'n', '2.400', '2.300']": [
        6.576866520510847,
        6.127625936155519,
        -14.0,
        24.0
    ],
    "['60.00 N', '0.00', '18.000', 'n', '2.500', '2.500']": [
        6.421384869029288,
        4.805573257705813,
        -18.0,
        17.0
    ],
    "['60.00 N', '0.00', '18.000', 'n', '2.500', '2.200']": [
        8.220387637282714,
        7.130960631462532,
        -18.0,
        27.0
    ],
    "['60.00 N', '0.00', '18.000', 'n', '2.500', '2.300']": [
        7.130759926015066,
        5.609494788303988,
        -18.0,
        23.0
    ],
    "['60.00 N', '0.00', '18.000', 'n', '2.600', '2.000']": [
        12.941244484984091,
        11.51910335412601,
        -22.0,
        35.0
    ],
    "['60.00 N', '0.00', '18.000', 'n', '2.500', '2.100']": [
        9.617558081388884,
        8.995248094934546,
        -18.0,
        31.0
    ],
    "['60.00 N', '0.00', '18.000', 'n', '2.600', '2.100']": [
        11.229212289874543,
        9.560190766297303,
        -22.0,
        31.0
    ],
    "['60.00 N', '0.00', '18.000', 'n', '2.500', '2.400']": [
        6.571460020869158,
        4.883812492049223,
        -18.0,
        20.0
    ],
    "['60.00 N', '0.00', '18.000', 'n', '2.600', '2.200']": [
        9.644077371145771,
        7.694898559916258,
        -22.0,
        27.0
    ],
    "['60.00 N', '0.00', '18.000', 'n', '2.700', '2.100']": [
        12.903992232048797,
        10.8154734152087,
        -26.0,
        31.0
    ],
    "['60.00 N', '0.00', '18.000', 'n', '2.700', '2.300']": [
        9.58124534483637,
        7.369793353228725,
        -26.0,
        23.0
    ],
    "['60.00 N', '0.00', '18.000', 'n', '2.600', '2.300']": [
        8.246495021035877,
        6.160508998149737,
        -22.0,
        23.0
    ],
    "['60.00 N', '0.00', '18.000', 'n', '2.600', '2.500']": [
        6.593572443986544,
        5.486237050841368,
        -22.0,
        16.0
    ],
    "['60.00 N', '0.00', '18.000', 'n', '2.700', '2.200']": [
        11.179546436242168,
        8.929273929811801,
        -26.0,
        27.0
    ],
    "['60.00 N', '0.00', '18.000', 'n', '2.600', '2.600']": [
        6.4524212421762375,
        6.0511334964350505,
        -22.0,
        13.0
    ],
    "['60.00 N', '0.00', '18.000', 'n', '2.700', '2.000']": [
        14.695272419996124,
        12.779828087744356,
        -26.0,
        35.0
    ],
    "['60.00 N', '0.00', '18.000', 'n', '2.600', '2.400']": [
        7.146980640857891,
        5.350763642870112,
        -22.0,
        19.0
    ],
    "['60.00 N', '0.00', '18.000', 'n', '2.800', '2.100']": [
        14.689824751733752,
        12.389672303181124,
        -30.0,
        31.0
    ],
    "['60.00 N', '0.00', '18.000', 'n', '2.700', '2.500']": [
        7.103693396600704,
        6.743776272877662,
        -26.0,
        15.0
    ],
    "['60.00 N', '0.00', '18.000', 'n', '2.700', '2.700']": [
        6.40135890409303,
        8.666422571683919,
        -26.0,
        9.0
    ],
    "['60.00 N', '0.00', '18.000', 'n', '2.700', '2.400']": [
        8.197630455152144,
        6.605745060049199,
        -26.0,
        19.0
    ],
    "['60.00 N', '0.00', '18.000', 'n', '2.700', '2.600']": [
        6.557436587085522,
        7.615972092634521,
        -26.0,
        11.0
    ],
    "['60.00 N', '0.00', '18.000', 'n', '2.800', '2.200']": [
        12.878235542741038,
        10.485056665795684,
        -30.0,
        27.0
    ],
    "['60.00 N', '0.00', '18.000', 'n', '2.800', '2.000']": [
        16.53609191295959,
        14.358672550460039,
        -30.0,
        35.0
    ],
    "['60.00 N', '0.00', '18.000', 'n', '2.800', '2.300']": [
        11.137986951723327,
        8.936963104776815,
        -30.0,
        23.0
    ],
    "['60.00 N', '0.00', '18.000', 'n', '2.800', '2.600']": [
        7.100351266815159,
        9.337318802868229,
        -30.0,
        11.0
    ],
    "['60.00 N', '0.00', '18.000', 'n', '2.800', '2.700']": [
        6.53896103123253,
        10.769686768972221,
        -30.0,
        7.0
    ],
    "['60.00 N', '1.00', '18.000', 'n', '2.000', '2.000']": [
        6.413444407562851,
        17.1536119856692,
        1.0,
        37.0
    ],
    "['60.00 N', '0.00', '18.000', 'n', '2.800', '2.500']": [
        8.182393697297705,
        8.399896299710884,
        -30.0,
        15.0
    ],
    "['60.00 N', '0.00', '18.000', 'n', '2.800', '2.800']": [
        6.383623271940686,
        12.10456270514576,
        -30.0,
        5.0
    ],
    "['60.00 N', '0.00', '18.000', 'n', '2.800', '2.400']": [
        9.55306456086586,
        8.194989703398374,
        -30.0,
        19.0
    ],
    "['60.00 N', '1.00', '18.000', 'n', '2.100', '2.100']": [
        6.4251007842508505,
        13.429586216283505,
        -3.0,
        33.0
    ],
    "['60.00 N', '1.00', '18.000', 'n', '2.100', '2.000']": [
        6.544009325138624,
        14.836357519626445,
        -3.0,
        35.0
    ],
    "['60.00 N', '1.00', '18.000', 'n', '2.200', '2.100']": [
        6.549724039819242,
        11.257659733533881,
        -7.0,
        31.0
    ],
    "['60.00 N', '1.00', '18.000', 'n', '2.200', '2.200']": [
        6.420707336268347,
        9.897348888731504,
        -7.0,
        28.0
    ],
    "['60.00 N', '1.00', '18.000', 'n', '2.400', '2.000']": [
        9.598782263520814,
        10.597919705914613,
        -15.0,
        34.0
    ],
    "['60.00 N', '1.00', '18.000', 'n', '2.300', '2.000']": [
        8.181995688963113,
        11.465683068886763,
        -11.0,
        34.0
    ],
    "['60.00 N', '1.00', '18.000', 'n', '2.300', '2.200']": [
        6.564138818154214,
        8.021948384031232,
        -11.0,
        27.0
    ],
    "['60.00 N', '1.00', '18.000', 'n', '2.200', '2.000']": [
        7.155263950253841,
        12.907142293074816,
        -7.0,
        34.0
    ],
    "['60.00 N', '1.00', '18.000', 'n', '2.300', '2.300']": [
        6.409584620883181,
        6.881553091723031,
        -11.0,
        24.0
    ],
    "['60.00 N', '1.00', '18.000', 'n', '2.300', '2.100']": [
        7.140024301801313,
        9.590144280769875,
        -11.0,
        30.0
    ],
    "['60.00 N', '1.00', '18.000', 'n', '2.500', '2.300']": [
        7.1306143318445505,
        5.395588095512476,
        -19.0,
        22.0
    ],
    "['60.00 N', '1.00', '18.000', 'n', '2.500', '2.200']": [
        8.218794876035059,
        6.753485974167892,
        -19.0,
        26.0
    ],
    "['60.00 N', '1.00', '18.000', 'n', '2.500', '2.100']": [
        9.617214702674511,
        8.579899435643146,
        -19.0,
        30.0
    ],
    "['60.00 N', '1.00', '18.000', 'n', '2.400', '2.400']": [
        6.433754825535856,
        5.083428432027779,
        -15.0,
        20.0
    ],
    "['60.00 N', '1.00', '18.000', 'n', '2.400', '2.300']": [
        6.580014125572964,
        5.658721144977305,
        -15.0,
        23.0
    ],
    "['60.00 N', '1.00', '18.000', 'n', '2.500', '2.000']": [
        11.199966333497628,
        10.514887691467269,
        -19.0,
        34.0
    ],
    "['60.00 N', '1.00', '18.000', 'n', '2.400', '2.100']": [
        8.209707226425014,
        8.666235685922205,
        -15.0,
        30.0
    ],
    "['60.00 N', '1.00', '18.000', 'n', '2.400', '2.200']": [
        7.146745964551887,
        6.878701387402906,
        -15.0,
        26.0
    ],
    "['60.00 N', '1.00', '18.000', 'n', '2.600', '2.400']": [
        7.129416301185516,
        5.555323629244183,
        -23.0,
        18.0
    ],
    "['60.00 N', '1.00', '18.000', 'n', '2.600', '2.200']": [
        9.626124513502443,
        7.5142387455154145,
        -23.0,
        26.0
    ],
    "['60.00 N', '1.00', '18.000', 'n', '2.600', '2.100']": [
        11.220730046506674,
        9.353954889904058,
        -23.0,
        30.0
    ],
    "['60.00 N', '1.00', '18.000', 'n', '2.600', '2.500']": [
        6.583028196261989,
        5.899539643775341,
        -23.0,
        15.0
    ],
    "['60.00 N', '1.00', '18.000', 'n', '2.600', '2.300']": [
        8.227055306594963,
        6.1371787117538465,
        -23.0,
        22.0
    ],
    "['60.00 N', '1.00', '18.000', 'n', '2.500', '2.400']": [
        6.581498200096753,
        4.865465720839257,
        -19.0,
        19.0
    ],
    "['60.00 N', '1.00', '18.000', 'n', '2.500', '2.500']": [
        6.416296474102932,
        4.9642415698848765,
        -19.0,
        16.0
    ],
    "['60.00 N', '1.00', '18.000', 'n', '2.600', '2.000']": [
        12.922878555001216,
        11.290080166095972,
        -23.0,
        34.0
    ],
    "['60.00 N', '1.00', '18.000', 'n', '2.700', '2.400']": [
        8.187991078252933,
        6.9386481037748675,
        -27.0,
        18.0
    ],
    "['60.00 N', '1.00', '18.000', 'n', '2.700', '2.500']": [
        7.093947878669643,
        7.296922068255032,
        -27.0,
        14.0
    ],
    "['60.00 N', '1.00', '18.000', 'n', '2.700', '2.100']": [
        12.9067351629635,
        10.717290838446093,
        -27.0,
        30.0
    ],
    "['60.00 N', '1.00', '18.000', 'n', '2.700', '2.300']": [
        9.572726091888113,
        7.460912571277967,
        -27.0,
        22.0
    ],
    "['60.00 N', '1.00', '18.000', 'n', '2.700', '2.600']": [
        6.561142461172526,
        8.330772212479395,
        -27.0,
        11.0
    ],
    "['60.00 N', '1.00', '18.000', 'n', '2.700', '2.200']": [
        11.176014832373468,
        8.85510104825802,
        -27.0,
        26.0
    ],
    "['60.00 N', '1.00', '18.000', 'n', '2.700', '2.000']": [
        14.692425023174863,
        12.660860531745799,
        -27.0,
        34.0
    ],
    "['60.00 N', '1.00', '18.000', 'n', '2.600', '2.600']": [
        6.429037693823723,
        6.582981223766528,
        -23.0,
        12.0
    ],
    "['60.00 N', '1.00', '18.000', 'n', '2.800', '2.200']": [
        12.835645199391335,
        10.41178775342925,
        -31.0,
        26.0
    ],
    "['60.00 N', '1.00', '18.000', 'n', '2.700', '2.700']": [
        6.393821845311893,
        9.475965046837333,
        -27.0,
        8.0
    ],
    "['60.00 N', '1.00', '18.000', 'n', '2.800', '2.500']": [
        8.153743908189673,
        8.955359473854992,
        -31.0,
        14.0
    ],
    "['60.00 N', '1.00', '18.000', 'n', '2.800', '2.600']": [
        7.068718352832178,
        10.060437968880182,
        -31.0,
        10.0
    ],
    "['60.00 N', '1.00', '18.000', 'n', '2.800', '2.000']": [
        16.4933599074566,
        14.267386784309183,
        -31.0,
        34.0
    ],
    "['60.00 N', '1.00', '18.000', 'n', '2.800', '2.300']": [
        11.106292037021225,
        9.039517353438137,
        -31.0,
        22.0
    ],
    "['60.00 N', '1.00', '18.000', 'n', '2.800', '2.100']": [
        14.655551899674673,
        12.306573936969206,
        -31.0,
        30.0
    ],
    "['60.00 N', '1.00', '18.000', 'n', '2.800', '2.400']": [
        9.524774054313951,
        8.537102560982879,
        -31.0,
        18.0
    ],
    "['60.00 N', '2.00', '18.000', 'n', '2.200', '2.200']": [
        6.412160889252033,
        8.518512534777678,
        -9.0,
        27.0
    ],
    "['60.00 N', '1.00', '18.000', 'n', '2.800', '2.800']": [
        6.3760121263798855,
        12.980451641399892,
        -31.0,
        4.0
    ],
    "['60.00 N', '1.00', '18.000', 'n', '2.800', '2.700']": [
        6.51178931916559,
        11.604835408572836,
        -31.0,
        6.0
    ],
    "['60.00 N', '2.00', '18.000', 'n', '2.200', '2.100']": [
        6.5355007096592335,
        9.836219455296995,
        -9.0,
        29.0
    ],
    "['60.00 N', '2.00', '18.000', 'n', '2.100', '2.000']": [
        6.553441033520009,
        13.328772952862593,
        -5.0,
        33.0
    ],
    "['60.00 N', '2.00', '18.000', 'n', '2.000', '2.000']": [
        6.386202909145185,
        15.617215216072397,
        -1.0,
        35.0
    ],
    "['60.00 N', '2.00', '18.000', 'n', '2.200', '2.000']": [
        7.180350679634489,
        11.543598873529419,
        -9.0,
        33.0
    ],
    "['60.00 N', '2.00', '18.000', 'n', '2.100', '2.100']": [
        6.412984738299525,
        11.922584153942747,
        -5.0,
        31.0
    ],
    "['60.00 N', '2.00', '18.000', 'n', '2.400', '2.000']": [
        9.5451530507353,
        9.563548378995403,
        -17.0,
        32.0
    ],
    "['60.00 N', '2.00', '18.000', 'n', '2.300', '2.200']": [
        6.534359608674331,
        6.888825451236291,
        -13.0,
        25.0
    ],
    "['60.00 N', '2.00', '18.000', 'n', '2.300', '2.100']": [
        7.19619340845072,
        8.431464278938684,
        -13.0,
        29.0
    ],
    "['60.00 N', '2.00', '18.000', 'n', '2.400', '2.200']": [
        7.204198091227755,
        6.130260940079539,
        -17.0,
        25.0
    ],
    "['60.00 N', '2.00', '18.000', 'n', '2.300', '2.300']": [
        6.409285001110059,
        5.951320194386484,
        -13.0,
        23.0
    ],
    "['60.00 N', '2.00', '18.000', 'n', '2.400', '2.300']": [
        6.548760114716769,
        5.098854300697135,
        -17.0,
        21.0
    ],
    "['60.00 N', '2.00', '18.000', 'n', '2.400', '2.100']": [
        8.164172050434134,
        7.668797472765619,
        -17.0,
        28.0
    ],
    "['60.00 N', '2.00', '18.000', 'n', '2.300', '2.000']": [
        8.174948790887553,
        10.19160149785958,
        -13.0,
        32.0
    ],
    "['60.00 N', '2.00', '18.000', 'n', '2.500', '2.400']": [
        6.542711088645591,
        5.0214896398744475,
        -21.0,
        17.0
    ],
    "['60.00 N', '2.00', '18.000', 'n', '2.600', '2.000']": [
        12.858567526038684,
        10.920323340993757,
        -25.0,
        32.0
    ],
    "['60.00 N', '2.00', '18.000', 'n', '2.500', '2.100']": [
        9.564582211641424,
        7.917492145050966,
        -21.0,
        28.0
    ],
    "['60.00 N', '2.00', '18.000', 'n', '2.500', '2.000']": [
        11.142183404359438,
        9.823362706461639,
        -21.0,
        32.0
    ],
    "['60.00 N', '2.00', '18.000', 'n', '2.500', '2.500']": [
        6.419156795676417,
        5.4331191216992325,
        -21.0,
        14.0
    ],
    "['60.00 N', '2.00', '18.000', 'n', '2.500', '2.200']": [
        8.178967066371623,
        6.255527448904862,
        -21.0,
        24.0
    ],
    "['60.00 N', '2.00', '18.000', 'n', '2.500', '2.300']": [
        7.188359704940121,
        5.282306962103619,
        -21.0,
        20.0
    ],
    "['60.00 N', '2.00', '18.000', 'n', '2.400', '2.400']": [
        6.418683105970993,
        4.807235594024669,
        -17.0,
        19.0
    ],
    "['60.00 N', '2.00', '18.000', 'n', '2.600', '2.500']": [
        6.545863644400034,
        6.7313789845898135,
        -25.0,
        13.0
    ],
    "['60.00 N', '2.00', '18.000', 'n', '2.600', '2.100']": [
        11.143845700586661,
        8.996010840858803,
        -25.0,
        28.0
    ],
    "['60.00 N', '2.00', '18.000', 'n', '2.600', '2.400']": [
        7.151908940564319,
        6.167171204335238,
        -25.0,
        16.0
    ],
    "['60.00 N', '2.00', '18.000', 'n', '2.600', '2.600']": [
        6.4121108138122755,
        7.669226447539181,
        -25.0,
        10.0
    ],
    "['60.00 N', '2.00', '18.000', 'n', '2.600', '2.200']": [
        9.559677144985852,
        7.324459577345933,
        -25.0,
        24.0
    ],
    "['60.00 N', '2.00', '18.000', 'n', '2.700', '2.100']": [
        12.823982833206939,
        10.478311910481942,
        -28.0,
        28.0
    ],
    "['60.00 N', '2.00', '18.000', 'n', '2.600', '2.300']": [
        8.184753797099363,
        6.30176161467618,
        -25.0,
        20.0
    ],
    "['60.00 N', '2.00', '18.000', 'n', '2.700', '2.000']": [
        14.626463464869387,
        12.411203682258556,
        -28.0,
        32.0
    ],
    "['60.00 N', '2.00', '18.000', 'n', '2.700', '2.600']": [
        6.50235879897151,
        9.567725177488306,
        -28.0,
        9.0
    ],
    "['60.00 N', '2.00', '18.000', 'n', '2.800', '2.100']": [
        14.590141348675084,
        12.12583253112826,
        -32.0,
        28.0
    ],
    "['60.00 N', '2.00', '18.000', 'n', '2.700', '2.400']": [
        8.13555004744721,
        7.6448265273919604,
        -28.0,
        16.0
    ],
    "['60.00 N', '2.00', '18.000', 'n', '2.800', '2.000']": [
        16.445104315379357,
        14.083149848782991,
        -32.0,
        32.0
    ],
    "['60.00 N', '2.00', '18.000', 'n', '2.700', '2.700']": [
        6.375753083899349,
        10.886114135381904,
        -28.0,
        6.0
    ],
    "['60.00 N', '2.00', '18.000', 'n', '2.700', '2.200']": [
        11.102367285012004,
        8.796146138865614,
        -28.0,
        24.0
    ],
    "['60.00 N', '2.00', '18.000', 'n', '2.700', '2.300']": [
        9.514218333005653,
        7.754851681930425,
        -28.0,
        20.0
    ],
    "['60.00 N', '2.00', '18.000', 'n', '2.700', '2.500']": [
        7.106741602794774,
        8.403188473544713,
        -28.0,
        12.0
    ]
}