{
    "['0.00', '42.600', '55.00 N']": [
        5.895669045988494,
        5.499329956978803,
        -14.0,
        15.0
    ],
    "['0.50', '42.600', '55.00 N']": [
        5.855447725875792,
        5.5361778418720675,
        -13.0,
        15.0
    ],
    "['1.00', '42.600', '55.00 N']": [
        5.855564146240821,
        5.645598853292164,
        -13.0,
        16.0
    ],
    "['1.50', '42.600', '55.00 N']": [
        5.83767849375955,
        5.765509017525992,
        -12.0,
        16.0
    ],
    "['2.00', '42.600', '55.00 N']": [
        5.884242302898851,
        5.864311964382482,
        -12.0,
        17.0
    ],
    "['2.50', '42.600', '55.00 N']": [
        5.877867919971155,
        5.913074982535671,
        -12.0,
        17.0
    ],
    "['3.00', '42.600', '55.00 N']": [
        5.91332829492374,
        5.964464849576884,
        -12.0,
        17.0
    ],
    "['3.50', '42.600', '55.00 N']": [
        5.975375803849488,
        5.9775747024972254,
        -12.0,
        18.0
    ],
    "['4.00', '42.600', '55.00 N']": [
        6.050635218535649,
        5.950978152298885,
        -13.0,
        18.0
    ],
    "['4.50', '42.600', '55.00 N']": [
        6.115235977705144,
        5.9455743603697755,
        -14.0,
        19.0
    ],
    "['5.00', '42.600', '55.00 N']": [
        6.29505724649657,
        5.949792950202458,
        -16.0,
        19.0
    ],
    "['5.50', '42.600', '55.00 N']": [
        6.40339123600375,
        5.936141588106627,
        -18.0,
        19.0
    ],
    "['6.00', '42.600', '55.00 N']": [
        6.611887928618378,
        6.043661845183728,
        -20.0,
        19.0
    ],
    "['6.50', '42.600', '55.00 N']": [
        6.819328668276406,
        6.234306183376705,
        -22.0,
        19.0
    ],
    "['7.00', '42.600', '55.00 N']": [
        7.081805209669413,
        6.602422557130332,
        -25.0,
        20.0
    ],
    "['7.50', '42.600', '55.00 N']": [
        7.445945667694162,
        7.265349113537658,
        -30.0,
        20.0
    ],
    "['8.00', '42.600', '55.00 N']": [
        7.841517440879875,
        7.984049910738684,
        -34.0,
        20.0
    ],
    "['8.50', '42.600', '55.00 N']": [
        8.347964688157822,
        9.01735149164832,
        -40.0,
        19.0
    ],
    "['9.00', '42.600', '55.00 N']": [
        8.697316264246473,
        10.097528939652523,
        -35.0,
        19.0
    ],
    "['9.50', '42.600', '55.00 N']": [
        9.343922260059902,
        11.580871065509045,
        -41.0,
        19.0
    ],
    "['10.00', '42.600', '55.00 N']": [
        9.699392329682151,
        13.053705872417098,
        -36.0,
        19.0
    ],
    "['10.50', '42.600', '55.00 N']": [
        10.178797685850071,
        14.826999342200128,
        -35.0,
        18.0
    ],
    "['11.00', '42.600', '55.00 N']": [
        10.566137156729509,
        16.50542519231959,
        -34.0,
        18.0
    ],
    "['11.50', '42.600', '55.00 N']": [
        10.705938153919075,
        17.897181782399862,
        -35.0,
        18.0
    ],
    "['12.00', '42.600', '55.00 N']": [
        10.371918137705444,
        18.715157836712628,
        -34.0,
        17.0
    ]
}