Time,RSRP,Latitude,Longitude,PCI
2025-01-27 00:30:09.651,-78.1,40.765739,-111.844528,94
2025-01-27 00:30:10.184,-76.8,40.765724,-111.844566,94
2025-01-27 00:30:10.685,-77.8,40.765724,-111.844566,94
2025-01-27 00:30:11.190,-75.1,40.765709,-111.844597,94
2025-01-27 00:30:11.690,-73.9,40.765709,-111.844597,94
2025-01-27 00:30:12.199,-76.3,40.765694,-111.844635,94
2025-01-27 00:30:12.693,-78.3,40.765694,-111.844635,94
2025-01-27 00:30:13.200,-78.8,40.765675,-111.844673,94
2025-01-27 00:30:13.700,-81.6,40.765675,-111.844673,94
2025-01-27 00:30:14.200,-79.3,40.765659,-111.844711,94
2025-01-27 00:30:14.695,-80.4,40.765659,-111.844711,94
2025-01-27 00:30:15.205,-81.7,40.765644,-111.844757,94
2025-01-27 00:30:15.715,-78.6,40.765644,-111.844757,94
2025-01-27 00:30:16.215,-79.9,40.765625,-111.844795,94
2025-01-27 00:30:16.730,-80.6,40.765625,-111.844795,94
2025-01-27 00:30:17.235,-82.1,40.765606,-111.844833,94
2025-01-27 00:30:17.735,-81.7,40.765606,-111.844833,94
2025-01-27 00:30:18.240,-79.8,40.765587,-111.844872,94
2025-01-27 00:30:18.740,-80.9,40.765587,-111.844872,94
2025-01-27 00:30:19.250,-82.1,40.765568,-111.844917,94
2025-01-27 00:30:19.750,-80.7,40.765568,-111.844917,94
2025-01-27 00:30:20.255,-80.9,40.765553,-111.844955,94
2025-01-27 00:30:20.760,-78.3,40.765553,-111.844955,94
2025-01-27 00:30:21.270,-82.4,40.765533,-111.844986,94
2025-01-27 00:30:21.780,-79.2,40.765533,-111.844986,94
2025-01-27 00:30:22.290,-83.0,40.765518,-111.845016,94
2025-01-27 00:30:22.790,-80.9,40.765518,-111.845016,94
2025-01-27 00:30:23.300,-81.5,40.765499,-111.845047,94
2025-01-27 00:30:23.805,-81.4,40.765499,-111.845047,94
2025-01-27 00:30:24.310,-79.8,40.765484,-111.845078,94
2025-01-27 00:30:24.815,-78.5,40.765484,-111.845078,94
2025-01-27 00:30:25.320,-81.1,40.765465,-111.8451,94
2025-01-27 00:30:25.830,-80.2,40.765465,-111.8451,94
2025-01-27 00:30:26.340,-79.2,40.765446,-111.845131,94
2025-01-27 00:30:26.835,-80.2,40.765446,-111.845131,94
2025-01-27 00:30:27.340,-79.9,40.765423,-111.845154,94
2025-01-27 00:30:27.845,-78.1,40.765423,-111.845154,94
2025-01-27 00:30:28.350,-80.6,40.7654,-111.845177,94
2025-01-27 00:30:28.859,-74.1,40.7654,-111.845177,94
2025-01-27 00:30:29.369,-77.3,40.765373,-111.845207,94
2025-01-27 00:30:29.871,-75.9,40.765373,-111.845207,94
2025-01-27 00:30:30.375,-77.1,40.765347,-111.84523,94
2025-01-27 00:30:30.883,-75.4,40.765347,-111.84523,94
2025-01-27 00:30:31.388,-75.9,40.765312,-111.845253,94
2025-01-27 00:30:31.899,-80.9,40.765312,-111.845253,94
2025-01-27 00:30:32.398,-79.1,40.765278,-111.845276,94
2025-01-27 00:30:32.904,-78.4,40.765278,-111.845276,94
2025-01-27 00:30:33.408,-80.8,40.765244,-111.845291,94
2025-01-27 00:30:33.913,-79.4,40.765244,-111.845291,94
2025-01-27 00:30:34.415,-81.2,40.765209,-111.845299,94
2025-01-27 00:30:34.918,-81.8,40.765209,-111.845299,94
2025-01-27 00:30:35.425,-79.1,40.765171,-111.845299,94
2025-01-27 00:30:35.923,-78.4,40.765171,-111.845299,94
2025-01-27 00:30:36.433,-80.3,40.765137,-111.845306,94
2025-01-27 00:30:36.939,-80.6,40.765102,-111.845306,94
2025-01-27 00:30:37.447,-79.5,40.765102,-111.845306,94
2025-01-27 00:30:37.948,-78.8,40.765072,-111.845306,94
2025-01-27 00:30:38.451,-79.4,40.765072,-111.845306,94
2025-01-27 00:30:38.959,-80.4,40.765041,-111.845306,94
2025-01-27 00:30:39.459,-77.9,40.765041,-111.845306,94
2025-01-27 00:30:39.961,-78.8,40.765011,-111.845299,94
2025-01-27 00:30:40.464,-78.9,40.765011,-111.845299,94
2025-01-27 00:30:40.971,-80.3,40.764984,-111.845299,94
2025-01-27 00:30:41.465,-81.0,40.764984,-111.845299,94
2025-01-27 00:30:41.973,-80.4,40.764954,-111.845291,94
2025-01-27 00:30:42.469,-80.4,40.764954,-111.845291,94
2025-01-27 00:30:42.984,-78.7,40.764919,-111.845276,94
2025-01-27 00:30:43.488,-80.0,40.764919,-111.845276,94
2025-01-27 00:30:43.979,-78.3,40.764889,-111.845253,94
2025-01-27 00:30:44.480,-81.0,40.764889,-111.845253,94
2025-01-27 00:30:44.988,-78.0,40.764858,-111.845238,94
2025-01-27 00:30:45.492,-79.4,40.764858,-111.845238,94
2025-01-27 00:30:45.993,-78.8,40.764828,-111.845207,94
2025-01-27 00:30:46.500,-79.5,40.764828,-111.845207,94
2025-01-27 00:30:47.005,-79.4,40.764793,-111.845184,94
2025-01-27 00:30:47.504,-78.8,40.764793,-111.845184,94
2025-01-27 00:30:48.008,-78.1,40.764763,-111.845154,94
2025-01-27 00:30:48.512,-80.5,40.764763,-111.845154,94
2025-01-27 00:30:49.024,-81.6,40.764729,-111.845131,94
2025-01-27 00:30:49.523,-82.2,40.764729,-111.845131,94
2025-01-27 00:30:50.032,-82.8,40.76469,-111.845093,94
2025-01-27 00:30:50.509,-82.6,40.76469,-111.845093,94
2025-01-27 00:30:51.058,-81.2,40.764652,-111.845062,94
2025-01-27 00:30:51.564,-80.6,40.764652,-111.845062,94
2025-01-27 00:30:52.063,-81.9,40.764614,-111.845024,94
2025-01-27 00:30:52.571,-80.9,40.764614,-111.845024,94
2025-01-27 00:30:53.078,-82.0,40.764576,-111.844986,94
2025-01-27 00:30:53.579,-80.4,40.764576,-111.844986,94
2025-01-27 00:30:54.089,-84.0,40.764538,-111.844955,94
2025-01-27 00:30:54.584,-84.0,40.764538,-111.844955,94
2025-01-27 00:30:55.093,-82.8,40.764503,-111.844925,94
2025-01-27 00:30:55.603,-82.3,40.764503,-111.844925,94
2025-01-27 00:30:56.108,-81.4,40.764469,-111.844894,94
2025-01-27 00:30:56.614,-81.4,40.764469,-111.844894,94
2025-01-27 00:30:57.123,-79.8,40.764439,-111.844872,94
2025-01-27 00:30:57.624,-78.9,40.764439,-111.844872,94
2025-01-27 00:30:58.130,-80.4,40.764412,-111.844849,94
2025-01-27 00:30:58.633,-79.3,40.764412,-111.844849,94
2025-01-27 00:30:59.139,-80.5,40.764389,-111.844826,94
2025-01-27 00:30:59.643,-81.6,40.764389,-111.844826,94
2025-01-27 00:31:00.139,-82.2,40.764366,-111.844803,94
2025-01-27 00:31:00.639,-80.9,40.764366,-111.844803,94
2025-01-27 00:31:01.144,-79.3,40.764343,-111.844788,94
2025-01-27 00:31:01.641,-77.8,40.764343,-111.844788,94
2025-01-27 00:31:02.144,-80.1,40.764324,-111.844772,94
2025-01-27 00:31:02.651,-80.9,40.764324,-111.844772,94
2025-01-27 00:31:03.149,-79.4,40.764309,-111.844765,94
2025-01-27 00:31:03.659,-79.1,40.764309,-111.844765,94
2025-01-27 00:31:04.160,-79.6,40.764294,-111.844749,94
2025-01-27 00:31:04.664,-81.1,40.764294,-111.844749,94
2025-01-27 00:31:05.169,-81.3,40.764282,-111.844734,94
2025-01-27 00:31:05.678,-81.4,40.764282,-111.844734,94
2025-01-27 00:31:06.176,-83.7,40.764267,-111.844711,94
2025-01-27 00:31:06.677,-82.8,40.764267,-111.844711,94
2025-01-27 00:31:07.179,-80.7,40.764252,-111.844681,94
2025-01-27 00:31:07.686,-80.0,40.764252,-111.844681,94
2025-01-27 00:31:08.187,-80.7,40.76424,-111.84465,94
2025-01-27 00:31:08.695,-80.8,40.76424,-111.84465,94
2025-01-27 00:31:09.205,-81.3,40.764225,-111.844627,94
2025-01-27 00:31:09.710,-79.4,40.764225,-111.844627,94
2025-01-27 00:31:10.221,-79.5,40.764214,-111.844589,94
2025-01-27 00:31:10.724,-76.9,40.764214,-111.844589,94
2025-01-27 00:31:11.230,-80.6,40.764206,-111.844551,94
2025-01-27 00:31:11.733,-79.9,40.764206,-111.844551,94
2025-01-27 00:31:12.233,-81.7,40.764198,-111.844521,94
2025-01-27 00:31:12.735,-77.4,40.764198,-111.844521,94
2025-01-27 00:31:13.234,-78.5,40.764194,-111.844482,94
2025-01-27 00:31:13.740,-78.0,40.764194,-111.844482,94
2025-01-27 00:31:14.250,-79.6,40.764194,-111.844444,94
2025-01-27 00:31:14.755,-78.6,40.764194,-111.844444,94
2025-01-27 00:31:15.258,-78.1,40.764198,-111.844406,94
2025-01-27 00:31:15.760,-79.1,40.764198,-111.844406,94
2025-01-27 00:31:16.260,-79.4,40.764202,-111.844376,94
2025-01-27 00:31:16.766,-81.8,40.764202,-111.844376,94
2025-01-27 00:31:17.270,-78.4,40.764206,-111.844345,94
2025-01-27 00:31:17.775,-79.1,40.764206,-111.844345,94
2025-01-27 00:31:18.280,-78.4,40.764217,-111.844307,94
2025-01-27 00:31:18.785,-73.9,40.764217,-111.844307,94
2025-01-27 00:31:19.295,-72.4,40.764233,-111.844276,94
2025-01-27 00:31:19.795,-78.0,40.764233,-111.844276,94
2025-01-27 00:31:20.301,-78.8,40.764248,-111.844246,94
2025-01-27 00:31:20.809,-72.1,40.764248,-111.844246,94
2025-01-27 00:31:21.315,-69.3,40.764263,-111.844223,94
2025-01-27 00:31:21.815,-69.4,40.764263,-111.844223,94
2025-01-27 00:31:22.324,-70.9,40.764282,-111.844193,94
2025-01-27 00:31:22.824,-68.6,40.764282,-111.844193,94
2025-01-27 00:31:23.324,-72.8,40.764301,-111.844154,94
2025-01-27 00:31:23.830,-77.3,40.764301,-111.844154,94
2025-01-27 00:31:24.339,-75.4,40.764324,-111.844116,94
2025-01-27 00:31:24.840,-73.4,40.764324,-111.844116,94
2025-01-27 00:31:25.348,-70.0,40.764347,-111.844078,94
2025-01-27 00:31:25.839,-72.0,40.764347,-111.844078,94
2025-01-27 00:31:26.351,-69.6,40.764366,-111.84404,94
2025-01-27 00:31:26.854,-65.4,40.764366,-111.84404,94
2025-01-27 00:31:27.359,-65.1,40.764389,-111.844002,94
2025-01-27 00:31:27.870,-66.3,40.764389,-111.844002,94
2025-01-27 00:31:28.375,-68.7,40.764408,-111.843956,94
2025-01-27 00:31:28.880,-71.0,40.764408,-111.843956,94
2025-01-27 00:31:29.384,-72.6,40.764431,-111.843918,94
2025-01-27 00:31:29.893,-73.5,40.764431,-111.843918,94
2025-01-27 00:31:30.389,-73.9,40.76445,-111.843887,94
2025-01-27 00:31:30.895,-72.8,40.76445,-111.843887,94
2025-01-27 00:31:31.404,-69.7,40.764473,-111.843849,94
2025-01-27 00:31:31.910,-65.4,40.764473,-111.843849,94
2025-01-27 00:31:32.420,-69.5,40.764492,-111.843819,94
2025-01-27 00:31:32.927,-67.2,40.764492,-111.843819,94
2025-01-27 00:31:33.432,-64.6,40.764519,-111.843796,94
2025-01-27 00:31:33.944,-69.4,40.764549,-111.843773,94
2025-01-27 00:31:34.451,-72.2,40.764549,-111.843773,94
2025-01-27 00:31:34.950,-68.6,40.76458,-111.843765,94
2025-01-27 00:31:35.452,-73.7,40.76458,-111.843765,94
2025-01-27 00:31:35.965,-74.1,40.764614,-111.843765,94
2025-01-27 00:31:36.469,-77.8,40.764614,-111.843765,94
2025-01-27 00:31:36.979,-77.0,40.764648,-111.843781,94
2025-01-27 00:31:37.482,-74.4,40.764648,-111.843781,94
2025-01-27 00:31:37.987,-78.9,40.764687,-111.843803,94
2025-01-27 00:31:38.485,-77.9,40.764687,-111.843803,94
2025-01-27 00:31:38.992,-78.4,40.764717,-111.843826,94
2025-01-27 00:31:39.502,-80.1,40.764717,-111.843826,94
2025-01-27 00:31:40.007,-79.3,40.764744,-111.843857,94
2025-01-27 00:31:40.509,-79.4,40.764744,-111.843857,94
2025-01-27 00:31:41.022,-80.7,40.764771,-111.84388,94
2025-01-27 00:31:41.532,-80.0,40.764771,-111.84388,94
2025-01-27 00:31:42.039,-79.3,40.764797,-111.843903,94
2025-01-27 00:31:42.545,-80.9,40.764797,-111.843903,94
2025-01-27 00:31:43.049,-79.4,40.764824,-111.843925,94
2025-01-27 00:31:43.556,-80.1,40.764824,-111.843925,94
2025-01-27 00:31:44.049,-80.3,40.764854,-111.843948,94
2025-01-27 00:31:44.557,-80.8,40.764854,-111.843948,94
2025-01-27 00:31:45.057,-81.2,40.764885,-111.843971,94
2025-01-27 00:31:45.559,-80.8,40.764885,-111.843971,94
2025-01-27 00:31:46.063,-79.3,40.764919,-111.843994,94
2025-01-27 00:31:46.562,-80.9,40.764919,-111.843994,94
2025-01-27 00:31:47.062,-80.9,40.764957,-111.844017,94
2025-01-27 00:31:47.565,-80.8,40.764957,-111.844017,94
2025-01-27 00:31:48.074,-81.1,40.764992,-111.844048,94
2025-01-27 00:31:48.577,-79.9,40.764992,-111.844048,94
2025-01-27 00:31:49.076,-80.4,40.765026,-111.84407,94
2025-01-27 00:31:49.584,-79.9,40.765026,-111.84407,94
2025-01-27 00:31:50.091,-79.1,40.765057,-111.844101,94
2025-01-27 00:31:50.596,-79.3,40.765057,-111.844101,94
2025-01-27 00:31:51.106,-79.8,40.765083,-111.844124,94
2025-01-27 00:31:51.614,-79.2,40.765083,-111.844124,94
2025-01-27 00:31:52.121,-79.8,40.76511,-111.844147,94
2025-01-27 00:31:52.625,-78.7,40.76511,-111.844147,94
2025-01-27 00:31:53.141,-78.8,40.765137,-111.84417,94
2025-01-27 00:31:53.649,-79.6,40.765137,-111.84417,94
2025-01-27 00:31:54.149,-79.1,40.765163,-111.844193,94
2025-01-27 00:31:54.650,-79.7,40.765163,-111.844193,94
2025-01-27 00:31:55.160,-79.8,40.76519,-111.844215,94
2025-01-27 00:31:55.650,-82.2,40.76519,-111.844215,94
2025-01-27 00:31:56.163,-80.8,40.765217,-111.844238,94
2025-01-27 00:31:56.665,-83.1,40.765217,-111.844238,94
2025-01-27 00:31:57.170,-80.9,40.765244,-111.844261,94
2025-01-27 00:31:57.668,-80.9,40.765244,-111.844261,94
2025-01-27 00:31:58.176,-78.8,40.765266,-111.844284,94
2025-01-27 00:31:58.681,-81.1,40.765266,-111.844284,94
2025-01-27 00:31:59.195,-80.5,40.765293,-111.844299,94
2025-01-27 00:31:59.695,-81.7,40.765293,-111.844299,94
2025-01-27 00:32:00.205,-80.1,40.765316,-111.844315,94
2025-01-27 00:32:00.717,-78.1,40.765316,-111.844315,94
2025-01-27 00:32:01.217,-80.3,40.765331,-111.84433,94
2025-01-27 00:32:01.724,-80.8,40.765331,-111.84433,94
2025-01-27 00:32:02.227,-80.8,40.76535,-111.844345,94
2025-01-27 00:32:02.723,-83.0,40.76535,-111.844345,94
2025-01-27 00:32:03.224,-82.9,40.765373,-111.844353,94
2025-01-27 00:32:03.727,-81.6,40.765373,-111.844353,94
2025-01-27 00:32:04.243,-82.6,40.7654,-111.844368,94
2025-01-27 00:32:04.743,-83.0,40.7654,-111.844368,94
2025-01-27 00:32:05.248,-81.9,40.765427,-111.844376,94
2025-01-27 00:32:05.758,-80.4,40.765427,-111.844376,94
2025-01-27 00:32:06.263,-80.8,40.765453,-111.844391,94
2025-01-27 00:32:06.762,-80.8,40.765453,-111.844391,94
2025-01-27 00:32:07.265,-82.4,40.765484,-111.844398,94
2025-01-27 00:32:07.771,-81.9,40.765484,-111.844398,94
2025-01-27 00:32:08.268,-82.3,40.765511,-111.844406,94
2025-01-27 00:32:08.772,-82.8,40.765511,-111.844406,94
2025-01-27 00:32:09.274,-82.3,40.765537,-111.844406,94
2025-01-27 00:32:09.780,-85.1,40.765537,-111.844406,94
2025-01-27 00:32:10.284,-80.7,40.765564,-111.844414,94
2025-01-27 00:32:10.790,-81.7,40.765564,-111.844414,94
2025-01-27 00:32:11.301,-81.3,40.765591,-111.844414,94
2025-01-27 00:32:11.805,-83.3,40.765591,-111.844414,94
2025-01-27 00:32:12.313,-79.1,40.765617,-111.844414,94
2025-01-27 00:32:12.823,-77.3,40.765617,-111.844414,94
2025-01-27 00:32:13.323,-77.6,40.765644,-111.844414,94
2025-01-27 00:32:13.828,-77.5,40.765644,-111.844414,94
2025-01-27 00:32:14.335,-79.1,40.765671,-111.844406,94
2025-01-27 00:32:14.832,-74.8,40.765671,-111.844406,94
2025-01-27 00:32:15.340,-74.5,40.765697,-111.844398,94
2025-01-27 00:32:15.849,-76.6,40.765697,-111.844398,94
2025-01-27 00:32:16.352,-82.5,40.765724,-111.844376,94
2025-01-27 00:32:16.857,-83.3,40.765724,-111.844376,94
2025-01-27 00:32:17.348,-83.6,40.765751,-111.84436,94
2025-01-27 00:32:17.860,-84.7,40.765751,-111.84436,94
2025-01-27 00:32:18.364,-81.6,40.765781,-111.84433,94
2025-01-27 00:32:18.867,-81.9,40.765781,-111.84433,94
2025-01-27 00:32:19.379,-80.7,40.765804,-111.844307,94
2025-01-27 00:32:19.885,-84.8,40.765804,-111.844307,94
2025-01-27 00:32:20.384,-80.6,40.765823,-111.844284,94
2025-01-27 00:32:20.885,-83.8,40.765823,-111.844284,94
2025-01-27 00:32:21.384,-82.7,40.765854,-111.844254,94
2025-01-27 00:32:21.895,-80.4,40.765854,-111.844254,94
2025-01-27 00:32:22.407,-81.6,40.765881,-111.844231,94
2025-01-27 00:32:22.911,-84.1,40.765881,-111.844231,94
2025-01-27 00:32:23.406,-87.2,40.765911,-111.844208,94
2025-01-27 00:32:23.911,-79.7,40.765911,-111.844208,94
2025-01-27 00:32:24.406,-79.3,40.765942,-111.844193,94
2025-01-27 00:32:24.922,-79.9,40.765942,-111.844193,94
2025-01-27 00:32:25.421,-81.6,40.765972,-111.844177,94
2025-01-27 00:33:22.876,-84.0,40.768147,-111.844513,94
2025-01-27 00:33:23.401,-83.4,40.768181,-111.844528,94
2025-01-27 00:33:23.908,-84.3,40.768181,-111.844528,94
2025-01-27 00:33:24.408,-83.6,40.768215,-111.844536,94
2025-01-27 00:33:24.913,-85.8,40.768215,-111.844536,94
2025-01-27 00:33:25.415,-83.3,40.768253,-111.844543,94
2025-01-27 00:33:25.917,-84.3,40.768253,-111.844543,94
2025-01-27 00:33:26.426,-84.5,40.768295,-111.844559,94
2025-01-27 00:33:26.934,-86.3,40.768295,-111.844559,94
2025-01-27 00:33:27.434,-83.4,40.768333,-111.844566,94
2025-01-27 00:33:27.934,-87.7,40.768333,-111.844566,94
2025-01-27 00:33:28.441,-86.8,40.768375,-111.844582,94
2025-01-27 00:33:28.940,-88.1,40.768417,-111.844597,94
2025-01-27 00:33:29.443,-87.8,40.768417,-111.844597,94
2025-01-27 00:33:29.942,-86.0,40.768417,-111.844597,94
2025-01-27 00:33:30.448,-87.3,40.768459,-111.844604,94
2025-01-27 00:33:30.953,-86.0,40.768459,-111.844604,94
2025-01-27 00:33:31.456,-87.0,40.768501,-111.84462,94
2025-01-27 00:33:31.958,-86.6,40.768539,-111.844627,94
2025-01-27 00:33:32.460,-85.3,40.768539,-111.844627,94
2025-01-27 00:33:32.964,-85.3,40.768581,-111.844643,94
2025-01-27 00:33:33.467,-85.1,40.768581,-111.844643,94
2025-01-27 00:33:33.947,-86.8,40.768623,-111.844658,94
2025-01-27 00:33:34.484,-86.2,40.768623,-111.844658,94
2025-01-27 00:33:34.990,-89.7,40.768665,-111.844666,94
2025-01-27 00:33:35.496,-87.6,40.768665,-111.844666,94
2025-01-27 00:33:35.999,-90.0,40.768703,-111.844681,94
2025-01-27 00:33:36.500,-88.7,40.768703,-111.844681,94
2025-01-27 00:33:37.002,-90.4,40.768745,-111.844696,94
2025-01-27 00:33:37.530,-90.2,40.768745,-111.844696,94
2025-01-27 00:33:38.029,-88.3,40.768784,-111.844711,94
2025-01-27 00:33:38.525,-89.6,40.768784,-111.844711,94
2025-01-27 00:33:39.030,-88.4,40.768826,-111.844727,94
2025-01-27 00:33:39.534,-88.5,40.768826,-111.844727,94
2025-01-27 00:33:40.036,-86.6,40.768864,-111.844742,94
2025-01-27 00:33:40.530,-85.8,40.768864,-111.844742,94
2025-01-27 00:33:41.037,-85.6,40.768906,-111.844749,94
2025-01-27 00:33:41.542,-88.4,40.768906,-111.844749,94
2025-01-27 00:33:42.030,-87.8,40.768944,-111.844765,94
2025-01-27 00:33:42.557,-88.8,40.768944,-111.844765,94
2025-01-27 00:33:43.059,-89.1,40.768986,-111.84478,94
2025-01-27 00:33:43.565,-89.5,40.768986,-111.84478,94
2025-01-27 00:33:44.070,-89.0,40.769024,-111.844788,94
2025-01-27 00:33:44.568,-90.2,40.769024,-111.844788,94
2025-01-27 00:33:45.073,-91.2,40.769066,-111.844803,94
2025-01-27 00:33:45.586,-90.4,40.769066,-111.844803,94
2025-01-27 00:33:46.088,-90.8,40.769108,-111.844818,94
2025-01-27 00:33:46.596,-92.1,40.769108,-111.844818,94
2025-01-27 00:33:47.104,-90.6,40.769146,-111.844826,94
2025-01-27 00:33:47.616,-89.8,40.769146,-111.844826,94
2025-01-27 00:33:48.116,-89.6,40.769188,-111.844833,94
2025-01-27 00:33:48.621,-88.8,40.769188,-111.844833,94
2025-01-27 00:33:49.126,-92.3,40.769226,-111.844849,94
2025-01-27 00:33:49.634,-89.8,40.769226,-111.844849,94
2025-01-27 00:33:50.129,-93.4,40.769268,-111.844864,94
2025-01-27 00:33:50.646,-92.5,40.769268,-111.844864,94
2025-01-27 00:33:51.157,-93.6,40.769314,-111.844872,94
2025-01-27 00:33:51.661,-90.7,40.769314,-111.844872,94
2025-01-27 00:33:52.166,-91.5,40.769356,-111.844879,94
2025-01-27 00:33:52.675,-92.5,40.769356,-111.844879,94
2025-01-27 00:33:53.187,-91.8,40.769402,-111.844887,94
2025-01-27 00:33:53.675,-92.9,40.769402,-111.844887,94
2025-01-27 00:33:54.181,-93.0,40.769447,-111.844887,94
2025-01-27 00:33:54.681,-91.0,40.769447,-111.844887,94
2025-01-27 00:33:55.181,-85.7,40.769493,-111.844894,94
2025-01-27 00:33:55.682,-93.9,40.769493,-111.844894,94
2025-01-27 00:33:56.195,-89.3,40.769543,-111.844894,94
2025-01-27 00:33:56.690,-90.6,40.769543,-111.844894,94
2025-01-27 00:33:57.199,-91.7,40.769592,-111.844894,94
2025-01-27 00:33:57.706,-92.8,40.769592,-111.844894,94
2025-01-27 00:33:58.205,-91.4,40.769646,-111.844894,94
2025-01-27 00:33:58.715,-91.9,40.769646,-111.844894,94
2025-01-27 00:33:59.215,-89.8,40.769703,-111.844894,94
2025-01-27 00:33:59.729,-91.1,40.769703,-111.844894,94
2025-01-27 00:34:00.240,-92.3,40.769756,-111.844894,94
2025-01-27 00:34:00.741,-92.0,40.769756,-111.844894,94
2025-01-27 00:34:01.242,-92.3,40.769814,-111.844894,94
2025-01-27 00:34:01.752,-92.4,40.769814,-111.844894,94
2025-01-27 00:34:02.248,-92.4,40.769871,-111.844894,94
2025-01-27 00:34:02.781,-95.3,40.769871,-111.844894,94
2025-01-27 00:34:03.270,-94.1,40.769928,-111.844894,94
2025-01-27 00:34:03.782,-96.4,40.769928,-111.844894,94
2025-01-27 00:34:04.289,-97.2,40.769985,-111.844894,94
2025-01-27 00:34:04.797,-97.9,40.769985,-111.844894,94
2025-01-27 00:34:05.313,-99.4,40.770042,-111.844887,94
2025-01-27 00:34:05.809,-99.3,40.770042,-111.844887,94
2025-01-27 00:34:06.318,-98.5,40.7701,-111.844887,94
2025-01-27 00:34:06.830,-99.2,40.7701,-111.844887,94
2025-01-27 00:34:07.321,-99.6,40.770157,-111.844879,94
2025-01-27 00:34:07.831,-99.0,40.770157,-111.844879,94
2025-01-27 00:34:08.321,-100.1,40.770214,-111.844879,94
2025-01-27 00:34:08.836,-95.1,40.770214,-111.844879,94
2025-01-27 00:34:09.341,-99.9,40.770275,-111.844872,94
2025-01-27 00:34:09.849,-99.3,40.770275,-111.844872,94
2025-01-27 00:34:10.358,-99.9,40.770332,-111.844864,94
2025-01-27 00:34:10.862,-96.2,40.770332,-111.844864,94
2025-01-27 00:34:11.369,-98.8,40.770386,-111.844864,94
2025-01-27 00:34:11.882,-99.3,40.770386,-111.844864,94
2025-01-27 00:34:12.390,-100.7,40.770439,-111.844864,94
2025-01-27 00:34:12.885,-101.1,40.770439,-111.844864,94
2025-01-27 00:34:13.406,-101.6,40.770493,-111.844864,94
2025-01-27 00:34:13.921,-103.6,40.770493,-111.844864,94
2025-01-27 00:34:14.436,-100.3,40.770546,-111.844864,94
2025-01-27 00:34:14.949,-101.4,40.770599,-111.844864,94
2025-01-27 00:34:15.438,-100.4,40.770599,-111.844864,94
2025-01-27 00:34:15.948,-101.2,40.770653,-111.844864,94
2025-01-27 00:34:16.449,-104.1,40.770653,-111.844864,94
2025-01-27 00:34:16.961,-101.1,40.770699,-111.844864,94
2025-01-27 00:40:03.683,-79.8,40.767132,-111.836296,94
2025-01-27 00:40:04.192,-76.6,40.767204,-111.836266,94
2025-01-27 00:40:04.691,-74.4,40.767204,-111.836266,94
2025-01-27 00:40:05.201,-75.4,40.767277,-111.836243,94
2025-01-27 00:40:05.697,-76.6,40.767277,-111.836243,94
2025-01-27 00:40:06.203,-77.6,40.767349,-111.83622,94
2025-01-27 00:40:06.702,-83.0,40.767349,-111.83622,94
2025-01-27 00:40:07.207,-86.2,40.767426,-111.836197,94
2025-01-27 00:40:07.708,-86.8,40.767426,-111.836197,94
2025-01-27 00:40:08.216,-75.8,40.767502,-111.836182,94
2025-01-27 00:40:08.720,-73.9,40.767502,-111.836182,94
2025-01-27 00:40:09.223,-73.8,40.767582,-111.836174,94
2025-01-27 00:40:09.731,-76.8,40.767582,-111.836174,94
2025-01-27 00:40:10.231,-74.2,40.767654,-111.836166,94
2025-01-27 00:40:10.742,-75.9,40.767654,-111.836166,94
2025-01-27 00:40:11.243,-75.7,40.767731,-111.836174,94
2025-01-27 00:40:11.742,-71.3,40.767731,-111.836174,94
2025-01-27 00:40:12.247,-73.8,40.767799,-111.836182,94
2025-01-27 00:40:12.745,-74.8,40.767799,-111.836182,94
2025-01-27 00:40:13.255,-81.9,40.767868,-111.836205,94
2025-01-27 00:46:08.487,-79.2,40.768223,-111.835213,94
2025-01-27 00:46:08.994,-77.4,40.76823,-111.835258,94
2025-01-27 00:46:09.500,-82.8,40.76823,-111.835258,94
2025-01-27 00:46:10.012,-74.5,40.768234,-111.835281,94
2025-01-27 00:46:10.516,-74.3,40.768234,-111.835281,94
2025-01-27 00:46:11.022,-70.3,40.768238,-111.835312,94
2025-01-27 00:46:11.527,-70.8,40.768238,-111.835312,94
2025-01-27 00:46:12.034,-70.4,40.768246,-111.83535,94
2025-01-27 00:46:12.536,-72.4,40.768246,-111.83535,94
2025-01-27 00:46:13.046,-71.2,40.768246,-111.835396,94
2025-01-27 00:46:13.549,-70.6,40.768246,-111.835396,94
2025-01-27 00:46:14.052,-67.1,40.768242,-111.835449,94
2025-01-27 00:46:14.556,-70.1,40.768242,-111.835449,94
2025-01-27 00:46:15.056,-69.3,40.768227,-111.835503,94
2025-01-27 00:46:15.556,-69.4,40.768227,-111.835503,94
2025-01-27 00:46:16.067,-68.9,40.768204,-111.835556,94
2025-01-27 00:46:16.572,-67.2,40.768204,-111.835556,94
2025-01-27 00:46:17.084,-69.9,40.768173,-111.835602,94
2025-01-27 00:46:17.590,-68.9,40.768173,-111.835602,94
2025-01-27 00:46:18.105,-68.1,40.768139,-111.835648,94
2025-01-27 00:46:18.607,-67.4,40.768139,-111.835648,94
2025-01-27 00:46:19.114,-67.7,40.768105,-111.835693,94
2025-01-27 00:46:19.614,-66.0,40.768105,-111.835693,94
2025-01-27 00:46:20.116,-65.1,40.768066,-111.835747,94
2025-01-27 00:46:20.619,-65.4,40.768066,-111.835747,94
2025-01-27 00:46:21.124,-67.1,40.768032,-111.835793,94
2025-01-27 00:46:21.622,-67.3,40.768032,-111.835793,94
2025-01-27 00:46:22.122,-69.9,40.768002,-111.835831,94
2025-01-27 00:46:22.627,-68.1,40.768002,-111.835831,94
2025-01-27 00:46:23.131,-73.3,40.767975,-111.835869,94
2025-01-27 00:46:23.635,-66.9,40.767975,-111.835869,94
2025-01-27 00:46:24.142,-74.1,40.76796,-111.835915,94
2025-01-27 00:46:24.642,-74.8,40.76796,-111.835915,94
2025-01-27 00:28:24.405,-84.2,40.769787,-111.844978,94
2025-01-27 00:28:24.920,-83.3,40.769787,-111.844978,94
2025-01-27 00:28:25.425,-83.3,40.769764,-111.844971,94
2025-01-27 00:28:25.935,-81.7,40.769764,-111.844971,94
2025-01-27 00:28:26.431,-83.6,40.769733,-111.844963,94
2025-01-27 00:28:26.955,-83.6,40.769733,-111.844963,94
2025-01-27 00:28:27.470,-83.6,40.769695,-111.844963,94
2025-01-27 00:28:27.989,-84.3,40.769657,-111.844955,94
2025-01-27 00:28:28.504,-85.6,40.769657,-111.844955,94
2025-01-27 00:28:29.020,-83.9,40.769611,-111.844955,94
2025-01-27 00:28:29.531,-87.6,40.769611,-111.844955,94
2025-01-27 00:28:30.046,-88.9,40.769569,-111.844955,94
2025-01-27 00:28:30.551,-87.8,40.769569,-111.844955,94
2025-01-27 00:28:31.057,-87.1,40.769524,-111.844948,94
2025-01-27 00:28:31.552,-89.8,40.769524,-111.844948,94
2025-01-27 00:28:32.060,-89.8,40.769482,-111.84494,94
2025-01-27 00:28:32.571,-89.8,40.769482,-111.84494,94
2025-01-27 00:28:33.065,-89.8,40.76944,-111.84494,94
2025-01-27 00:28:33.584,-89.8,40.76944,-111.84494,94
2025-01-27 00:28:34.090,-89.8,40.769398,-111.844933,94
2025-01-27 00:28:34.604,-89.8,40.769398,-111.844933,94
2025-01-27 00:28:35.107,-79.2,40.76936,-111.844925,94
2025-01-27 00:28:35.629,-84.4,40.76936,-111.844925,94
2025-01-27 00:28:36.139,-84.5,40.769321,-111.844917,94
2025-01-27 00:28:36.657,-84.5,40.769321,-111.844917,94
2025-01-27 00:28:37.157,-89.6,40.769283,-111.84491,94
2025-01-27 00:28:37.665,-89.6,40.769283,-111.84491,94
2025-01-27 00:28:38.173,-89.6,40.769245,-111.844894,94
2025-01-27 00:28:38.672,-89.6,40.769245,-111.844894,94
2025-01-27 00:28:39.189,-89.6,40.769207,-111.844887,94
2025-01-27 00:28:39.707,-89.6,40.769207,-111.844887,94
2025-01-27 00:28:40.220,-89.6,40.769169,-111.844879,94
2025-01-27 00:28:40.725,-89.6,40.769169,-111.844879,94
2025-01-27 00:28:42.750,-85.3,40.769089,-111.844856,94
2025-01-27 00:28:43.270,-91.2,40.769047,-111.844849,94
2025-01-27 00:28:43.772,-91.2,40.769047,-111.844849,94
2025-01-27 00:28:44.288,-89.2,40.769001,-111.844833,94
2025-01-27 00:28:44.795,-89.2,40.769001,-111.844833,94
2025-01-27 00:28:45.298,-89.2,40.768959,-111.844826,94
2025-01-27 00:28:45.805,-89.2,40.768959,-111.844826,94
2025-01-27 00:28:46.309,-89.2,40.768913,-111.84481,94
2025-01-27 00:28:46.815,-89.2,40.768913,-111.84481,94
2025-01-27 00:28:47.316,-87.7,40.768871,-111.844795,94
2025-01-27 00:28:47.822,-87.6,40.768871,-111.844795,94
2025-01-27 00:28:48.317,-87.9,40.768829,-111.84478,94
2025-01-27 00:28:48.823,-86.8,40.768829,-111.84478,94
2025-01-27 00:28:49.219,-86.4,40.768784,-111.844772,94
2025-01-27 00:28:49.839,-87.0,40.768784,-111.844772,94
2025-01-27 00:28:50.269,-87.9,40.768742,-111.844757,94
2025-01-27 00:28:50.839,-87.9,40.768742,-111.844757,94
2025-01-27 00:28:51.350,-85.9,40.7687,-111.844749,94
2025-01-27 00:28:51.865,-86.4,40.7687,-111.844749,94
2025-01-27 00:28:52.370,-87.9,40.768654,-111.844734,94
2025-01-27 00:28:52.880,-84.6,40.768654,-111.844734,94
2025-01-27 00:28:53.386,-87.6,40.768612,-111.844719,94
2025-01-27 00:28:53.895,-86.4,40.768612,-111.844719,94
2025-01-27 00:28:54.395,-84.9,40.76857,-111.844711,94
2025-01-27 00:28:54.912,-84.9,40.76857,-111.844711,94
2025-01-27 00:28:55.425,-85.2,40.768524,-111.844696,94
2025-01-27 00:28:55.930,-85.5,40.768524,-111.844696,94
2025-01-27 00:28:56.439,-85.4,40.768486,-111.844681,94
2025-01-27 00:28:56.954,-86.0,40.768486,-111.844681,94
2025-01-27 00:28:57.445,-85.8,40.768444,-111.844673,94
2025-01-27 00:28:57.947,-86.8,40.768402,-111.844658,94
2025-01-27 00:28:58.459,-85.8,40.768402,-111.844658,94
2025-01-27 00:28:58.964,-87.6,40.76836,-111.84465,94
2025-01-27 00:28:59.470,-88.9,40.76836,-111.84465,94
2025-01-27 00:28:59.997,-88.9,40.768318,-111.844635,94
2025-01-27 00:29:00.499,-88.7,40.768318,-111.844635,94
2025-01-27 00:29:01.004,-90.1,40.768276,-111.844627,94
2025-01-27 00:29:01.515,-89.6,40.768276,-111.844627,94
2025-01-27 00:29:02.014,-89.4,40.768238,-111.844612,94
2025-01-27 00:29:02.527,-89.6,40.768238,-111.844612,94
2025-01-27 00:29:03.034,-88.1,40.768196,-111.844597,94
2025-01-27 00:29:03.544,-86.8,40.768196,-111.844597,94
2025-01-27 00:29:04.052,-86.2,40.768154,-111.844589,94
2025-01-27 00:29:04.574,-84.9,40.768154,-111.844589,94
2025-01-27 00:29:05.079,-84.3,40.768116,-111.844574,94
2025-01-27 00:29:05.589,-84.8,40.768116,-111.844574,94
2025-01-27 00:29:06.094,-85.5,40.768078,-111.844566,94
2025-01-27 00:29:06.609,-85.3,40.768078,-111.844566,94
2025-01-27 00:29:07.104,-85.4,40.76804,-111.844559,94
2025-01-27 00:29:07.619,-84.9,40.76804,-111.844559,94
2025-01-27 00:29:08.129,-85.1,40.768002,-111.844543,94
2025-01-27 00:29:08.651,-85.4,40.768002,-111.844543,94
2025-01-27 00:29:09.149,-84.6,40.767963,-111.844536,94
2025-01-27 00:29:09.644,-86.4,40.767963,-111.844536,94
2025-01-27 00:29:10.154,-87.5,40.767925,-111.844528,94
2025-01-27 00:29:10.664,-86.7,40.767925,-111.844528,94
2025-01-27 00:29:11.163,-87.0,40.767883,-111.844521,94
2025-01-27 00:29:11.678,-88.3,40.767883,-111.844521,94
2025-01-27 00:29:12.174,-88.4,40.767845,-111.844513,94
2025-01-27 00:29:12.694,-88.1,40.767845,-111.844513,94
2025-01-27 00:29:13.206,-88.1,40.767803,-111.844498,94
2025-01-27 00:29:13.709,-87.9,40.767803,-111.844498,94
2025-01-27 00:29:14.213,-87.2,40.767765,-111.84449,94
2025-01-27 00:29:14.719,-87.9,40.767765,-111.84449,94
2025-01-27 00:29:15.231,-86.8,40.767723,-111.844482,94
2025-01-27 00:29:15.744,-86.9,40.767723,-111.844482,94
2025-01-27 00:29:16.265,-83.8,40.767685,-111.844475,94
2025-01-27 00:29:16.773,-85.8,40.767685,-111.844475,94
2025-01-27 00:29:17.283,-83.1,40.767647,-111.844467,94
2025-01-27 00:29:17.783,-83.1,40.767647,-111.844467,94
2025-01-27 00:29:18.286,-67.4,40.767612,-111.84446,94
2025-01-27 00:29:18.783,-76.5,40.767612,-111.84446,94
2025-01-27 00:29:19.289,-74.2,40.767578,-111.844452,94
2025-01-27 00:29:19.793,-74.2,40.767578,-111.844452,94
2025-01-27 00:29:20.306,-82.8,40.767544,-111.844444,94
2025-01-27 00:29:20.828,-79.8,40.767544,-111.844444,94
2025-01-27 00:29:21.328,-79.8,40.767509,-111.844437,94
2025-01-27 00:29:21.841,-79.8,40.767509,-111.844437,94
2025-01-27 00:29:22.326,-76.0,40.767479,-111.844421,94
2025-01-27 00:29:22.865,-76.2,40.767479,-111.844421,94
2025-01-27 00:29:23.371,-76.2,40.767448,-111.844414,94
2025-01-27 00:29:23.869,-72.0,40.767448,-111.844414,94
2025-01-27 00:29:24.391,-72.0,40.76741,-111.844406,94
2025-01-27 00:29:24.910,-83.6,40.76741,-111.844406,94
2025-01-27 00:29:25.406,-81.0,40.767376,-111.844391,94
2025-01-27 00:29:25.918,-81.0,40.767376,-111.844391,94
2025-01-27 00:29:26.448,-73.6,40.767338,-111.844383,94
2025-01-27 00:29:26.958,-79.4,40.7673,-111.844368,94
2025-01-27 00:29:27.463,-77.9,40.7673,-111.844368,94
2025-01-27 00:29:27.983,-81.0,40.767262,-111.84436,94
2025-01-27 00:29:28.492,-78.4,40.767262,-111.84436,94
2025-01-27 00:29:28.998,-78.3,40.767223,-111.844353,94
2025-01-27 00:29:29.518,-83.9,40.767223,-111.844353,94
2025-01-27 00:29:30.023,-84.2,40.767185,-111.844337,94
2025-01-27 00:29:30.523,-84.7,40.767185,-111.844337,94
2025-01-27 00:29:31.028,-78.6,40.767143,-111.84433,94
2025-01-27 00:29:31.527,-78.6,40.767143,-111.84433,94
2025-01-27 00:29:32.033,-78.6,40.767105,-111.844322,94
2025-01-27 00:29:32.543,-78.6,40.767105,-111.844322,94
2025-01-27 00:29:33.048,-86.5,40.767067,-111.844307,94
2025-01-27 00:29:33.556,-83.8,40.767067,-111.844307,94
2025-01-27 00:29:34.079,-84.4,40.767029,-111.844299,94
2025-01-27 00:29:34.582,-86.1,40.767029,-111.844299,94
2025-01-27 00:29:35.086,-84.8,40.766991,-111.844292,94
2025-01-27 00:29:35.583,-86.7,40.766991,-111.844292,94
2025-01-27 00:29:36.098,-87.9,40.766953,-111.844284,94
2025-01-27 00:29:36.603,-84.7,40.766953,-111.844284,94
2025-01-27 00:29:37.111,-82.3,40.766914,-111.844269,94
2025-01-27 00:29:37.613,-82.5,40.766914,-111.844269,94
2025-01-27 00:29:38.103,-82.3,40.766872,-111.844261,94
2025-01-27 00:29:38.605,-82.4,40.766872,-111.844261,94
2025-01-27 00:29:39.113,-81.1,40.766834,-111.844254,94
2025-01-27 00:29:39.632,-84.6,40.766834,-111.844254,94
2025-01-27 00:29:40.142,-81.4,40.766792,-111.844246,94
2025-01-27 00:29:40.648,-79.8,40.766792,-111.844246,94
2025-01-27 00:29:41.163,-80.5,40.766754,-111.844238,94
2025-01-27 00:29:41.671,-81.1,40.766754,-111.844238,94
2025-01-27 00:29:42.182,-81.8,40.766712,-111.844231,94
2025-01-27 00:29:42.684,-79.3,40.766712,-111.844231,94
2025-01-27 00:29:43.203,-81.6,40.76667,-111.844223,94
2025-01-27 00:29:43.702,-81.8,40.76667,-111.844223,94
2025-01-27 00:29:44.220,-83.1,40.766632,-111.844215,94
2025-01-27 00:29:44.724,-81.4,40.766632,-111.844215,94
2025-01-27 00:29:45.224,-84.4,40.766594,-111.844215,94
2025-01-27 00:29:45.735,-85.0,40.766594,-111.844215,94
2025-01-27 00:29:46.242,-83.4,40.766556,-111.844215,94
2025-01-27 00:29:46.757,-85.0,40.766556,-111.844215,94
2025-01-27 00:29:47.254,-84.1,40.766514,-111.844215,94
2025-01-27 00:29:47.762,-83.6,40.766514,-111.844215,94
2025-01-27 00:29:48.281,-83.6,40.766479,-111.844215,94
2025-01-27 00:29:48.776,-83.8,40.766479,-111.844215,94
2025-01-27 00:29:49.284,-85.9,40.766438,-111.844215,94
2025-01-27 00:29:49.789,-84.5,40.766438,-111.844215,94
2025-01-27 00:29:50.307,-83.4,40.766399,-111.844208,94
2025-01-27 00:29:50.807,-82.4,40.766399,-111.844208,94
2025-01-27 00:29:51.313,-85.3,40.766357,-111.844208,94
2025-01-27 00:29:51.824,-84.6,40.766357,-111.844208,94
2025-01-27 00:29:52.318,-85.7,40.766319,-111.844208,94
2025-01-27 00:29:52.822,-85.6,40.766319,-111.844208,94
2025-01-27 00:29:53.342,-88.2,40.766277,-111.844208,94
2025-01-27 00:29:53.842,-84.6,40.766277,-111.844208,94
2025-01-27 00:29:54.342,-86.1,40.766239,-111.8442,94
2025-01-27 00:29:54.901,-85.5,40.766239,-111.8442,94
2025-01-27 00:29:55.405,-82.7,40.766201,-111.8442,94
2025-01-27 00:29:55.911,-84.0,40.766201,-111.8442,94
2025-01-27 00:29:56.423,-86.4,40.766163,-111.8442,94
2025-01-27 00:29:56.932,-86.6,40.766163,-111.8442,94
2025-01-27 00:29:57.428,-84.2,40.766125,-111.844208,94
2025-01-27 00:29:57.943,-83.6,40.766083,-111.844215,94
2025-01-27 00:29:58.447,-83.0,40.766083,-111.844215,94
2025-01-27 00:29:58.951,-82.7,40.766083,-111.844215,94
2025-01-27 00:29:59.459,-82.9,40.766041,-111.844231,94
2025-01-27 00:29:59.950,-87.2,40.766041,-111.844231,94
2025-01-27 00:30:00.471,-84.8,40.766003,-111.844246,94
2025-01-27 00:30:00.988,-83.6,40.765961,-111.844269,94
2025-01-27 00:30:01.515,-86.7,40.765961,-111.844269,94
2025-01-27 00:30:02.012,-86.0,40.765919,-111.844292,94
2025-01-27 00:30:02.541,-88.5,40.765919,-111.844292,94
2025-01-27 00:30:03.046,-85.6,40.765884,-111.844322,94
2025-01-27 00:30:03.552,-78.9,40.765884,-111.844322,94
2025-01-27 00:30:04.055,-79.0,40.76585,-111.84436,94
2025-01-27 00:30:04.564,-79.1,40.76585,-111.84436,94
2025-01-27 00:30:05.071,-80.7,40.76582,-111.844391,94
2025-01-27 00:30:05.577,-82.1,40.76582,-111.844391,94
2025-01-27 00:30:06.087,-82.0,40.765793,-111.844429,94
2025-01-27 00:30:06.597,-82.5,40.765793,-111.844429,94
2025-01-27 00:30:07.103,-82.2,40.76577,-111.84446,94
2025-01-27 00:30:07.617,-80.4,40.76577,-111.84446,94
2025-01-27 00:30:08.137,-81.4,40.765755,-111.844498,94
2025-01-27 00:30:08.645,-80.8,40.765755,-111.844498,94
2025-01-27 00:30:09.149,-80.1,40.765739,-111.844528,94
2025-01-27 00:32:25.923,-83.9,40.765972,-111.844177,94
2025-01-27 00:32:26.429,-83.7,40.76601,-111.844162,94
2025-01-27 00:32:26.937,-84.9,40.76601,-111.844162,94
2025-01-27 00:32:27.435,-86.1,40.766048,-111.844154,94
2025-01-27 00:32:27.960,-87.9,40.76609,-111.844147,94
2025-01-27 00:32:28.407,-87.4,40.76609,-111.844147,94
2025-01-27 00:32:28.975,-90.3,40.766136,-111.844147,94
2025-01-27 00:32:29.499,-89.4,40.766136,-111.844147,94
2025-01-27 00:32:29.995,-86.9,40.766178,-111.844147,94
2025-01-27 00:32:30.517,-85.5,40.766178,-111.844147,94
2025-01-27 00:32:31.018,-88.5,40.766224,-111.844147,94
2025-01-27 00:32:31.529,-92.8,40.766224,-111.844147,94
2025-01-27 00:32:32.028,-92.5,40.766266,-111.844147,94
2025-01-27 00:32:32.540,-90.8,40.766266,-111.844147,94
2025-01-27 00:32:33.052,-90.0,40.766312,-111.844147,94
2025-01-27 00:32:33.564,-89.3,40.766312,-111.844147,94
2025-01-27 00:32:34.061,-84.3,40.766354,-111.844154,94
2025-01-27 00:32:34.563,-86.3,40.766354,-111.844154,94
2025-01-27 00:32:35.066,-87.8,40.766396,-111.844147,94
2025-01-27 00:32:35.571,-87.7,40.766396,-111.844147,94
2025-01-27 00:32:36.086,-88.7,40.766434,-111.844147,94
2025-01-27 00:32:36.589,-89.8,40.766434,-111.844147,94
2025-01-27 00:32:37.091,-87.4,40.766468,-111.844154,94
2025-01-27 00:32:37.606,-86.0,40.766468,-111.844154,94
2025-01-27 00:32:38.103,-86.1,40.766506,-111.844154,94
2025-01-27 00:32:38.613,-86.4,40.766506,-111.844154,94
2025-01-27 00:32:39.118,-85.5,40.766544,-111.844154,94
2025-01-27 00:32:39.632,-87.2,40.766544,-111.844154,94
2025-01-27 00:32:40.132,-86.9,40.766582,-111.844154,94
2025-01-27 00:32:40.639,-87.3,40.766582,-111.844154,94
2025-01-27 00:32:41.146,-89.8,40.766617,-111.844154,94
2025-01-27 00:32:41.646,-90.0,40.766617,-111.844154,94
2025-01-27 00:32:42.160,-88.8,40.766655,-111.844162,94
2025-01-27 00:32:42.667,-89.3,40.766655,-111.844162,94
2025-01-27 00:32:43.176,-86.7,40.766693,-111.84417,94
2025-01-27 00:32:43.689,-86.8,40.766693,-111.84417,94
2025-01-27 00:32:44.207,-86.1,40.766731,-111.844177,94
2025-01-27 00:32:44.721,-85.8,40.766731,-111.844177,94
2025-01-27 00:32:45.241,-85.5,40.766769,-111.844185,94
2025-01-27 00:32:45.756,-84.4,40.766769,-111.844185,94
2025-01-27 00:32:46.270,-84.9,40.766808,-111.844193,94
2025-01-27 00:32:46.764,-84.3,40.766808,-111.844193,94
2025-01-27 00:32:47.269,-83.9,40.76685,-111.8442,94
2025-01-27 00:32:47.789,-83.9,40.76685,-111.8442,94
2025-01-27 00:32:48.277,-84.0,40.766884,-111.844208,94
2025-01-27 00:32:48.797,-84.3,40.766884,-111.844208,94
2025-01-27 00:32:49.297,-85.0,40.766922,-111.844223,94
2025-01-27 00:32:49.810,-85.1,40.766922,-111.844223,94
2025-01-27 00:32:50.317,-86.2,40.766956,-111.844231,94
2025-01-27 00:32:50.830,-86.9,40.766956,-111.844231,94
2025-01-27 00:32:51.345,-86.9,40.766991,-111.844238,94
2025-01-27 00:32:51.847,-89.6,40.766991,-111.844238,94
2025-01-27 00:32:52.365,-89.6,40.767025,-111.844246,94
2025-01-27 00:32:52.870,-90.0,40.767025,-111.844246,94
2025-01-27 00:32:53.396,-88.5,40.767052,-111.844261,94
2025-01-27 00:32:53.894,-84.3,40.767052,-111.844261,94
2025-01-27 00:32:54.399,-84.3,40.767082,-111.844269,94
2025-01-27 00:32:54.901,-86.4,40.767082,-111.844269,94
2025-01-27 00:32:55.409,-88.1,40.767109,-111.844276,94
2025-01-27 00:32:55.921,-91.1,40.767109,-111.844276,94
2025-01-27 00:32:56.431,-86.6,40.767139,-111.844284,94
2025-01-27 00:32:56.931,-84.6,40.767139,-111.844284,94
2025-01-27 00:32:57.450,-86.9,40.76717,-111.844292,94
2025-01-27 00:32:57.963,-83.3,40.767204,-111.844299,94
2025-01-27 00:32:58.471,-83.3,40.767204,-111.844299,94
2025-01-27 00:32:58.978,-85.1,40.767239,-111.844315,94
2025-01-27 00:32:59.494,-81.1,40.767239,-111.844315,94
2025-01-27 00:33:00.006,-81.1,40.767277,-111.844322,94
2025-01-27 00:33:00.510,-82.9,40.767277,-111.844322,94
2025-01-27 00:33:01.023,-81.1,40.767315,-111.844337,94
2025-01-27 00:33:01.531,-83.9,40.767315,-111.844337,94
2025-01-27 00:33:02.041,-81.4,40.767357,-111.844353,94
2025-01-27 00:33:02.472,-81.3,40.767357,-111.844353,94
2025-01-27 00:33:03.040,-81.3,40.767395,-111.84436,94
2025-01-27 00:33:03.562,-73.8,40.767395,-111.84436,94
2025-01-27 00:33:04.070,-74.8,40.767437,-111.844376,94
2025-01-27 00:33:04.577,-72.5,40.767437,-111.844376,94
2025-01-27 00:33:05.092,-74.0,40.767483,-111.844391,94
2025-01-27 00:33:05.602,-74.0,40.767483,-111.844391,94
2025-01-27 00:33:06.122,-80.3,40.767525,-111.844398,94
2025-01-27 00:33:06.637,-85.9,40.767525,-111.844398,94
2025-01-27 00:33:07.140,-86.4,40.767567,-111.844406,94
2025-01-27 00:33:07.650,-86.1,40.767567,-111.844406,94
2025-01-27 00:33:08.150,-87.8,40.767609,-111.844414,94
2025-01-27 00:33:08.658,-89.7,40.767609,-111.844414,94
2025-01-27 00:33:09.167,-90.8,40.767651,-111.844421,94
2025-01-27 00:33:09.672,-90.9,40.767651,-111.844421,94
2025-01-27 00:33:10.178,-89.9,40.767696,-111.844429,94
2025-01-27 00:33:10.680,-89.2,40.767696,-111.844429,94
2025-01-27 00:33:11.190,-89.3,40.767738,-111.844437,94
2025-01-27 00:33:11.702,-89.6,40.767738,-111.844437,94
2025-01-27 00:33:12.212,-89.1,40.76778,-111.844444,94
2025-01-27 00:33:12.726,-90.2,40.76778,-111.844444,94
2025-01-27 00:33:13.189,-90.0,40.767822,-111.844452,94
2025-01-27 00:33:13.746,-89.9,40.767822,-111.844452,94
2025-01-27 00:33:14.257,-89.3,40.767864,-111.84446,94
2025-01-27 00:33:14.765,-89.4,40.767864,-111.84446,94
2025-01-27 00:33:15.270,-89.1,40.767902,-111.844467,94
2025-01-27 00:33:15.769,-88.8,40.767902,-111.844467,94
2025-01-27 00:33:16.280,-89.1,40.767941,-111.844475,94
2025-01-27 00:33:16.789,-89.3,40.767941,-111.844475,94
2025-01-27 00:33:17.289,-87.7,40.767975,-111.844475,94
2025-01-27 00:33:17.776,-86.3,40.767975,-111.844475,94
2025-01-27 00:33:18.311,-85.4,40.768009,-111.844482,94
2025-01-27 00:33:18.813,-85.7,40.768009,-111.844482,94
2025-01-27 00:33:19.319,-85.3,40.768044,-111.84449,94
2025-01-27 00:33:19.823,-85.0,40.768044,-111.84449,94
2025-01-27 00:33:20.329,-86.1,40.768078,-111.844498,94
2025-01-27 00:33:20.822,-86.1,40.768078,-111.844498,94
2025-01-27 00:33:21.339,-85.8,40.768112,-111.844505,94
2025-01-27 00:33:21.852,-85.9,40.768112,-111.844505,94
2025-01-27 00:33:22.359,-86.5,40.768147,-111.844513,94
2025-01-27 00:34:17.460,-102.4,40.770699,-111.844864,94
2025-01-27 00:34:17.984,-102.4,40.770744,-111.844864,94
2025-01-27 00:34:18.503,-102.4,40.770744,-111.844864,94
2025-01-27 00:34:19.018,-102.4,40.770782,-111.844864,94
2025-01-27 00:34:19.548,-102.4,40.770782,-111.844864,94
2025-01-27 00:34:20.063,-102.4,40.770817,-111.844864,94
2025-01-27 00:34:20.565,-102.4,40.770817,-111.844864,94
2025-01-27 00:34:21.076,-102.4,40.770844,-111.844864,94
2025-01-27 00:34:21.594,-102.4,40.770844,-111.844864,94
2025-01-27 00:34:22.100,-102.4,40.770866,-111.844856,94
2025-01-27 00:34:23.103,-96.2,40.770889,-111.844841,94
2025-01-27 00:34:23.613,-93.3,40.770889,-111.844841,94
2025-01-27 00:34:24.118,-92.0,40.770908,-111.844826,94
2025-01-27 00:34:24.633,-89.0,40.770908,-111.844826,94
2025-01-27 00:34:25.131,-91.7,40.770927,-111.844795,94
2025-01-27 00:34:25.633,-91.7,40.770927,-111.844795,94
2025-01-27 00:34:26.147,-94.6,40.770935,-111.844757,94
2025-01-27 00:34:26.648,-94.6,40.770935,-111.844757,94
2025-01-27 00:34:27.168,-98.2,40.770935,-111.844711,94
2025-01-27 00:34:27.668,-95.3,40.770935,-111.844711,94
2025-01-27 00:34:28.168,-96.7,40.770935,-111.844658,94
2025-01-27 00:34:28.668,-97.1,40.770935,-111.844658,94
2025-01-27 00:34:29.177,-95.2,40.770931,-111.844597,94
2025-01-27 00:34:29.683,-96.6,40.770931,-111.844597,94
2025-01-27 00:34:30.189,-97.2,40.770927,-111.844536,94
2025-01-27 00:34:30.690,-95.6,40.770927,-111.844536,94
2025-01-27 00:34:31.186,-93.1,40.770927,-111.844467,94
2025-01-27 00:34:31.694,-91.8,40.770927,-111.844467,94
2025-01-27 00:34:32.201,-92.1,40.770927,-111.844398,94
2025-01-27 00:34:32.708,-93.8,40.770927,-111.844398,94
2025-01-27 00:34:33.208,-93.0,40.770927,-111.844337,94
2025-01-27 00:34:33.718,-93.2,40.770927,-111.844337,94
2025-01-27 00:34:34.222,-94.9,40.770924,-111.844269,94
2025-01-27 00:34:34.729,-95.9,40.770924,-111.844269,94
2025-01-27 00:34:35.253,-94.9,40.770927,-111.844208,94
2025-01-27 00:34:35.758,-92.8,40.770927,-111.844208,94
2025-01-27 00:34:36.275,-91.5,40.770927,-111.844139,94
2025-01-27 00:34:36.781,-93.1,40.770927,-111.844139,94
2025-01-27 00:34:37.288,-89.8,40.770935,-111.84407,94
2025-01-27 00:34:37.798,-93.8,40.770935,-111.84407,94
2025-01-27 00:34:38.311,-92.9,40.770939,-111.843994,94
2025-01-27 00:34:38.818,-92.9,40.770939,-111.843994,94
2025-01-27 00:34:40.354,-91.7,40.77095,-111.843857,94
2025-01-27 00:34:40.872,-91.7,40.77095,-111.843857,94
2025-01-27 00:34:41.380,-89.6,40.770962,-111.843788,94
2025-01-27 00:34:41.897,-90.8,40.770962,-111.843788,94
2025-01-27 00:34:42.407,-90.3,40.770973,-111.843719,94
2025-01-27 00:34:42.918,-89.4,40.770973,-111.843719,94
2025-01-27 00:34:43.422,-84.8,40.770992,-111.843643,94
2025-01-27 00:34:43.930,-84.0,40.770992,-111.843643,94
2025-01-27 00:34:44.437,-89.9,40.771011,-111.843575,94
2025-01-27 00:34:44.942,-86.7,40.771011,-111.843575,94
2025-01-27 00:34:45.447,-84.1,40.771034,-111.843513,94
2025-01-27 00:34:45.961,-81.4,40.771057,-111.843452,94
2025-01-27 00:34:46.453,-85.1,40.771057,-111.843452,94
2025-01-27 00:34:47.001,-87.3,40.77108,-111.843399,94
2025-01-27 00:34:47.509,-87.3,40.77108,-111.843399,94
2025-01-27 00:34:48.018,-88.8,40.771099,-111.843353,94
2025-01-27 00:34:48.522,-87.4,40.771099,-111.843353,94
2025-01-27 00:34:49.027,-87.4,40.771118,-111.843307,94
2025-01-27 00:34:49.531,-87.3,40.771118,-111.843307,94
2025-01-27 00:34:50.043,-87.3,40.77113,-111.843269,94
2025-01-27 00:34:50.552,-85.3,40.77113,-111.843269,94
2025-01-27 00:34:51.046,-85.9,40.771137,-111.843231,94
2025-01-27 00:34:51.554,-93.1,40.771137,-111.843231,94
2025-01-27 00:34:52.064,-91.6,40.771137,-111.843193,94
2025-01-27 00:34:52.587,-83.1,40.771137,-111.843193,94
2025-01-27 00:34:53.104,-79.2,40.771133,-111.843147,94
2025-01-27 00:34:53.598,-80.4,40.771133,-111.843147,94
2025-01-27 00:34:54.107,-81.2,40.771122,-111.843117,94
2025-01-27 00:34:54.621,-79.0,40.771122,-111.843117,94
2025-01-27 00:34:55.127,-83.6,40.771107,-111.843079,94
2025-01-27 00:34:55.633,-81.5,40.771107,-111.843079,94
2025-01-27 00:34:56.147,-77.2,40.77108,-111.843048,94
2025-01-27 00:34:56.643,-78.8,40.77108,-111.843048,94
2025-01-27 00:34:57.153,-80.7,40.771046,-111.843025,94
2025-01-27 00:34:57.663,-81.7,40.771046,-111.843025,94
2025-01-27 00:34:58.170,-81.7,40.771004,-111.842995,94
2025-01-27 00:34:58.678,-80.1,40.771004,-111.842995,94
2025-01-27 00:34:59.177,-78.8,40.770962,-111.842972,94
2025-01-27 00:34:59.695,-80.6,40.770962,-111.842972,94
2025-01-27 00:35:00.197,-82.0,40.770916,-111.842941,94
2025-01-27 00:35:00.701,-82.0,40.770916,-111.842941,94
2025-01-27 00:35:01.202,-82.0,40.770874,-111.842918,94
2025-01-27 00:35:01.747,-82.0,40.770874,-111.842918,94
2025-01-27 00:35:02.251,-82.0,40.770828,-111.842888,94
2025-01-27 00:35:02.762,-82.0,40.770828,-111.842888,94
2025-01-27 00:35:03.273,-82.0,40.770782,-111.842865,94
2025-01-27 00:36:01.363,-81.3,40.768677,-111.840836,94
2025-01-27 00:36:01.872,-82.9,40.768677,-111.840836,94
2025-01-27 00:36:02.371,-86.3,40.76865,-111.84079,94
2025-01-27 00:36:02.880,-85.4,40.76865,-111.84079,94
2025-01-27 00:36:03.392,-85.8,40.768631,-111.840744,94
2025-01-27 00:36:03.910,-85.6,40.768631,-111.840744,94
2025-01-27 00:36:04.400,-83.1,40.76862,-111.840691,94
2025-01-27 00:36:04.910,-83.1,40.76862,-111.840691,94
2025-01-27 00:36:05.405,-83.3,40.768608,-111.84063,94
2025-01-27 00:36:05.909,-83.3,40.768608,-111.84063,94
2025-01-27 00:36:06.419,-82.6,40.768597,-111.840584,94
2025-01-27 00:36:06.921,-82.6,40.768597,-111.840584,94
2025-01-27 00:36:07.424,-82.6,40.768581,-111.84053,94
2025-01-27 00:36:07.944,-82.6,40.768562,-111.840477,94
2025-01-27 00:36:08.467,-82.6,40.768562,-111.840477,94
2025-01-27 00:36:08.964,-82.6,40.768539,-111.840431,94
2025-01-27 00:36:09.475,-82.6,40.768539,-111.840431,94
2025-01-27 00:36:09.991,-82.6,40.768509,-111.840385,94
2025-01-27 00:36:10.504,-82.6,40.768509,-111.840385,94
2025-01-27 00:36:11.008,-82.6,40.768475,-111.84034,94
2025-01-27 00:36:11.510,-82.6,40.768475,-111.84034,94
2025-01-27 00:36:12.012,-85.4,40.76844,-111.840286,94
2025-01-27 00:36:12.529,-83.1,40.76844,-111.840286,94
2025-01-27 00:36:13.024,-88.1,40.768402,-111.84024,94
2025-01-27 00:36:13.468,-84.9,40.768402,-111.84024,94
2025-01-27 00:36:14.078,-87.8,40.768364,-111.840187,94
2025-01-27 00:36:14.577,-88.3,40.768364,-111.840187,94
2025-01-27 00:36:15.083,-87.8,40.768326,-111.840141,94
2025-01-27 00:36:15.593,-86.6,40.768326,-111.840141,94
2025-01-27 00:36:16.098,-85.3,40.768288,-111.840096,94
2025-01-27 00:36:16.613,-84.9,40.768288,-111.840096,94
2025-01-27 00:36:17.125,-84.0,40.768253,-111.840057,94
2025-01-27 00:36:17.644,-85.1,40.768253,-111.840057,94
2025-01-27 00:36:18.150,-86.7,40.768219,-111.840027,94
2025-01-27 00:36:18.665,-86.7,40.768219,-111.840027,94
2025-01-27 00:36:19.188,-89.1,40.768192,-111.839996,94
2025-01-27 00:36:19.690,-89.1,40.768192,-111.839996,94
2025-01-27 00:36:20.198,-89.1,40.768166,-111.839973,94
2025-01-27 00:36:20.708,-89.1,40.768166,-111.839973,94
2025-01-27 00:36:21.212,-89.1,40.768143,-111.839951,94
2025-01-27 00:36:21.717,-89.1,40.768143,-111.839951,94
2025-01-27 00:36:22.241,-89.1,40.768127,-111.839928,94
2025-01-27 00:36:22.744,-89.1,40.768127,-111.839928,94
2025-01-27 00:36:23.264,-86.1,40.768116,-111.839912,94
2025-01-27 00:36:23.779,-85.9,40.768116,-111.839912,94
2025-01-27 00:36:24.292,-90.3,40.768108,-111.839905,94
2025-01-27 00:36:24.796,-88.7,40.768108,-111.839905,94
2025-01-27 00:36:25.313,-88.7,40.768101,-111.83989,94
2025-01-27 00:36:25.813,-88.7,40.768101,-111.83989,94
2025-01-27 00:36:26.308,-88.7,40.768093,-111.839874,94
2025-01-27 00:36:26.821,-88.7,40.768093,-111.839874,94
2025-01-27 00:36:27.328,-88.7,40.768082,-111.839851,94
2025-01-27 00:36:27.829,-88.7,40.768082,-111.839851,94
2025-01-27 00:36:28.329,-88.7,40.76807,-111.839821,94
2025-01-27 00:36:28.837,-88.7,40.76807,-111.839821,94
2025-01-27 00:36:29.358,-88.7,40.768055,-111.83979,94
2025-01-27 00:36:48.197,-88.3,40.767433,-111.838966,94
2025-01-27 00:36:48.706,-90.8,40.767433,-111.838966,94
2025-01-27 00:36:49.204,-90.9,40.767395,-111.838921,94
2025-01-27 00:36:49.714,-80.8,40.767395,-111.838921,94
2025-01-27 00:36:50.225,-80.8,40.767361,-111.838875,94
2025-01-27 00:36:50.728,-80.8,40.767361,-111.838875,94
2025-01-27 00:36:51.240,-80.8,40.767323,-111.838829,94
2025-01-27 00:36:51.752,-80.8,40.767323,-111.838829,94
2025-01-27 00:36:52.262,-80.8,40.767284,-111.838776,94
2025-01-27 00:36:52.760,-80.8,40.767284,-111.838776,94
2025-01-27 00:36:53.280,-80.8,40.767246,-111.83873,94
2025-01-27 00:36:53.785,-80.8,40.767246,-111.83873,94
2025-01-27 00:36:54.292,-85.0,40.767208,-111.838684,94
2025-01-27 00:36:54.800,-87.6,40.767208,-111.838684,94
2025-01-27 00:36:55.309,-86.2,40.76717,-111.838638,94
2025-01-27 00:36:55.815,-86.1,40.76717,-111.838638,94
2025-01-27 00:36:56.318,-87.4,40.767132,-111.838593,94
2025-01-27 00:36:56.836,-87.4,40.767132,-111.838593,94
2025-01-27 00:36:57.340,-85.9,40.767094,-111.838547,94
2025-01-27 00:36:57.846,-88.8,40.767094,-111.838547,94
2025-01-27 00:36:58.355,-85.7,40.767052,-111.838501,94
2025-01-27 00:36:58.856,-89.2,40.767052,-111.838501,94
2025-01-27 00:36:59.358,-85.8,40.767014,-111.838455,94
2025-01-27 00:36:59.866,-88.0,40.767014,-111.838455,94
2025-01-27 00:37:00.368,-84.3,40.766975,-111.838409,94
2025-01-27 00:37:00.872,-86.9,40.766975,-111.838409,94
2025-01-27 00:37:01.369,-84.4,40.766941,-111.838364,94
2025-01-27 00:37:01.878,-83.6,40.766941,-111.838364,94
2025-01-27 00:37:02.378,-83.7,40.766903,-111.838318,94
2025-01-27 00:37:02.882,-83.0,40.766903,-111.838318,94
2025-01-27 00:37:03.384,-79.8,40.766869,-111.838272,94
2025-01-27 00:37:03.884,-80.2,40.766869,-111.838272,94
2025-01-27 00:37:04.379,-78.8,40.766834,-111.838234,94
2025-01-27 00:37:04.894,-76.3,40.766834,-111.838234,94
2025-01-27 00:37:05.401,-75.6,40.7668,-111.838196,94
2025-01-27 00:37:05.908,-76.4,40.7668,-111.838196,94
2025-01-27 00:37:06.447,-75.9,40.766766,-111.838158,94
2025-01-27 00:37:06.957,-77.6,40.766727,-111.838112,94
2025-01-27 00:37:07.463,-78.3,40.766727,-111.838112,94
2025-01-27 00:37:07.958,-78.5,40.766689,-111.838074,94
2025-01-27 00:37:08.467,-81.6,40.766689,-111.838074,94
2025-01-27 00:37:08.974,-82.0,40.766651,-111.838028,94
2025-01-27 00:37:09.466,-82.6,40.766651,-111.838028,94
2025-01-27 00:37:09.961,-82.0,40.766609,-111.837982,94
2025-01-27 00:37:10.472,-80.9,40.766609,-111.837982,94
2025-01-27 00:37:10.978,-82.7,40.766567,-111.837936,94
2025-01-27 00:37:11.487,-81.8,40.766567,-111.837936,94
2025-01-27 00:37:11.987,-80.3,40.766529,-111.837891,94
2025-01-27 00:37:12.502,-79.1,40.766529,-111.837891,94
2025-01-27 00:37:13.003,-79.3,40.766487,-111.837845,94
2025-01-27 00:37:13.504,-76.6,40.766487,-111.837845,94
2025-01-27 00:37:14.013,-78.4,40.766445,-111.837799,94
2025-01-27 00:37:14.521,-78.3,40.766445,-111.837799,94
2025-01-27 00:37:15.027,-80.4,40.766403,-111.837746,94
2025-01-27 00:37:15.531,-80.4,40.766403,-111.837746,94
2025-01-27 00:37:16.024,-77.6,40.766361,-111.837708,94
2025-01-27 00:37:16.526,-78.3,40.766361,-111.837708,94
2025-01-27 00:37:17.032,-76.9,40.766319,-111.837662,94
2025-01-27 00:37:17.542,-76.8,40.766319,-111.837662,94
2025-01-27 00:37:18.043,-77.0,40.766273,-111.837624,94
2025-01-27 00:37:18.556,-79.1,40.766273,-111.837624,94
2025-01-27 00:37:19.056,-77.3,40.766232,-111.837593,94
2025-01-27 00:37:19.563,-77.0,40.766232,-111.837593,94
2025-01-27 00:37:20.068,-79.3,40.766186,-111.837563,94
2025-01-27 00:37:20.577,-79.3,40.766186,-111.837563,94
2025-01-27 00:37:21.083,-79.3,40.76614,-111.83754,94
2025-01-27 00:37:21.587,-75.8,40.76614,-111.83754,94
2025-01-27 00:37:22.103,-75.8,40.766098,-111.837509,94
2025-01-27 00:37:22.603,-75.8,40.766098,-111.837509,94
2025-01-27 00:37:23.108,-75.8,40.766056,-111.837479,94
2025-01-27 00:37:23.618,-75.8,40.766056,-111.837479,94
2025-01-27 00:37:24.118,-75.8,40.766014,-111.837448,94
2025-01-27 00:37:24.617,-75.8,40.766014,-111.837448,94
2025-01-27 00:37:25.125,-75.8,40.765976,-111.83741,94
2025-01-27 00:37:50.437,-76.4,40.765308,-111.836884,94
2025-01-27 00:37:50.942,-76.4,40.76524,-111.836868,94
2025-01-27 00:37:51.448,-74.7,40.76524,-111.836868,94
2025-01-27 00:37:51.961,-74.7,40.765171,-111.836845,94
2025-01-27 00:37:52.467,-74.7,40.765171,-111.836845,94
2025-01-27 00:37:52.973,-74.7,40.765102,-111.836823,94
2025-01-27 00:37:53.479,-74.7,40.765102,-111.836823,94
2025-01-27 00:37:53.983,-74.7,40.765034,-111.836792,94
2025-01-27 00:37:54.484,-74.7,40.765034,-111.836792,94
2025-01-27 00:37:54.980,-74.7,40.764961,-111.836754,94
2025-01-27 00:37:55.484,-74.7,40.764961,-111.836754,94
2025-01-27 00:39:52.498,-82.4,40.766304,-111.836624,94
2025-01-27 00:39:53.000,-81.1,40.766376,-111.836594,94
2025-01-27 00:39:53.508,-81.1,40.766376,-111.836594,94
2025-01-27 00:39:54.011,-78.5,40.766449,-111.836563,94
2025-01-27 00:39:54.524,-78.5,40.766449,-111.836563,94
2025-01-27 00:39:55.020,-78.5,40.766525,-111.836533,94
2025-01-27 00:39:55.538,-78.5,40.766525,-111.836533,94
2025-01-27 00:39:56.044,-78.5,40.766602,-111.836502,94
2025-01-27 00:39:56.564,-74.5,40.766602,-111.836502,94
2025-01-27 00:39:57.084,-75.7,40.766682,-111.836472,94
2025-01-27 00:39:57.602,-80.6,40.766682,-111.836472,94
2025-01-27 00:39:58.096,-80.9,40.766758,-111.836441,94
2025-01-27 00:39:58.592,-80.9,40.766758,-111.836441,94
2025-01-27 00:39:59.113,-88.4,40.766838,-111.836411,94
2025-01-27 00:39:59.621,-84.1,40.766838,-111.836411,94
2025-01-27 00:40:00.116,-81.1,40.766914,-111.83638,94
2025-01-27 00:40:00.634,-78.5,40.766914,-111.83638,94
2025-01-27 00:40:01.143,-76.8,40.766987,-111.836349,94
2025-01-27 00:40:01.657,-77.9,40.766987,-111.836349,94
2025-01-27 00:40:02.168,-77.3,40.767063,-111.836319,94
2025-01-27 00:40:02.658,-78.3,40.767063,-111.836319,94
2025-01-27 00:40:03.176,-77.5,40.767132,-111.836296,94
2025-01-27 00:40:13.752,-79.2,40.767868,-111.836205,94
2025-01-27 00:40:14.255,-77.1,40.767937,-111.836235,94
2025-01-27 00:40:14.772,-76.9,40.767937,-111.836235,94
2025-01-27 00:40:15.272,-79.6,40.767998,-111.836266,94
2025-01-27 00:40:15.778,-80.6,40.767998,-111.836266,94
2025-01-27 00:40:16.297,-82.3,40.768059,-111.836304,94
2025-01-27 00:40:16.805,-81.3,40.768059,-111.836304,94
2025-01-27 00:40:17.304,-83.1,40.768116,-111.836342,94
2025-01-27 00:40:17.816,-78.4,40.768116,-111.836342,94
2025-01-27 00:40:18.342,-82.0,40.768177,-111.836388,94
2025-01-27 00:40:18.851,-86.3,40.768177,-111.836388,94
2025-01-27 00:40:19.351,-85.6,40.76823,-111.836449,94
2025-01-27 00:40:19.854,-84.8,40.76823,-111.836449,94
2025-01-27 00:40:20.359,-86.9,40.768288,-111.83651,94
2025-01-27 00:40:20.866,-87.7,40.768288,-111.83651,94
2025-01-27 00:40:21.366,-84.8,40.768341,-111.836586,94
2025-01-27 00:40:21.869,-84.8,40.768341,-111.836586,94
2025-01-27 00:40:22.383,-87.3,40.768391,-111.836662,94
2025-01-27 00:40:22.891,-84.5,40.768391,-111.836662,94
2025-01-27 00:40:23.394,-84.5,40.76844,-111.836739,94
2025-01-27 00:40:23.899,-86.2,40.76844,-111.836739,94
2025-01-27 00:40:24.411,-86.2,40.76849,-111.836815,94
2025-01-27 00:40:24.921,-86.2,40.76849,-111.836815,94
2025-01-27 00:40:25.431,-86.2,40.768539,-111.836899,94
2025-01-27 00:40:25.908,-81.1,40.768539,-111.836899,94
2025-01-27 00:40:26.430,-82.8,40.768585,-111.836975,94
2025-01-27 00:40:26.940,-82.8,40.768635,-111.837051,94
2025-01-27 00:40:27.454,-82.8,40.768635,-111.837051,94
2025-01-27 00:40:27.981,-83.9,40.768684,-111.837135,94
2025-01-27 00:40:28.490,-83.9,40.768684,-111.837135,94
2025-01-27 00:40:28.996,-83.9,40.76873,-111.837212,94
2025-01-27 00:40:29.492,-83.9,40.76873,-111.837212,94
2025-01-27 00:40:29.996,-83.9,40.76878,-111.837288,94
2025-01-27 00:40:30.504,-83.9,40.76878,-111.837288,94
2025-01-27 00:40:31.015,-83.9,40.768826,-111.837364,94
2025-01-27 00:40:31.521,-83.9,40.768826,-111.837364,94
2025-01-27 00:40:42.214,-92.3,40.769367,-111.838219,94
2025-01-27 00:40:42.721,-92.3,40.769367,-111.838219,94
2025-01-27 00:40:43.237,-81.2,40.769417,-111.838287,94
2025-01-27 00:40:43.745,-81.2,40.769417,-111.838287,94
2025-01-27 00:40:44.242,-81.2,40.769466,-111.838348,94
2025-01-27 00:40:44.754,-81.2,40.769466,-111.838348,94
2025-01-27 00:40:45.261,-81.2,40.769516,-111.838409,94
2025-01-27 00:40:45.766,-81.2,40.769516,-111.838409,94
2025-01-27 00:40:46.294,-81.2,40.769562,-111.838455,94
2025-01-27 00:40:46.816,-81.2,40.769562,-111.838455,94
2025-01-27 00:40:50.881,-80.5,40.769737,-111.838646,94
2025-01-27 00:40:51.395,-85.5,40.769775,-111.838684,94
2025-01-27 00:40:51.909,-80.2,40.769775,-111.838684,94
2025-01-27 00:40:52.400,-89.5,40.769806,-111.838715,94
2025-01-27 00:40:52.907,-83.5,40.769806,-111.838715,94
2025-01-27 00:40:53.424,-83.5,40.769829,-111.838737,94
2025-01-27 00:40:53.931,-83.5,40.76984,-111.838753,94
2025-01-27 00:40:54.445,-83.5,40.76984,-111.838753,94
2025-01-27 00:40:54.939,-83.5,40.769844,-111.83876,94
2025-01-27 00:40:55.450,-83.5,40.769844,-111.83876,94
2025-01-27 00:40:55.966,-83.5,40.769844,-111.83876,94
2025-01-27 00:40:56.476,-83.5,40.769844,-111.83876,94
2025-01-27 00:41:09.281,-86.5,40.76997,-111.838882,94
2025-01-27 00:41:09.796,-88.3,40.76997,-111.838882,94
2025-01-27 00:41:10.297,-87.4,40.770016,-111.838928,94
2025-01-27 00:41:10.813,-87.8,40.770016,-111.838928,94
2025-01-27 00:41:11.336,-86.5,40.770065,-111.838974,94
2025-01-27 00:41:11.836,-85.9,40.770065,-111.838974,94
2025-01-27 00:41:12.350,-86.0,40.770115,-111.839027,94
2025-01-27 00:41:12.861,-90.7,40.770115,-111.839027,94
2025-01-27 00:41:13.385,-91.4,40.770172,-111.839088,94
2025-01-27 00:41:13.892,-90.5,40.770172,-111.839088,94
2025-01-27 00:41:14.405,-92.1,40.770229,-111.839149,94
2025-01-27 00:41:14.922,-91.1,40.770229,-111.839149,94
2025-01-27 00:41:15.420,-92.8,40.77029,-111.839211,94
2025-01-27 00:41:15.932,-94.6,40.770351,-111.839272,94
2025-01-27 00:41:16.432,-94.6,40.770351,-111.839272,94
2025-01-27 00:41:16.932,-95.3,40.770412,-111.839333,94
2025-01-27 00:41:17.448,-95.3,40.770412,-111.839333,94
2025-01-27 00:41:17.949,-91.3,40.770473,-111.839401,94
2025-01-27 00:41:18.462,-90.4,40.770473,-111.839401,94
2025-01-27 00:41:18.963,-92.9,40.770535,-111.839462,94
2025-01-27 00:41:19.487,-86.9,40.770535,-111.839462,94
2025-01-27 00:41:20.003,-86.9,40.770596,-111.839523,94
2025-01-27 00:41:20.499,-86.9,40.770596,-111.839523,94
2025-01-27 00:41:21.015,-86.9,40.770657,-111.839592,94
2025-01-27 00:41:21.518,-86.9,40.770657,-111.839592,94
2025-01-27 00:41:22.018,-86.9,40.770718,-111.839653,94
2025-01-27 00:41:22.529,-86.9,40.770718,-111.839653,94
2025-01-27 00:41:23.023,-86.9,40.770775,-111.839714,94
2025-01-27 00:41:23.535,-86.9,40.770775,-111.839714,94
2025-01-27 00:41:24.028,-86.9,40.770832,-111.839775,94
2025-01-27 00:41:24.538,-86.9,40.770832,-111.839775,94
2025-01-27 00:41:25.051,-86.9,40.770885,-111.839836,94
2025-01-27 00:45:12.034,-102.1,40.768887,-111.83194,94
2025-01-27 00:45:12.538,-102.8,40.768887,-111.83194,94
2025-01-27 00:45:13.049,-102.3,40.768841,-111.831963,94
2025-01-27 00:45:13.559,-103.1,40.768841,-111.831963,94
2025-01-27 00:45:14.066,-102.6,40.768799,-111.831985,94
2025-01-27 00:45:14.588,-102.6,40.768799,-111.831985,94
2025-01-27 00:45:15.098,-102.6,40.768757,-111.832008,94
2025-01-27 00:45:15.611,-102.6,40.768757,-111.832008,94
2025-01-27 00:45:16.109,-103.0,40.768719,-111.832039,94
2025-01-27 00:45:16.627,-102.3,40.768719,-111.832039,94
2025-01-27 00:45:17.134,-102.3,40.768681,-111.832069,94
2025-01-27 00:45:17.644,-103.1,40.768681,-111.832069,94
2025-01-27 00:45:18.134,-104.0,40.768646,-111.832108,94
2025-01-27 00:45:18.653,-101.9,40.768646,-111.832108,94
2025-01-27 00:45:19.167,-100.8,40.768612,-111.832138,94
2025-01-27 00:45:19.671,-96.4,40.768612,-111.832138,94
2025-01-27 00:45:20.172,-96.4,40.768578,-111.832176,94
2025-01-27 00:45:20.687,-96.4,40.768578,-111.832176,94
2025-01-27 00:45:21.191,-100.9,40.768543,-111.832214,94
2025-01-27 00:45:21.694,-99.4,40.768543,-111.832214,94
2025-01-27 00:45:22.210,-98.7,40.768509,-111.83226,94
2025-01-27 00:45:22.721,-99.3,40.768509,-111.83226,94
2025-01-27 00:45:23.225,-100.8,40.768471,-111.832314,94
2025-01-27 00:45:23.730,-100.5,40.768471,-111.832314,94
2025-01-27 00:45:24.248,-100.9,40.768436,-111.832359,94
2025-01-27 00:45:24.759,-101.2,40.768436,-111.832359,94
2025-01-27 00:45:25.271,-100.8,40.768394,-111.832413,94
2025-01-27 00:45:25.775,-100.6,40.768394,-111.832413,94
2025-01-27 00:45:26.299,-100.4,40.768353,-111.832474,94
2025-01-27 00:45:26.812,-102.2,40.768353,-111.832474,94
2025-01-27 00:45:27.311,-102.3,40.768307,-111.832535,94
2025-01-27 00:45:27.814,-102.3,40.768307,-111.832535,94
2025-01-27 00:45:28.320,-101.4,40.768261,-111.832603,94
2025-01-27 00:45:28.834,-102.1,40.768261,-111.832603,94
2025-01-27 00:45:29.344,-100.8,40.768215,-111.832672,94
2025-01-27 00:45:29.850,-101.1,40.768215,-111.832672,94
2025-01-27 00:45:30.358,-101.6,40.768169,-111.832741,94
2025-01-27 00:45:30.862,-102.0,40.768169,-111.832741,94
2025-01-27 00:45:31.357,-100.8,40.768127,-111.832809,94
2025-01-27 00:45:31.877,-100.6,40.768127,-111.832809,94
2025-01-27 00:45:32.396,-100.7,40.768085,-111.83287,94
2025-01-27 00:45:32.912,-101.5,40.768085,-111.83287,94
2025-01-27 00:45:33.427,-101.5,40.768051,-111.832932,94
2025-01-27 00:45:33.932,-101.5,40.768017,-111.832985,94
2025-01-27 00:45:35.949,-102.4,40.767952,-111.833092,94
2025-01-27 00:45:42.044,-99.6,40.76775,-111.833435,94
2025-01-27 00:45:42.554,-94.3,40.76775,-111.833435,94
2025-01-27 00:45:43.065,-92.4,40.767715,-111.833496,94
2025-01-27 00:45:43.575,-92.4,40.767715,-111.833496,94
2025-01-27 00:45:44.083,-92.4,40.767689,-111.833565,94
2025-01-27 00:45:44.591,-92.4,40.767689,-111.833565,94
2025-01-27 00:45:45.103,-94.2,40.767666,-111.833641,94
2025-01-27 00:45:45.624,-86.8,40.767666,-111.833641,94
2025-01-27 00:45:46.143,-91.4,40.767658,-111.833725,94
2025-01-27 00:45:46.656,-91.4,40.767658,-111.833725,94
2025-01-27 00:45:47.168,-91.4,40.767654,-111.833809,94
2025-01-27 00:45:47.683,-94.8,40.767654,-111.833809,94
2025-01-27 00:45:48.187,-94.8,40.767662,-111.833893,94
2025-01-27 00:45:48.692,-92.1,40.767662,-111.833893,94
2025-01-27 00:45:49.204,-88.3,40.767681,-111.833969,94
2025-01-27 00:45:49.714,-88.3,40.767681,-111.833969,94
2025-01-27 00:45:50.204,-91.9,40.767708,-111.834045,94
2025-01-27 00:45:50.703,-92.1,40.767708,-111.834045,94
2025-01-27 00:45:51.230,-91.8,40.767746,-111.834114,94
2025-01-27 00:45:51.730,-91.0,40.767746,-111.834114,94
2025-01-27 00:45:52.235,-89.5,40.767788,-111.834167,94
2025-01-27 00:45:52.735,-89.1,40.767788,-111.834167,94
2025-01-27 00:45:53.245,-89.3,40.767838,-111.834229,94
2025-01-27 00:45:53.755,-90.0,40.767838,-111.834229,94
2025-01-27 00:45:54.269,-90.6,40.767887,-111.834282,94
2025-01-27 00:45:54.772,-91.9,40.767887,-111.834282,94
2025-01-27 00:45:55.284,-91.8,40.767941,-111.834335,94
2025-01-27 00:45:55.798,-91.2,40.767941,-111.834335,94
2025-01-27 00:45:56.294,-92.0,40.767986,-111.834389,94
2025-01-27 00:45:56.807,-93.3,40.767986,-111.834389,94
2025-01-27 00:45:57.301,-91.6,40.768032,-111.83445,94
2025-01-27 00:45:57.816,-88.8,40.768032,-111.83445,94
2025-01-27 00:45:58.320,-90.0,40.76807,-111.834511,94
2025-01-27 00:45:58.831,-88.8,40.76807,-111.834511,94
2025-01-27 00:45:59.340,-89.8,40.768101,-111.834572,94
2025-01-27 00:45:59.845,-90.6,40.768101,-111.834572,94
2025-01-27 00:46:00.357,-94.1,40.768124,-111.834641,94
2025-01-27 00:46:00.864,-93.3,40.768124,-111.834641,94
2025-01-27 00:46:01.369,-92.4,40.768143,-111.834717,94
2025-01-27 00:46:01.880,-92.4,40.768143,-111.834717,94
2025-01-27 00:46:02.390,-93.7,40.768158,-111.834793,94
2025-01-27 00:46:02.890,-92.9,40.768158,-111.834793,94
2025-01-27 00:46:03.412,-91.9,40.768173,-111.834869,94
2025-01-27 00:46:03.914,-89.5,40.768173,-111.834869,94
2025-01-27 00:46:04.431,-90.0,40.768185,-111.834953,94
2025-01-27 00:46:04.935,-90.1,40.768196,-111.83503,94
2025-01-27 00:46:05.439,-89.5,40.768196,-111.83503,94
2025-01-27 00:46:05.944,-90.3,40.768208,-111.835098,94
2025-01-27 00:46:06.453,-89.8,40.768208,-111.835098,94
2025-01-27 00:46:06.962,-89.8,40.768215,-111.835167,94
2025-01-27 00:46:07.474,-87.4,40.768215,-111.835167,94
2025-01-27 00:46:07.974,-85.4,40.768223,-111.835213,94
2025-01-27 00:46:25.640,-76.9,40.767944,-111.83596,94
2025-01-27 00:46:26.143,-76.4,40.767937,-111.836006,94
2025-01-27 00:46:26.652,-75.7,40.767937,-111.836006,94
2025-01-27 00:46:27.152,-75.3,40.767937,-111.836052,94
2025-01-27 00:46:27.667,-75.4,40.767937,-111.836052,94
2025-01-27 00:46:28.172,-76.1,40.767944,-111.836105,94
2025-01-27 00:46:28.664,-75.8,40.767944,-111.836105,94
2025-01-27 00:46:29.183,-77.7,40.767956,-111.836159,94
2025-01-27 00:46:29.707,-79.9,40.767956,-111.836159,94
2025-01-27 00:46:30.222,-78.8,40.767979,-111.836212,94
2025-01-27 00:46:30.725,-83.1,40.767979,-111.836212,94
2025-01-27 00:46:31.225,-81.3,40.768013,-111.836258,94
2025-01-27 00:46:31.734,-85.4,40.768013,-111.836258,94
2025-01-27 00:46:32.232,-85.4,40.768055,-111.836296,94
2025-01-27 00:46:32.743,-85.4,40.768055,-111.836296,94
2025-01-27 00:46:33.249,-85.4,40.768105,-111.836342,94
2025-01-27 00:46:33.759,-83.4,40.768105,-111.836342,94
2025-01-27 00:46:34.222,-85.2,40.768158,-111.836388,94
2025-01-27 00:46:34.754,-83.9,40.768158,-111.836388,94
2025-01-27 00:46:35.270,-84.0,40.768215,-111.836441,94
2025-01-27 00:46:35.766,-85.8,40.768215,-111.836441,94
2025-01-27 00:46:36.275,-86.1,40.768272,-111.836502,94
2025-01-27 00:46:36.796,-84.7,40.768272,-111.836502,94
2025-01-27 00:46:37.291,-84.3,40.768326,-111.836578,94
2025-01-27 00:46:37.796,-84.2,40.768326,-111.836578,94
2025-01-27 00:46:38.321,-86.7,40.768379,-111.836655,94
2025-01-27 00:46:38.773,-87.0,40.768379,-111.836655,94
2025-01-27 00:46:39.364,-87.6,40.768433,-111.836739,94
2025-01-27 00:46:39.883,-85.2,40.768433,-111.836739,94
2025-01-27 00:46:40.350,-85.2,40.768486,-111.836823,94
2025-01-27 00:46:40.933,-85.2,40.768536,-111.836906,94
2025-01-27 00:46:41.441,-85.2,40.768536,-111.836906,94
2025-01-27 00:46:42.454,-84.6,40.768585,-111.83699,94
2025-01-27 00:46:42.949,-83.1,40.768635,-111.837082,94
2025-01-27 00:46:43.458,-83.1,40.768635,-111.837082,94
2025-01-27 00:46:43.953,-83.1,40.768681,-111.837166,94
2025-01-27 00:46:44.474,-83.1,40.768681,-111.837166,94
2025-01-27 00:46:44.984,-83.1,40.76873,-111.83725,94
2025-01-27 00:46:45.494,-83.1,40.76873,-111.83725,94
2025-01-27 00:46:45.996,-83.1,40.768776,-111.837334,94
2025-01-27 00:46:46.491,-83.1,40.768776,-111.837334,94
2025-01-27 00:46:57.673,-83.1,40.769325,-111.838226,94
2025-01-27 00:46:58.184,-79.7,40.769382,-111.838295,94
2025-01-27 00:46:58.698,-76.8,40.769382,-111.838295,94
2025-01-27 00:46:59.216,-76.8,40.769436,-111.838364,94
2025-01-27 00:46:59.710,-76.8,40.769436,-111.838364,94
2025-01-27 00:47:00.217,-76.8,40.769497,-111.838432,94
2025-01-27 00:47:00.719,-76.8,40.769497,-111.838432,94
2025-01-27 00:47:01.221,-76.8,40.769554,-111.838501,94
2025-01-27 00:47:01.734,-76.8,40.769554,-111.838501,94
2025-01-27 00:47:02.237,-76.8,40.769615,-111.838562,94
2025-01-27 00:47:02.743,-76.8,40.769615,-111.838562,94
2025-01-27 00:47:05.787,-83.6,40.769802,-111.838768,94
2025-01-27 00:47:06.312,-87.7,40.769863,-111.838829,94
2025-01-27 00:47:06.821,-87.4,40.769863,-111.838829,94
2025-01-27 00:47:07.314,-86.0,40.769928,-111.83889,94
2025-01-27 00:47:07.834,-85.7,40.769928,-111.83889,94
2025-01-27 00:47:08.326,-86.3,40.769989,-111.838959,94
2025-01-27 00:47:08.839,-87.3,40.769989,-111.838959,94
2025-01-27 00:47:09.348,-86.4,40.77005,-111.839027,94
2025-01-27 00:47:09.847,-90.3,40.77005,-111.839027,94
2025-01-27 00:47:10.354,-89.9,40.770115,-111.839088,94
2025-01-27 00:47:10.850,-89.9,40.770115,-111.839088,94
2025-01-27 00:47:11.354,-93.3,40.770176,-111.839149,94
2025-01-27 00:47:11.829,-95.1,40.770176,-111.839149,94
2025-01-27 00:47:12.386,-91.7,40.770241,-111.839211,94
2025-01-27 00:47:12.900,-91.7,40.770241,-111.839211,94
2025-01-27 00:47:13.394,-92.8,40.770302,-111.839272,94
2025-01-27 00:47:13.905,-93.3,40.770302,-111.839272,94
2025-01-27 00:47:14.405,-94.8,40.770363,-111.83934,94
2025-01-27 00:47:14.905,-94.8,40.770363,-111.83934,94
2025-01-27 00:47:15.416,-94.8,40.770424,-111.839401,94
2025-01-27 00:47:15.935,-94.8,40.770489,-111.83947,94
2025-01-27 00:47:16.434,-94.8,40.770489,-111.83947,94
2025-01-27 00:47:16.940,-94.8,40.770554,-111.839539,94
2025-01-27 00:47:17.441,-94.8,40.770554,-111.839539,94
2025-01-27 00:47:17.936,-94.8,40.770618,-111.839607,94
2025-01-27 00:48:11.293,-82.0,40.772682,-111.842171,94
2025-01-27 00:48:11.807,-83.1,40.772682,-111.842171,94
2025-01-27 00:48:12.322,-84.4,40.772625,-111.842239,94
2025-01-27 00:48:12.837,-84.3,40.772625,-111.842239,94
2025-01-27 00:48:13.342,-81.4,40.772564,-111.842308,94
2025-01-27 00:48:13.856,-84.8,40.772564,-111.842308,94
2025-01-27 00:48:14.358,-85.6,40.772495,-111.842369,94
2025-01-27 00:48:14.872,-89.7,40.772495,-111.842369,94
2025-01-27 00:48:15.372,-90.1,40.772427,-111.84243,94
2025-01-27 00:48:15.879,-88.5,40.772427,-111.84243,94
2025-01-27 00:48:16.382,-87.8,40.772354,-111.842476,94
2025-01-27 00:48:16.888,-87.3,40.772354,-111.842476,94
2025-01-27 00:48:17.402,-86.1,40.772278,-111.842522,94
2025-01-27 00:48:17.921,-84.9,40.772278,-111.842522,94
2025-01-27 00:48:18.429,-85.3,40.772202,-111.842567,94
2025-01-27 00:48:18.945,-85.8,40.772121,-111.842606,94
2025-01-27 00:48:19.456,-88.4,40.772121,-111.842606,94
2025-01-27 00:48:19.969,-88.4,40.772045,-111.842651,94
2025-01-27 00:48:20.491,-88.4,40.772045,-111.842651,94
2025-01-27 00:48:20.991,-88.4,40.771969,-111.84269,94
2025-01-27 00:48:21.511,-88.4,40.771969,-111.84269,94
2025-01-27 00:48:22.014,-88.4,40.771893,-111.842735,94
2025-01-27 00:48:22.525,-88.4,40.771893,-111.842735,94
2025-01-27 00:48:23.030,-88.4,40.771816,-111.842773,94
2025-01-27 00:48:24.549,-85.3,40.771744,-111.842812,94
2025-01-27 00:48:25.055,-89.9,40.771667,-111.842857,94
2025-01-27 00:48:25.585,-87.3,40.771667,-111.842857,94
2025-01-27 00:48:26.085,-86.1,40.771595,-111.842903,94
2025-01-27 00:48:26.605,-84.8,40.771595,-111.842903,94
2025-01-27 00:48:27.115,-87.4,40.77153,-111.842964,94
2025-01-27 00:48:27.630,-87.3,40.77153,-111.842964,94
2025-01-27 00:48:28.140,-86.8,40.771465,-111.843025,94
2025-01-27 00:48:28.655,-88.4,40.771465,-111.843025,94
2025-01-27 00:48:29.161,-89.4,40.771408,-111.843086,94
2025-01-27 00:48:29.677,-88.1,40.771408,-111.843086,94
2025-01-27 00:48:30.186,-86.4,40.771351,-111.843163,94
2025-01-27 00:48:30.688,-90.3,40.771351,-111.843163,94
2025-01-27 00:48:31.195,-89.4,40.771301,-111.843239,94
2025-01-27 00:48:31.686,-89.9,40.771301,-111.843239,94
2025-01-27 00:48:32.210,-89.1,40.771255,-111.843315,94
2025-01-27 00:48:32.700,-89.5,40.771255,-111.843315,94
2025-01-27 00:48:33.229,-91.8,40.77121,-111.843399,94
2025-01-27 00:48:33.734,-91.0,40.77121,-111.843399,94
2025-01-27 00:48:34.227,-93.3,40.771172,-111.843483,94
2025-01-27 00:48:34.743,-92.3,40.771172,-111.843483,94
2025-01-27 00:48:35.256,-94.0,40.771141,-111.843567,94
2025-01-27 00:48:35.764,-94.0,40.771141,-111.843567,94
2025-01-27 00:48:36.274,-96.4,40.771111,-111.843658,94
2025-01-27 00:48:36.774,-96.4,40.771111,-111.843658,94
2025-01-27 00:48:37.294,-97.4,40.771091,-111.843758,94
2025-01-27 00:48:37.818,-94.1,40.771091,-111.843758,94
2025-01-27 00:48:38.336,-93.1,40.771072,-111.843849,94
2025-01-27 00:48:38.840,-91.8,40.771072,-111.843849,94
2025-01-27 00:48:39.353,-92.3,40.771057,-111.843948,94
2025-01-27 00:48:39.859,-94.3,40.771057,-111.843948,94
2025-01-27 00:48:40.310,-93.3,40.771042,-111.844048,94
2025-01-27 00:48:40.865,-93.3,40.771042,-111.844048,94
2025-01-27 00:48:41.365,-93.3,40.771027,-111.844139,94
2025-01-27 00:48:41.866,-93.3,40.771027,-111.844139,94
2025-01-27 00:48:42.373,-93.3,40.771015,-111.844231,94
2025-01-27 00:48:42.874,-93.3,40.771015,-111.844231,94
2025-01-27 00:48:43.388,-93.3,40.771008,-111.844322,94
2025-01-27 00:48:43.885,-93.3,40.771008,-111.844322,94
2025-01-27 00:49:03.184,-77.4,40.770256,-111.844978,94
2025-01-27 00:49:03.699,-79.4,40.770256,-111.844978,94
2025-01-27 00:49:04.199,-76.6,40.770195,-111.844986,94
2025-01-27 00:49:04.701,-77.8,40.770195,-111.844986,94
2025-01-27 00:49:05.213,-79.0,40.770138,-111.844986,94
2025-01-27 00:49:05.709,-80.1,40.770138,-111.844986,94
2025-01-27 00:49:06.231,-78.6,40.770088,-111.844986,94
2025-01-27 00:49:06.734,-79.6,40.770088,-111.844986,94
2025-01-27 00:49:07.243,-82.5,40.770035,-111.844986,94
2025-01-27 00:49:07.763,-82.9,40.770035,-111.844986,94
2025-01-27 00:49:08.268,-81.1,40.769989,-111.844986,94
2025-01-27 00:49:08.773,-81.0,40.769989,-111.844986,94
2025-01-27 00:49:09.282,-80.5,40.769951,-111.844994,94
2025-01-27 00:49:09.790,-80.5,40.769951,-111.844994,94
2025-01-27 00:49:10.303,-80.5,40.769924,-111.844994,94
2025-01-27 00:49:10.810,-80.5,40.769924,-111.844994,94
2025-01-27 00:49:11.315,-80.5,40.769901,-111.845001,94
2025-01-27 00:49:11.825,-80.5,40.769901,-111.845001,94
2025-01-27 00:49:12.338,-80.5,40.769882,-111.845009,94
