Time,RSRP,Latitude,Longitude,PCI
2025-01-27 00:44:52.182,-96.9,40.769775,-111.832001,462
2025-01-27 00:44:52.687,-95.1,40.769775,-111.832001,462
2025-01-27 00:44:53.203,-93.9,40.769737,-111.831955,462
2025-01-27 00:44:53.706,-93.9,40.769737,-111.831955,462
2025-01-27 00:44:54.216,-94.9,40.769699,-111.831924,462
2025-01-27 00:44:54.708,-97.4,40.769699,-111.831924,462
2025-01-27 00:44:55.214,-97.8,40.769665,-111.831894,462
2025-01-27 00:44:55.723,-96.9,40.769665,-111.831894,462
2025-01-27 00:44:56.228,-97.1,40.76963,-111.831879,462
2025-01-27 00:44:56.736,-96.1,40.76963,-111.831879,462
2025-01-27 00:44:57.240,-96.1,40.769592,-111.831871,462
2025-01-27 00:44:57.749,-96.8,40.769592,-111.831871,462
2025-01-27 00:44:58.265,-97.6,40.769554,-111.831863,462
2025-01-27 00:44:59.268,-96.8,40.769508,-111.831863,462
2025-01-27 00:44:59.789,-98.8,40.769508,-111.831863,462
2025-01-27 00:45:00.299,-98.8,40.769463,-111.831863,462
2025-01-27 00:45:00.793,-98.8,40.769463,-111.831863,462
2025-01-27 00:45:01.311,-98.8,40.769413,-111.831871,462
2025-01-27 00:45:01.824,-98.8,40.769413,-111.831871,462
2025-01-27 00:45:02.329,-98.8,40.769367,-111.831871,462
2025-01-27 00:45:02.844,-98.8,40.769367,-111.831871,462
2025-01-27 00:45:03.365,-98.8,40.769318,-111.831871,462
2025-01-27 00:45:11.009,-102.3,40.768936,-111.831924,462
2025-01-27 00:45:11.522,-102.4,40.768936,-111.831924,462
2025-01-27 00:45:12.034,-102.6,40.768887,-111.83194,462
2025-01-27 00:45:12.538,-102.3,40.768887,-111.83194,462
2025-01-27 00:45:13.049,-103.3,40.768841,-111.831963,462
2025-01-27 00:45:13.559,-103.3,40.768841,-111.831963,462
2025-01-27 00:45:14.066,-103.3,40.768799,-111.831985,462
2025-01-27 00:45:14.588,-103.3,40.768799,-111.831985,462
2025-01-27 00:45:15.098,-103.3,40.768757,-111.832008,462
2025-01-27 00:45:15.611,-103.3,40.768757,-111.832008,462
2025-01-27 00:45:16.109,-103.3,40.768719,-111.832039,462
2025-01-27 00:45:16.627,-103.3,40.768719,-111.832039,462
2025-01-27 00:45:18.134,-102.9,40.768646,-111.832108,462
