{
    "['20.00 N', '0.00', '15.000', 'n', '2.100', '2.100']": [
        4.626689225401913,
        28.331233526965605,
        18.0,
        47.0
    ],
    "['20.00 N', '0.00', '15.000', 'n', '2.200', '2.100']": [
        4.5500390741137196,
        26.06142727850213,
        17.0,
        46.0
    ],
    "['20.00 N', '0.00', '15.000', 'n', '2.200', '2.000']": [
        4.6946903071331345,
        26.878536350852603,
        18.0,
        49.0
    ],
    "['20.00 N', '0.00', '15.000', 'n', '2.200', '2.200']": [
        4.663092639657062,
        25.285827245594913,
        15.0,
        43.0
    ],
    "['20.00 N', '0.00', '15.000', 'n', '2.100', '2.000']": [
        4.498383519707777,
        29.039461319108856,
        20.0,
        49.0
    ],
    "['20.00 N', '0.00', '15.000', 'n', '2.300', '2.100']": [
        4.734946800326078,
        23.90528251247139,
        15.0,
        46.0
    ],
    "['20.00 N', '0.00', '15.000', 'n', '2.000', '2.000']": [
        4.592606169199005,
        31.320945392901912,
        21.0,
        50.0
    ],
    "['20.00 N', '0.00', '15.000', 'n', '2.300', '2.300']": [
        4.718298348145444,
        22.30232639891274,
        11.0,
        40.0
    ],
    "['20.00 N', '0.00', '15.000', 'n', '2.300', '2.200']": [
        4.582694671255559,
        23.039637513604546,
        14.0,
        43.0
    ],
    "['20.00 N', '0.00', '15.000', 'n', '2.500', '2.000']": [
        7.193587278888455,
        20.942202213272306,
        8.0,
        49.0
    ],
    "['20.00 N', '0.00', '15.000', 'n', '2.400', '2.300']": [
        4.649998656050921,
        20.02779360833585,
        10.0,
        40.0
    ],
    "['20.00 N', '0.00', '15.000', 'n', '2.400', '2.000']": [
        6.134174693759033,
        22.882679670766624,
        11.0,
        49.0
    ],
    "['20.00 N', '0.00', '15.000', 'n', '2.400', '2.400']": [
        4.757500696399016,
        19.35019690615451,
        8.0,
        37.0
    ],
    "['20.00 N', '0.00', '15.000', 'n', '2.400', '2.100']": [
        5.290545669616483,
        21.883152652458882,
        11.0,
        46.0
    ],
    "['20.00 N', '0.00', '15.000', 'n', '2.400', '2.200']": [
        4.744714300620298,
        20.93226666528514,
        11.0,
        42.0
    ],
    "['20.00 N', '0.00', '15.000', 'n', '2.500', '2.500']": [
        4.828531120787123,
        16.379219474879,
        5.0,
        34.0
    ],
    "['20.00 N', '0.00', '15.000', 'n', '2.500', '2.400']": [
        4.679283389743175,
        17.11870834440439,
        7.0,
        36.0
    ],
    "['20.00 N', '0.00', '15.000', 'n', '2.600', '2.100']": [
        7.097147533476203,
        17.875898931827788,
        5.0,
        45.0
    ],
    "['20.00 N', '0.00', '15.000', 'n', '2.600', '2.000']": [
        8.372998651481588,
        18.98421628012119,
        5.0,
        49.0
    ],
    "['20.00 N', '0.00', '15.000', 'n', '2.600', '2.200']": [
        6.0692504639169185,
        16.890001057367492,
        5.0,
        42.0
    ],
    "['20.00 N', '0.00', '15.000', 'n', '2.500', '2.200']": [
        5.27322734092923,
        18.859506594887804,
        8.0,
        42.0
    ],
    "['20.00 N', '0.00', '15.000', 'n', '2.500', '2.100']": [
        6.096175085945465,
        19.891526061523113,
        8.0,
        45.0
    ],
    "['20.00 N', '0.00', '15.000', 'n', '2.500', '2.300']": [
        4.789010755673592,
        17.9576590966011,
        8.0,
        39.0
    ],
    "['20.00 N', '0.00', '15.000', 'n', '2.600', '2.500']": [
        4.698312912097018,
        14.164659688119375,
        4.0,
        33.0
    ],
    "['20.00 N', '0.00', '15.000', 'n', '2.700', '2.200']": [
        7.132822400165793,
        14.882265964251777,
        2.0,
        42.0
    ],
    "['20.00 N', '0.00', '15.000', 'n', '2.600', '2.300']": [
        5.287422920351589,
        15.93792725844943,
        5.0,
        39.0
    ],
    "['20.00 N', '0.00', '15.000', 'n', '2.700', '2.100']": [
        8.286132009275207,
        15.855640877732501,
        2.0,
        45.0
    ],
    "['20.00 N', '0.00', '15.000', 'n', '2.600', '2.400']": [
        4.816439767237349,
        15.003052695480601,
        5.0,
        36.0
    ],
    "['20.00 N', '0.00', '15.000', 'n', '2.700', '2.300']": [
        6.139322560501896,
        13.922571173483746,
        2.0,
        39.0
    ],
    "['20.00 N', '0.00', '15.000', 'n', '2.600', '2.600']": [
        4.857632232795203,
        13.408099158028548,
        2.0,
        31.0
    ],
    "['20.00 N', '0.00', '15.000', 'n', '2.700', '2.000']": [
        9.673760564266075,
        16.97629069176547,
        2.0,
        49.0
    ],
    "['20.00 N', '0.00', '15.000', 'n', '2.700', '2.500']": [
        4.842444153636009,
        11.98391351173449,
        2.0,
        33.0
    ],
    "['20.00 N', '0.00', '15.000', 'n', '2.700', '2.700']": [
        4.882709462870614,
        10.380272282447654,
        -2.0,
        27.0
    ],
    "['20.00 N', '0.00', '15.000', 'n', '2.800', '2.300']": [
        7.194204235648727,
        11.9470379408882,
        -2.0,
        39.0
    ],
    "['20.00 N', '0.00', '15.000', 'n', '2.700', '2.400']": [
        5.323816884699745,
        12.953598305349306,
        2.0,
        36.0
    ],
    "['20.00 N', '0.00', '15.000', 'n', '2.700', '2.600']": [
        4.7649501062818675,
        11.107472583906327,
        1.0,
        30.0
    ],
    "['20.00 N', '0.00', '15.000', 'n', '2.800', '2.100']": [
        9.558871709801979,
        13.887715668000371,
        -2.0,
        45.0
    ],
    "['20.00 N', '0.00', '15.000', 'n', '2.800', '2.000']": [
        11.00986933311991,
        15.005699223108351,
        -2.0,
        49.0
    ],
    "['20.00 N', '0.00', '15.000', 'n', '2.800', '2.200']": [
        8.333273262715844,
        12.921626471184371,
        -2.0,
        42.0
    ],
    "['20.00 N', '1.00', '15.000', 'n', '2.000', '2.000']": [
        4.78265495190066,
        30.314542504863628,
        20.0,
        49.0
    ],
    "['20.00 N', '0.00', '15.000', 'n', '2.800', '2.500']": [
        5.335979887428831,
        9.922122420592709,
        -2.0,
        33.0
    ],
    "['20.00 N', '0.00', '15.000', 'n', '2.800', '2.600']": [
        4.885341683125301,
        8.999439092687517,
        -2.0,
        30.0
    ],
    "['20.00 N', '1.00', '15.000', 'n', '2.100', '2.000']": [
        4.616189244662364,
        28.02863308503061,
        19.0,
        48.0
    ],
    "['20.00 N', '0.00', '15.000', 'n', '2.800', '2.700']": [
        4.80250384798144,
        8.14022368618675,
        -3.0,
        27.0
    ],
    "['20.00 N', '1.00', '15.000', 'n', '2.100', '2.100']": [
        4.775163052220127,
        27.269201638900896,
        17.0,
        46.0
    ],
    "['20.00 N', '0.00', '15.000', 'n', '2.800', '2.400']": [
        6.146709489408871,
        10.946298651251512,
        -2.0,
        36.0
    ],
    "['20.00 N', '0.00', '15.000', 'n', '2.800', '2.800']": [
        4.93382646713432,
        7.479537757174744,
        -5.0,
        24.0
    ],
    "['20.00 N', '1.00', '15.000', 'n', '2.400', '2.000']": [
        6.067912262767989,
        21.76726471728103,
        10.0,
        47.0
    ],
    "['20.00 N', '1.00', '15.000', 'n', '2.300', '2.300']": [
        4.898486775164405,
        21.301395965372283,
        10.0,
        39.0
    ],
    "['20.00 N', '1.00', '15.000', 'n', '2.200', '2.100']": [
        4.701488539851834,
        24.975539824806575,
        16.0,
        45.0
    ],
    "['20.00 N', '1.00', '15.000', 'n', '2.200', '2.000']": [
        4.826512713859061,
        25.84588449557351,
        17.0,
        48.0
    ],
    "['20.00 N', '1.00', '15.000', 'n', '2.200', '2.200']": [
        4.839778061915981,
        24.278009905921053,
        13.0,
        42.0
    ],
    "['20.00 N', '1.00', '15.000', 'n', '2.300', '2.100']": [
        4.853711408530828,
        22.89709672293782,
        14.0,
        45.0
    ],
    "['20.00 N', '1.00', '15.000', 'n', '2.300', '2.200']": [
        4.747471389424989,
        21.989139893223104,
        12.0,
        42.0
    ],
    "['20.00 N', '1.00', '15.000', 'n', '2.300', '2.000']": [
        5.338668130767104,
        23.79121960702552,
        14.0,
        48.0
    ],
    "['20.00 N', '1.00', '15.000', 'n', '2.500', '2.100']": [
        6.101208167063894,
        18.859822814124147,
        7.0,
        44.0
    ],
    "['20.00 N', '1.00', '15.000', 'n', '2.400', '2.300']": [
        4.729737982761085,
        19.072788197864025,
        9.0,
        38.0
    ],
    "['20.00 N', '1.00', '15.000', 'n', '2.500', '2.200']": [
        5.35290876836325,
        17.907220108427175,
        7.0,
        41.0
    ],
    "['20.00 N', '1.00', '15.000', 'n', '2.500', '2.000']": [
        7.074946420314531,
        19.816634352722428,
        7.0,
        47.0
    ],
    "['20.00 N', '1.00', '15.000', 'n', '2.400', '2.100']": [
        5.3207064714539465,
        20.822530943064102,
        10.0,
        44.0
    ],
    "['20.00 N', '1.00', '15.000', 'n', '2.500', '2.300']": [
        4.904292662737767,
        16.95718351782985,
        7.0,
        38.0
    ],
    "['20.00 N', '1.00', '15.000', 'n', '2.400', '2.200']": [
        4.864367923835422,
        19.87794387038277,
        10.0,
        41.0
    ],
    "['20.00 N', '1.00', '15.000', 'n', '2.400', '2.400']": [
        4.914190725094399,
        18.354754752207338,
        7.0,
        36.0
    ],
    "['20.00 N', '1.00', '15.000', 'n', '2.600', '2.100']": [
        7.083392300660224,
        16.861305256841828,
        4.0,
        44.0
    ],
    "['20.00 N', '1.00', '15.000', 'n', '2.500', '2.500']": [
        4.998226269410018,
        15.337345406261514,
        4.0,
        33.0
    ],
    "['20.00 N', '1.00', '15.000', 'n', '2.600', '2.400']": [
        4.883679084028345,
        13.942589064751884,
        4.0,
        35.0
    ],
    "['20.00 N', '1.00', '15.000', 'n', '2.600', '2.500']": [
        4.815512887635393,
        13.056694460823454,
        3.0,
        32.0
    ],
    "['20.00 N', '1.00', '15.000', 'n', '2.500', '2.400']": [
        4.788605275616767,
        16.080017596378095,
        6.0,
        35.0
    ],
    "['20.00 N', '1.00', '15.000', 'n', '2.600', '2.000']": [
        8.230076535465168,
        17.83996226136453,
        4.0,
        47.0
    ],
    "['20.00 N', '1.00', '15.000', 'n', '2.600', '2.200']": [
        6.108603605270675,
        15.90393040072122,
        4.0,
        41.0
    ],
    "['20.00 N', '1.00', '15.000', 'n', '2.600', '2.300']": [
        5.341650496573902,
        14.894233735882743,
        4.0,
        38.0
    ],
    "['20.00 N', '1.00', '15.000', 'n', '2.600', '2.600']": [
        4.97013514841712,
        12.347766220552582,
        0.0,
        29.0
    ],
    "['20.00 N', '1.00', '15.000', 'n', '2.700', '2.600']": [
        4.8519577997297265,
        10.059206657367168,
        -1.0,
        29.0
    ],
    "['20.00 N', '1.00', '15.000', 'n', '2.700', '2.000']": [
        9.512130852429408,
        15.830775374457025,
        1.0,
        47.0
    ],
    "['20.00 N', '1.00', '15.000', 'n', '2.700', '2.100']": [
        8.297309264853812,
        14.861651018355863,
        1.0,
        44.0
    ],
    "['20.00 N', '1.00', '15.000', 'n', '2.700', '2.400']": [
        5.368786048667206,
        11.793753912927782,
        1.0,
        35.0
    ],
    "['20.00 N', '1.00', '15.000', 'n', '2.700', '2.500']": [
        4.955239785983954,
        10.88375690454661,
        1.0,
        32.0
    ],
    "['20.00 N', '1.00', '15.000', 'n', '2.700', '2.200']": [
        7.170637633930123,
        13.884435801295968,
        1.0,
        41.0
    ],
    "['20.00 N', '1.00', '15.000', 'n', '2.700', '2.300']": [
        6.094944807704026,
        12.765760772370395,
        1.0,
        38.0
    ],
    "['20.00 N', '1.00', '15.000', 'n', '2.800', '2.400']": [
        6.119013068840359,
        9.897573842412015,
        -3.0,
        35.0
    ],
    "['20.00 N', '1.00', '15.000', 'n', '2.800', '2.300']": [
        7.078190033878604,
        10.861406073227403,
        -3.0,
        38.0
    ],
    "['20.00 N', '1.00', '15.000', 'n', '2.700', '2.700']": [
        5.040353433886961,
        9.36101826550697,
        -3.0,
        26.0
    ],
    "['20.00 N', '1.00', '15.000', 'n', '2.800', '2.200']": [
        8.332234393410692,
        11.992047212517921,
        -3.0,
        41.0
    ],
    "['20.00 N', '1.00', '15.000', 'n', '2.800', '2.500']": [
        5.413854017700038,
        8.949885490329896,
        -3.0,
        32.0
    ],
    "['20.00 N', '1.00', '15.000', 'n', '2.800', '2.600']": [
        4.991733805713538,
        8.011086870457929,
        -3.0,
        28.0
    ],
    "['20.00 N', '1.00', '15.000', 'n', '2.800', '2.100']": [
        9.563726766075948,
        12.98905954050764,
        -3.0,
        44.0
    ],
    "['20.00 N', '1.00', '15.000', 'n', '2.800', '2.000']": [
        10.831953186084586,
        13.958183896608801,
        -3.0,
        47.0
    ],
    "['20.00 N', '2.00', '15.000', 'n', '2.200', '2.200']": [
        4.996169842039096,
        22.668342806087967,
        11.0,
        40.0
    ],
    "['20.00 N', '2.00', '15.000', 'n', '2.100', '2.100']": [
        4.952992991878156,
        25.690485258591316,
        15.0,
        44.0
    ],
    "['20.00 N', '2.00', '15.000', 'n', '2.200', '2.100']": [
        4.835485387925722,
        23.37241723075853,
        14.0,
        43.0
    ],
    "['20.00 N', '2.00', '15.000', 'n', '2.100', '2.000']": [
        4.76593431928314,
        26.391457035265354,
        17.0,
        46.0
    ],
    "['20.00 N', '2.00', '15.000', 'n', '2.000', '2.000']": [
        4.906676126997108,
        28.667159811273937,
        18.0,
        47.0
    ],
    "['20.00 N', '2.00', '15.000', 'n', '2.200', '2.000']": [
        4.886646821851783,
        24.25356248451794,
        15.0,
        46.0
    ],
    "['20.00 N', '1.00', '15.000', 'n', '2.800', '2.700']": [
        4.896830592542069,
        7.245895716748487,
        -4.0,
        26.0
    ],
    "['20.00 N', '1.00', '15.000', 'n', '2.800', '2.800']": [
        5.111951961017418,
        6.5907391654651875,
        -6.0,
        23.0
    ],
    "['20.00 N', '2.00', '15.000', 'n', '2.300', '2.300']": [
        5.012800546546531,
        19.652038930235282,
        8.0,
        37.0
    ],
    "['20.00 N', '2.00', '15.000', 'n', '2.400', '2.000']": [
        6.098245912043455,
        20.112609054260798,
        9.0,
        46.0
    ],
    "['20.00 N', '2.00', '15.000', 'n', '2.400', '2.200']": [
        4.9729499906011005,
        18.223132652928985,
        9.0,
        39.0
    ],
    "['20.00 N', '2.00', '15.000', 'n', '2.300', '2.100']": [
        4.936063898856097,
        21.19424310483411,
        12.0,
        43.0
    ],
    "['20.00 N', '2.00', '15.000', 'n', '2.300', '2.200']": [
        4.830181017135918,
        20.359457396908905,
        10.0,
        40.0
    ],
    "['20.00 N', '2.00', '15.000', 'n', '2.300', '2.000']": [
        5.326606443166954,
        22.089601841345857,
        12.0,
        46.0
    ],
    "['20.00 N', '2.00', '15.000', 'n', '2.400', '2.300']": [
        4.876452245370338,
        17.415075670791616,
        7.0,
        37.0
    ],
    "['20.00 N', '2.00', '15.000', 'n', '2.400', '2.100']": [
        5.373478078159771,
        19.160535255342733,
        9.0,
        43.0
    ],
    "['20.00 N', '2.00', '15.000', 'n', '2.500', '2.000']": [
        7.110043448173492,
        18.15439648819851,
        5.0,
        46.0
    ],
    "['20.00 N', '2.00', '15.000', 'n', '2.400', '2.400']": [
        5.079334384745902,
        16.694781041012945,
        5.0,
        34.0
    ],
    "['20.00 N', '2.00', '15.000', 'n', '2.500', '2.100']": [
        6.14902464055894,
        17.187869883807064,
        5.0,
        42.0
    ],
    "['20.00 N', '2.00', '15.000', 'n', '2.500', '2.400']": [
        4.984172351881695,
        14.390284611852532,
        4.0,
        33.0
    ],
    "['20.00 N', '2.00', '15.000', 'n', '2.500', '2.200']": [
        5.413776276696802,
        16.183484541583802,
        5.0,
        39.0
    ],
    "['20.00 N', '2.00', '15.000', 'n', '2.500', '2.300']": [
        5.043988219803267,
        15.238203440200007,
        5.0,
        36.0
    ],
    "['20.00 N', '2.00', '15.000', 'n', '2.600', '2.000']": [
        8.222779061877993,
        16.23443433084251,
        2.0,
        46.0
    ],
    "['20.00 N', '2.00', '15.000', 'n', '2.500', '2.500']": [
        5.176959222866738,
        13.692618500772289,
        2.0,
        31.0
    ],
    "['20.00 N', '2.00', '15.000', 'n', '2.700', '2.100']": [
        8.228238436294479,
        13.329405147392576,
        -1.0,
        42.0
    ],
    "['20.00 N', '2.00', '15.000', 'n', '2.700', '2.000']": [
        9.439361174557119,
        14.310765457408104,
        -1.0,
        46.0
    ],
    "['20.00 N', '2.00', '15.000', 'n', '2.600', '2.400']": [
        5.0446045077213455,
        12.339440974659444,
        2.0,
        33.0
    ],
    "['20.00 N', '2.00', '15.000', 'n', '2.600', '2.100']": [
        7.110720116661328,
        15.255299804302764,
        2.0,
        42.0
    ],
    "['20.00 N', '2.00', '15.000', 'n', '2.600', '2.300']": [
        5.4173370826669105,
        13.201920398861386,
        2.0,
        36.0
    ],
    "['20.00 N', '2.00', '15.000', 'n', '2.600', '2.200']": [
        6.115627244378492,
        14.193875795539912,
        2.0,
        39.0
    ],
    "['20.00 N', '2.00', '15.000', 'n', '2.600', '2.500']": [
        5.019543988741684,
        11.421710659536618,
        0.0,
        30.0
    ],
    "['20.00 N', '2.00', '15.000', 'n', '2.600', '2.600']": [
        5.232754043143348,
        10.7471204819938,
        -2.0,
        28.0
    ],
    "['20.00 N', '2.00', '15.000', 'n', '2.700', '2.500']": [
        5.088510412742587,
        9.334272280741152,
        -1.0,
        30.0
    ],
    "['20.00 N', '2.00', '15.000', 'n', '2.800', '2.100']": [
        9.502150450146894,
        11.53210207592248,
        -4.0,
        42.0
    ],
    "['20.00 N', '2.00', '15.000', 'n', '2.700', '2.400']": [
        5.408066917759109,
        10.270097662581628,
        -1.0,
        33.0
    ],
    "['20.00 N', '2.00', '15.000', 'n', '2.700', '2.600']": [
        5.025272194266365,
        8.560859024331501,
        -3.0,
        27.0
    ],
    "['20.00 N', '2.00', '15.000', 'n', '2.700', '2.300']": [
        6.111745521790832,
        11.230998801197074,
        -1.0,
        36.0
    ],
    "['20.00 N', '2.00', '15.000', 'n', '2.700', '2.200']": [
        7.031374638954702,
        12.213057294400746,
        -1.0,
        39.0
    ],
    "['20.00 N', '2.00', '15.000', 'n', '2.800', '2.000']": [
        10.784788871505965,
        12.523391263441143,
        -4.0,
        46.0
    ],
    "['20.00 N', '2.00', '15.000', 'n', '2.700', '2.700']": [
        5.2363941059018115,
        7.888105843022261,
        -5.0,
        24.0
    ],
    "['20.00 N', '2.00', '15.000', 'n', '2.800', '2.300']": [
        7.110590976156693,
        9.438882244438021,
        -4.0,
        36.0
    ],
    "['20.00 N', '2.00', '15.000', 'n', '2.800', '2.400']": [
        6.156192243463135,
        8.453185035782779,
        -4.0,
        33.0
    ],
    "['20.00 N', '2.00', '15.000', 'n', '2.800', '2.500']": [
        5.461501246705763,
        7.479207182518086,
        -4.0,
        30.0
    ],
    "['20.00 N', '2.00', '15.000', 'n', '2.800', '2.200']": [
        8.178613835047496,
        10.405818494737622,
        -4.0,
        39.0
    ],
    "['20.00 N', '2.00', '15.000', 'n', '2.800', '2.800']": [
        5.296053611774519,
        5.347571844842908,
        -8.0,
        21.0
    ],
    "['20.00 N', '2.00', '15.000', 'n', '2.800', '2.600']": [
        5.1345302042469925,
        6.555839551713466,
        -4.0,
        27.0
    ],
    "['20.00 N', '2.00', '15.000', 'n', '2.800', '2.700']": [
        5.117938706392204,
        5.807838387111447,
        -6.0,
        24.0
    ],
    "['20.00 N', '0.00', '15.000', 'n', '2.300', '2.000']": [
        5.259670620603642,
        24.845237779754637,
        15.0,
        49.0
    ]
}