Time,RSRP,Latitude,Longitude,PCI
2025-01-22 15:52:04.262,-99.1,40.769623,-111.844276,276
2025-01-22 15:52:04.518,-100.0,40.769623,-111.844276,276
2025-01-22 15:52:05.954,-100.4,40.769627,-111.844276,276
2025-01-22 15:52:06.308,-100.0,40.769627,-111.844276,276
2025-01-22 15:52:06.862,-100.4,40.769627,-111.844276,276
2025-01-22 15:52:07.517,-99.9,40.769627,-111.844276,276
2025-01-22 15:52:08.147,-99.9,40.769627,-111.844276,276
2025-01-22 15:52:08.569,-99.6,40.769627,-111.844276,276
2025-01-22 15:52:09.132,-100.2,40.769627,-111.844276,276
2025-01-22 15:52:09.585,-100.2,40.769627,-111.844276,276
2025-01-22 15:52:10.015,-100.2,40.769627,-111.844276,276
2025-01-22 15:52:10.519,-99.9,40.769627,-111.844276,276
2025-01-22 15:52:11.107,-100.2,40.769627,-111.844276,276
2025-01-22 15:52:11.815,-100.1,40.76963,-111.844276,276
2025-01-22 15:52:12.310,-99.8,40.76963,-111.844276,276
2025-01-22 15:52:12.840,-100.3,40.76963,-111.844284,276
2025-01-22 15:52:13.327,-100.9,40.76963,-111.844284,276
2025-01-22 15:52:13.875,-102.8,40.76963,-111.844284,276
2025-01-22 15:52:14.390,-100.1,40.76963,-111.844284,276
2025-01-22 15:52:14.910,-99.8,40.76963,-111.844284,276
2025-01-22 15:52:15.437,-99.8,40.76963,-111.844284,276
2025-01-22 15:52:15.947,-100.0,40.76963,-111.844276,276
2025-01-22 15:52:16.458,-99.9,40.76963,-111.844276,276
2025-01-22 15:52:16.970,-100.0,40.76963,-111.844276,276
2025-01-22 15:52:17.505,-100.0,40.76963,-111.844276,276
2025-01-22 15:52:18.030,-100.1,40.76963,-111.844276,276
2025-01-22 15:52:18.563,-99.9,40.76963,-111.844276,276
2025-01-22 15:52:19.070,-99.6,40.76963,-111.844276,276
2025-01-22 15:52:19.601,-99.8,40.76963,-111.844276,276
2025-01-22 15:52:20.108,-99.9,40.76963,-111.844276,276
2025-01-22 15:52:20.616,-100.0,40.76963,-111.844276,276
2025-01-22 15:52:21.137,-99.9,40.76963,-111.844276,276
2025-01-22 15:52:21.647,-99.9,40.76963,-111.844276,276
2025-01-22 15:52:22.158,-99.8,40.76963,-111.844276,276
2025-01-22 15:52:22.665,-99.8,40.76963,-111.844276,276
2025-01-22 15:52:23.177,-99.9,40.76963,-111.844276,276
2025-01-22 15:52:23.695,-99.9,40.76963,-111.844276,276
2025-01-22 15:52:24.205,-99.7,40.76963,-111.844276,276
2025-01-22 15:52:24.720,-99.8,40.76963,-111.844276,276
2025-01-22 15:52:25.231,-100.3,40.76963,-111.844276,276
2025-01-22 15:52:25.739,-100.2,40.76963,-111.844276,276
2025-01-22 15:52:26.275,-99.9,40.76963,-111.844276,276
2025-01-22 15:52:26.788,-99.9,40.76963,-111.844276,276
2025-01-22 15:52:27.325,-99.8,40.76963,-111.844276,276
2025-01-22 15:52:27.838,-99.9,40.76963,-111.844276,276
2025-01-22 15:52:28.354,-100.2,40.76963,-111.844276,276
2025-01-22 15:52:28.863,-100.1,40.76963,-111.844276,276
2025-01-22 15:52:29.374,-100.0,40.76963,-111.844276,276
2025-01-22 15:52:29.885,-100.1,40.769627,-111.844276,276
2025-01-22 15:52:30.420,-100.3,40.769627,-111.844276,276
2025-01-22 15:52:30.930,-99.9,40.769627,-111.844269,276
2025-01-22 15:52:31.440,-100.0,40.769627,-111.844269,276
2025-01-22 15:52:31.940,-100.1,40.769623,-111.844269,276
2025-01-22 15:52:32.455,-99.9,40.769623,-111.844269,276
2025-01-22 15:52:32.970,-100.1,40.769623,-111.844269,276
2025-01-22 15:52:33.485,-99.9,40.769623,-111.844269,276
2025-01-22 15:52:33.990,-99.9,40.769623,-111.844269,276
2025-01-22 15:52:34.495,-99.4,40.769623,-111.844269,276
2025-01-22 15:52:34.999,-99.7,40.769619,-111.844261,276
2025-01-22 15:52:35.507,-99.8,40.769619,-111.844261,276
2025-01-22 15:52:36.015,-99.9,40.769619,-111.844261,276
2025-01-22 15:52:36.545,-100.3,40.769619,-111.844261,276
2025-01-22 15:52:37.055,-100.2,40.769619,-111.844261,276
2025-01-22 15:52:37.590,-100.1,40.769619,-111.844261,276
2025-01-22 15:52:38.105,-100.4,40.769615,-111.844261,276
2025-01-22 15:52:38.627,-100.3,40.769615,-111.844261,276
2025-01-22 15:52:39.134,-100.1,40.769615,-111.844254,276
2025-01-22 15:52:39.645,-100.1,40.769615,-111.844254,276
2025-01-22 15:52:40.158,-100.0,40.769615,-111.844254,276
2025-01-22 15:52:40.660,-100.2,40.769615,-111.844254,276
2025-01-22 15:52:41.168,-100.4,40.769611,-111.844254,276
2025-01-22 15:52:41.677,-100.4,40.769611,-111.844254,276
2025-01-22 15:52:42.190,-100.3,40.769611,-111.844254,276
2025-01-22 15:52:42.695,-100.4,40.769611,-111.844254,276
2025-01-22 15:52:43.214,-100.4,40.769611,-111.844254,276
2025-01-22 15:52:43.725,-100.4,40.769611,-111.844246,276
2025-01-22 15:52:44.230,-99.9,40.769611,-111.844246,276
2025-01-22 15:52:44.755,-100.5,40.769608,-111.844246,276
2025-01-22 15:52:45.262,-100.5,40.769608,-111.844246,276
2025-01-22 15:52:45.765,-100.5,40.769608,-111.844246,276
2025-01-22 15:52:46.270,-100.8,40.769608,-111.844246,276
2025-01-22 15:52:46.785,-100.1,40.769608,-111.844246,276
2025-01-22 15:52:47.303,-100.4,40.769608,-111.844246,276
2025-01-22 15:52:47.835,-100.6,40.769608,-111.844246,276
2025-01-22 15:52:48.342,-100.2,40.769608,-111.844246,276
2025-01-22 15:52:48.850,-100.2,40.769608,-111.844246,276
2025-01-22 15:52:49.360,-100.6,40.769608,-111.844246,276
2025-01-22 15:52:49.874,-100.5,40.769608,-111.844246,276
2025-01-22 15:52:50.382,-100.4,40.769608,-111.844246,276
2025-01-22 15:52:50.895,-99.6,40.769608,-111.844246,276
2025-01-22 15:52:51.401,-101.6,40.769608,-111.844246,276
2025-01-22 15:52:51.910,-102.3,40.769608,-111.844246,276
2025-01-22 15:52:52.423,-103.6,40.769608,-111.844246,276
2025-01-22 15:52:52.927,-101.8,40.769608,-111.844246,276
2025-01-22 15:52:53.441,-103.8,40.769608,-111.844246,276
2025-01-22 15:52:53.957,-102.1,40.769611,-111.844238,276
2025-01-22 15:52:54.495,-104.3,40.769611,-111.844238,276
2025-01-22 15:52:55.007,-102.2,40.769611,-111.844231,276
2025-01-22 15:52:55.527,-106.7,40.769611,-111.844231,276
2025-01-22 15:52:56.030,-99.0,40.769615,-111.844231,276
2025-01-22 15:52:56.547,-98.4,40.769615,-111.844231,276
2025-01-22 15:52:57.057,-101.9,40.769619,-111.844223,276
2025-01-22 15:52:57.566,-97.4,40.769619,-111.844223,276
2025-01-22 15:52:58.065,-96.2,40.769623,-111.844215,276
2025-01-22 15:52:58.577,-100.3,40.769623,-111.844215,276
2025-01-22 15:52:59.065,-98.5,40.769623,-111.844215,276
2025-01-22 15:52:59.594,-102.1,40.769623,-111.844215,276
2025-01-22 15:53:00.111,-105.6,40.769627,-111.844208,276
2025-01-22 15:53:00.615,-107.3,40.769627,-111.844208,276
2025-01-22 15:53:01.130,-108.3,40.76963,-111.8442,276
2025-01-22 15:53:01.635,-107.4,40.76963,-111.8442,276
2025-01-22 15:53:02.145,-103.9,40.76963,-111.8442,276
2025-01-22 15:53:02.658,-101.4,40.76963,-111.8442,276
2025-01-22 15:53:03.171,-106.3,40.769634,-111.844193,276
2025-01-22 15:53:03.682,-103.1,40.769634,-111.844193,276
2025-01-22 15:53:04.214,-103.2,40.769634,-111.844193,276
2025-01-22 15:53:04.749,-107.3,40.769638,-111.844185,276
2025-01-22 15:53:05.243,-109.3,40.769638,-111.844185,276
2025-01-22 15:53:05.745,-108.2,40.769638,-111.844185,276
2025-01-22 15:53:06.278,-108.9,40.769638,-111.844185,276
2025-01-22 15:53:06.790,-108.3,40.769642,-111.844185,276
2025-01-22 15:53:07.295,-108.7,40.769642,-111.844185,276
2025-01-22 15:53:07.795,-109.3,40.769642,-111.844185,276
2025-01-22 15:53:08.303,-108.7,40.769642,-111.844185,276
2025-01-22 15:53:08.813,-108.4,40.769642,-111.844185,276
2025-01-22 15:53:09.349,-110.4,40.769642,-111.844185,276
2025-01-22 15:53:09.849,-111.5,40.769642,-111.844185,276
2025-01-22 15:53:10.360,-108.1,40.769642,-111.844185,276
2025-01-22 15:53:10.894,-107.4,40.769634,-111.844185,276
2025-01-22 15:53:11.405,-108.3,40.769634,-111.844185,276
2025-01-22 15:53:11.945,-111.7,40.769627,-111.844177,276
2025-01-22 15:53:12.447,-111.6,40.769627,-111.844177,276
2025-01-22 15:53:12.984,-112.9,40.769611,-111.84417,276
2025-01-22 15:53:13.499,-116.3,40.769611,-111.84417,276
2025-01-22 15:53:14.013,-110.3,40.769588,-111.844154,276
2025-01-22 15:53:14.520,-105.8,40.769588,-111.844154,276
2025-01-22 15:53:15.017,-107.3,40.769566,-111.844131,276
2025-01-22 15:53:15.542,-111.8,40.769566,-111.844131,276
2025-01-22 15:53:16.065,-110.3,40.769547,-111.844116,276
2025-01-22 15:53:16.574,-105.5,40.769547,-111.844116,276
2025-01-22 15:53:17.090,-105.8,40.769524,-111.844109,276
2025-01-22 15:53:17.590,-114.7,40.769524,-111.844109,276
2025-01-22 15:53:18.100,-112.6,40.769505,-111.844109,276
2025-01-22 15:53:18.630,-113.1,40.769505,-111.844109,276
2025-01-22 15:53:19.140,-114.7,40.769485,-111.844116,276
2025-01-22 15:53:19.647,-110.4,40.769485,-111.844116,276
2025-01-22 15:53:20.160,-105.9,40.769466,-111.844131,276
2025-01-22 15:53:20.674,-109.0,40.769455,-111.844147,276
2025-01-22 15:53:21.175,-108.6,40.769455,-111.844147,276
2025-01-22 15:53:21.692,-106.1,40.769444,-111.844162,276
2025-01-22 15:53:22.205,-113.1,40.769444,-111.844162,276
2025-01-22 15:53:22.724,-108.1,40.769436,-111.844177,276
2025-01-22 15:53:23.253,-110.0,40.769436,-111.844177,276
2025-01-22 15:53:23.770,-110.0,40.769428,-111.844185,276
2025-01-22 15:53:24.297,-113.6,40.769428,-111.844185,276
2025-01-22 15:53:24.835,-112.4,40.769424,-111.8442,276
2025-01-22 15:53:25.350,-113.9,40.769424,-111.8442,276
2025-01-22 15:53:25.880,-114.6,40.769409,-111.844215,276
2025-01-22 15:53:26.400,-117.5,40.769409,-111.844215,276
2025-01-22 15:53:26.915,-117.2,40.769382,-111.844215,276
2025-01-22 15:53:27.439,-114.8,40.769382,-111.844215,276
2025-01-22 15:53:27.937,-114.1,40.769356,-111.844215,276
2025-01-22 15:53:28.465,-117.9,40.769356,-111.844215,276
2025-01-22 15:53:28.985,-115.7,40.769333,-111.8442,276
2025-01-22 15:53:29.525,-120.3,40.769333,-111.8442,276
2025-01-22 15:53:30.054,-117.3,40.769314,-111.844185,276
2025-01-22 15:53:30.560,-115.1,40.769314,-111.844185,276
2025-01-22 15:53:31.086,-116.8,40.769299,-111.844177,276
2025-01-22 15:53:31.601,-117.9,40.769299,-111.844177,276
2025-01-22 15:53:32.110,-117.1,40.769283,-111.84417,276
2025-01-22 15:53:32.630,-112.0,40.769283,-111.84417,276
2025-01-22 15:53:33.136,-107.4,40.769268,-111.844162,276
2025-01-22 15:53:33.635,-109.4,40.769268,-111.844162,276
2025-01-22 15:53:34.145,-107.3,40.769249,-111.844162,276
2025-01-22 15:53:34.680,-107.8,40.769226,-111.84417,276
2025-01-22 15:53:35.190,-105.8,40.769226,-111.84417,276
2025-01-22 15:53:35.710,-108.1,40.769203,-111.8442,276
2025-01-22 15:53:36.216,-107.4,40.769203,-111.8442,276
2025-01-22 15:53:36.750,-109.5,40.76918,-111.844246,276
2025-01-22 15:53:37.254,-107.8,40.76918,-111.844246,276
2025-01-22 15:53:37.775,-115.6,40.769157,-111.844299,276
2025-01-22 15:53:38.288,-115.3,40.769157,-111.844299,276
2025-01-22 15:53:38.820,-112.0,40.769135,-111.844368,276
2025-01-22 15:53:39.336,-108.8,40.769135,-111.844368,276
2025-01-22 15:53:39.845,-112.5,40.769119,-111.844437,276
2025-01-22 15:53:40.360,-107.7,40.769119,-111.844437,276
2025-01-22 15:53:40.885,-109.8,40.769104,-111.844505,276
2025-01-22 15:53:41.385,-114.4,40.769104,-111.844505,276
2025-01-22 15:53:41.924,-110.6,40.769093,-111.844559,276
2025-01-22 15:53:42.430,-106.1,40.769093,-111.844559,276
2025-01-22 15:53:42.938,-104.0,40.769089,-111.844597,276
2025-01-22 15:53:43.444,-104.9,40.769089,-111.844597,276
2025-01-22 15:53:43.974,-104.7,40.769085,-111.84462,276
2025-01-22 15:53:44.475,-106.9,40.769085,-111.84462,276
2025-01-22 15:53:45.015,-105.3,40.769077,-111.844643,276
2025-01-22 15:53:45.512,-104.4,40.769077,-111.844643,276
2025-01-22 15:53:46.040,-105.9,40.769073,-111.844666,276
2025-01-22 15:53:46.554,-111.1,40.769073,-111.844666,276
2025-01-22 15:53:47.058,-110.1,40.769073,-111.844688,276
2025-01-22 15:53:47.555,-106.7,40.769073,-111.844688,276
2025-01-22 15:53:48.075,-111.1,40.769081,-111.844719,276
2025-01-22 15:53:48.615,-108.3,40.769081,-111.844719,276
2025-01-22 15:53:49.126,-107.6,40.7691,-111.844749,276
2025-01-22 15:53:49.655,-104.9,40.7691,-111.844749,276
2025-01-22 15:53:50.168,-111.3,40.769138,-111.844765,276
2025-01-22 15:53:50.675,-107.6,40.769184,-111.84478,276
2025-01-22 15:53:51.194,-106.7,40.769184,-111.84478,276
2025-01-22 15:53:51.688,-110.0,40.769238,-111.844795,276
2025-01-22 15:53:52.225,-107.6,40.769238,-111.844795,276
2025-01-22 15:53:52.733,-108.3,40.769299,-111.844803,276
2025-01-22 15:53:53.245,-108.6,40.769299,-111.844803,276
2025-01-22 15:53:53.741,-105.0,40.769367,-111.844818,276
2025-01-22 15:53:54.275,-105.9,40.769367,-111.844818,276
2025-01-22 15:53:54.790,-104.3,40.769436,-111.844826,276
2025-01-22 15:53:55.290,-103.5,40.769436,-111.844826,276
2025-01-22 15:53:55.800,-102.6,40.769505,-111.844826,276
2025-01-22 15:53:56.312,-104.3,40.769505,-111.844826,276
2025-01-22 15:53:56.801,-104.6,40.769573,-111.844833,276
2025-01-22 15:53:57.335,-101.1,40.769573,-111.844833,276
2025-01-22 15:53:57.848,-103.5,40.769646,-111.844833,276
2025-01-22 15:53:58.365,-101.3,40.769646,-111.844833,276
2025-01-22 15:53:58.883,-103.1,40.769718,-111.844833,276
2025-01-22 15:53:59.412,-95.8,40.769718,-111.844833,276
2025-01-22 15:53:59.922,-100.2,40.769791,-111.844833,276
2025-01-22 15:54:00.432,-101.6,40.769791,-111.844833,276
2025-01-22 15:54:00.936,-104.4,40.769863,-111.844833,276
2025-01-22 15:54:01.438,-107.7,40.769863,-111.844833,276
2025-01-22 15:54:01.968,-107.1,40.769932,-111.844833,276
2025-01-22 15:54:02.452,-110.1,40.769932,-111.844833,276
2025-01-22 15:54:02.956,-103.3,40.77,-111.844833,276
2025-01-22 15:54:03.469,-105.4,40.77,-111.844833,276
2025-01-22 15:54:03.980,-103.9,40.770065,-111.844833,276
2025-01-22 15:54:04.492,-104.5,40.770065,-111.844833,276
2025-01-22 15:54:04.997,-103.5,40.770134,-111.844826,276
2025-01-22 15:54:05.502,-106.0,40.770134,-111.844826,276
2025-01-22 15:54:06.022,-109.8,40.770199,-111.844826,276
2025-01-22 15:54:06.552,-107.8,40.770199,-111.844826,276
2025-01-22 15:54:07.062,-105.8,40.770267,-111.844826,276
2025-01-22 15:54:07.574,-106.7,40.770267,-111.844826,276
2025-01-22 15:54:08.108,-109.5,40.770336,-111.844826,276
2025-01-22 15:54:08.616,-108.4,40.770336,-111.844826,276
2025-01-22 15:54:09.122,-107.1,40.770405,-111.844826,276
2025-01-22 15:54:09.647,-105.6,40.770405,-111.844826,276
2025-01-22 15:54:10.163,-107.2,40.77047,-111.844826,276
2025-01-22 15:54:10.674,-109.9,40.770538,-111.844826,276
2025-01-22 15:54:11.191,-107.8,40.770538,-111.844826,276
2025-01-22 15:54:11.707,-109.4,40.770603,-111.844826,276
2025-01-22 15:54:12.212,-109.0,40.770603,-111.844826,276
2025-01-22 15:54:12.722,-109.4,40.770668,-111.844826,276
2025-01-22 15:54:13.240,-110.3,40.770668,-111.844826,276
2025-01-22 15:54:13.756,-110.0,40.770729,-111.844826,276
2025-01-22 15:54:14.272,-108.3,40.770729,-111.844826,276
2025-01-22 15:54:14.786,-105.0,40.770786,-111.844833,276
2025-01-22 15:54:15.297,-99.4,40.770786,-111.844833,276
2025-01-22 15:54:15.813,-105.2,40.770828,-111.844841,276
2025-01-22 15:54:16.323,-100.5,40.770828,-111.844841,276
2025-01-22 15:54:16.836,-104.9,40.77087,-111.844833,276
2025-01-22 15:54:17.355,-106.4,40.77087,-111.844833,276
2025-01-22 15:54:17.865,-106.9,40.770901,-111.844818,276
2025-01-22 15:54:18.381,-109.3,40.770901,-111.844818,276
2025-01-22 15:54:18.891,-104.5,40.770924,-111.84478,276
2025-01-22 15:54:19.395,-108.1,40.770924,-111.84478,276
2025-01-22 15:54:19.903,-107.0,40.770939,-111.844734,276
2025-01-22 15:54:20.418,-107.5,40.770939,-111.844734,276
2025-01-22 15:54:20.951,-110.3,40.770943,-111.844673,276
2025-01-22 15:54:21.456,-113.1,40.770943,-111.844673,276
2025-01-22 15:54:21.968,-107.9,40.770943,-111.844597,276
2025-01-22 15:54:22.471,-107.9,40.770943,-111.844597,276
2025-01-22 15:54:22.976,-106.6,40.770939,-111.844513,276
2025-01-22 15:54:23.488,-113.8,40.770939,-111.844513,276
2025-01-22 15:54:24.001,-112.8,40.770935,-111.844421,276
2025-01-22 15:54:24.536,-115.3,40.770935,-111.844421,276
2025-01-22 15:54:25.056,-113.0,40.770935,-111.84433,276
2025-01-22 15:54:25.566,-116.3,40.770935,-111.84433,276
2025-01-22 15:54:26.081,-114.6,40.770939,-111.844231,276
2025-01-22 15:54:26.602,-117.7,40.770939,-111.844231,276
2025-01-22 15:54:27.128,-116.0,40.770939,-111.844131,276
2025-01-22 15:54:27.643,-113.8,40.770939,-111.844131,276
2025-01-22 15:54:28.156,-109.8,40.770947,-111.844032,276
2025-01-22 15:54:28.675,-107.3,40.770954,-111.843933,276
2025-01-22 15:54:29.191,-112.7,40.770954,-111.843933,276
2025-01-22 15:54:33.319,-104.0,40.77103,-111.843536,276
2025-01-22 15:54:33.828,-99.8,40.771065,-111.843445,276
2025-01-22 15:54:34.345,-104.6,40.771065,-111.843445,276
2025-01-22 15:54:34.853,-110.1,40.771099,-111.843353,276
2025-01-22 15:54:35.366,-114.1,40.771099,-111.843353,276
2025-01-22 15:54:35.873,-110.8,40.771122,-111.843277,276
2025-01-22 15:54:36.383,-110.1,40.771122,-111.843277,276
2025-01-22 15:54:36.893,-105.4,40.771133,-111.843216,276
2025-01-22 15:54:37.396,-106.4,40.771133,-111.843216,276
2025-01-22 15:54:37.898,-103.6,40.77113,-111.843163,276
2025-01-22 15:54:38.423,-111.1,40.77113,-111.843163,276
2025-01-22 15:54:38.958,-103.9,40.771114,-111.843117,276
2025-01-22 15:54:39.474,-103.5,40.771114,-111.843117,276
2025-01-22 15:54:39.984,-110.8,40.771088,-111.843071,276
2025-01-22 15:54:40.473,-117.9,40.771088,-111.843071,276
2025-01-22 15:54:41.006,-117.9,40.771049,-111.843033,276
2025-01-22 15:54:41.527,-117.9,40.771049,-111.843033,276
2025-01-22 15:54:42.038,-116.7,40.770996,-111.842995,276
2025-01-22 15:54:42.503,-118.4,40.770996,-111.842995,276
2025-01-22 15:54:44.124,-113.3,40.770878,-111.842918,276
2025-01-22 15:54:44.638,-115.4,40.770878,-111.842918,276
2025-01-22 15:54:45.155,-113.6,40.770813,-111.842873,276
2025-01-22 15:54:45.678,-112.8,40.770752,-111.842834,276
2025-01-22 15:54:46.181,-118.2,40.770752,-111.842834,276
2025-01-22 15:54:46.703,-114.9,40.770691,-111.842796,276
2025-01-22 15:54:47.196,-117.9,40.770691,-111.842796,276
2025-01-22 15:54:47.743,-121.5,40.770634,-111.842766,276
2025-01-22 15:54:48.273,-121.6,40.770634,-111.842766,276
2025-01-22 15:54:48.798,-119.2,40.77058,-111.842728,276
2025-01-22 15:54:49.308,-117.4,40.77058,-111.842728,276
2025-01-22 15:54:49.767,-119.2,40.770531,-111.84269,276
2025-01-22 16:02:03.990,-105.5,40.772289,-111.840561,276
2025-01-22 16:02:04.475,-104.8,40.772289,-111.840561,276
2025-01-22 16:02:05.012,-105.6,40.772381,-111.840561,276
2025-01-22 16:02:05.537,-107.4,40.772381,-111.840561,276
2025-01-22 16:02:06.042,-112.8,40.772465,-111.840569,276
2025-01-22 16:02:06.534,-107.6,40.772465,-111.840569,276
2025-01-22 16:02:07.057,-109.2,40.772549,-111.840569,276
2025-01-22 16:02:07.570,-108.3,40.772549,-111.840569,276
2025-01-22 16:02:08.067,-112.8,40.772625,-111.840569,276
2025-01-22 16:02:08.587,-108.9,40.772625,-111.840569,276
2025-01-22 16:02:09.107,-111.6,40.772697,-111.840569,276
2025-01-22 16:02:09.617,-106.6,40.772697,-111.840569,276
2025-01-22 16:02:10.151,-103.0,40.772758,-111.840569,276
2025-01-22 16:02:10.653,-106.3,40.772758,-111.840569,276
2025-01-22 16:02:11.158,-106.5,40.772808,-111.840561,276
2025-01-22 16:02:11.674,-94.9,40.772854,-111.840546,276
2025-01-22 16:02:12.187,-103.6,40.772854,-111.840546,276
2025-01-22 16:02:12.711,-102.7,40.772896,-111.840523,276
2025-01-22 16:02:13.232,-104.1,40.772896,-111.840523,276
2025-01-22 16:02:13.737,-106.9,40.772926,-111.840477,276
2025-01-22 16:02:14.251,-109.9,40.772926,-111.840477,276
2025-01-22 16:02:14.762,-107.2,40.772945,-111.840416,276
2025-01-22 16:02:15.281,-105.4,40.772945,-111.840416,276
2025-01-22 16:02:15.812,-104.1,40.772949,-111.84034,276
2025-01-22 16:02:16.302,-103.8,40.772949,-111.84034,276
2025-01-22 16:02:16.837,-106.9,40.772957,-111.840256,276
2025-01-22 16:02:17.361,-105.0,40.772957,-111.840256,276
2025-01-22 16:02:17.874,-105.9,40.772953,-111.840172,276
2025-01-22 16:02:18.381,-104.5,40.772953,-111.840172,276
2025-01-22 16:02:18.892,-103.9,40.772949,-111.840073,276
2025-01-22 16:02:19.403,-96.6,40.772949,-111.840073,276
2025-01-22 16:02:19.907,-103.1,40.772942,-111.839981,276
2025-01-22 16:02:20.420,-101.6,40.772942,-111.839981,276
2025-01-22 16:02:20.947,-100.0,40.772934,-111.83989,276
2025-01-22 16:02:21.420,-103.6,40.772934,-111.83989,276
2025-01-22 16:02:21.916,-106.1,40.772923,-111.83979,276
2025-01-22 16:02:22.434,-106.6,40.772923,-111.83979,276
2025-01-22 16:02:22.962,-108.4,40.772907,-111.839699,276
2025-01-22 16:02:23.467,-109.1,40.772907,-111.839699,276
2025-01-22 16:02:23.974,-108.8,40.772884,-111.8396,276
2025-01-22 16:02:24.487,-108.9,40.772884,-111.8396,276
2025-01-22 16:02:24.987,-110.9,40.772865,-111.839508,276
2025-01-22 16:02:25.490,-108.8,40.772865,-111.839508,276
2025-01-22 16:02:26.014,-108.6,40.772842,-111.839424,276
2025-01-22 16:02:26.527,-111.5,40.772842,-111.839424,276
2025-01-22 16:02:27.034,-103.4,40.772823,-111.839333,276
2025-01-22 16:02:27.567,-104.2,40.772823,-111.839333,276
2025-01-22 16:02:28.081,-109.9,40.772797,-111.839241,276
2025-01-22 16:02:28.589,-111.9,40.772797,-111.839241,276
2025-01-22 16:02:29.113,-111.4,40.772774,-111.839157,276
2025-01-22 16:02:29.637,-111.3,40.772774,-111.839157,276
2025-01-22 16:02:30.149,-109.1,40.772751,-111.839073,276
2025-01-22 16:02:30.672,-110.9,40.772728,-111.838989,276
2025-01-22 16:02:31.173,-110.4,40.772728,-111.838989,276
2025-01-22 16:02:31.682,-108.4,40.772713,-111.838913,276
2025-01-22 16:02:32.194,-108.1,40.772713,-111.838913,276
2025-01-22 16:02:32.707,-106.4,40.772697,-111.838829,276
2025-01-22 16:02:33.222,-107.4,40.772697,-111.838829,276
2025-01-22 16:02:33.734,-106.2,40.77269,-111.838745,276
2025-01-22 16:02:34.237,-108.8,40.77269,-111.838745,276
2025-01-22 16:02:34.747,-105.0,40.772686,-111.838669,276
2025-01-22 16:02:35.242,-104.3,40.772686,-111.838669,276
2025-01-22 16:02:35.768,-109.6,40.772697,-111.838593,276
2025-01-22 16:02:36.297,-107.6,40.772697,-111.838593,276
2025-01-22 16:02:36.822,-107.0,40.772709,-111.838531,276
2025-01-22 16:02:37.287,-110.8,40.772709,-111.838531,276
2025-01-22 16:02:37.862,-111.3,40.77272,-111.838478,276
2025-01-22 16:02:38.367,-111.2,40.77272,-111.838478,276
2025-01-22 16:02:38.900,-110.2,40.772728,-111.83844,276
2025-01-22 16:02:39.421,-108.6,40.772728,-111.83844,276
2025-01-22 16:02:39.962,-111.4,40.772739,-111.838402,276
2025-01-22 16:02:40.458,-112.8,40.772739,-111.838402,276
2025-01-22 16:02:40.971,-112.9,40.772747,-111.838371,276
2025-01-22 16:02:41.486,-114.8,40.772747,-111.838371,276
2025-01-22 16:10:20.460,-106.8,40.772861,-111.84185,276
2025-01-22 16:10:20.989,-112.1,40.772808,-111.841965,276
2025-01-22 16:10:21.507,-106.1,40.772808,-111.841965,276
2025-01-22 16:10:22.009,-97.8,40.772747,-111.842072,276
2025-01-22 16:10:22.509,-100.0,40.772747,-111.842072,276
2025-01-22 16:10:23.044,-107.4,40.772675,-111.842178,276
2025-01-22 16:10:23.544,-105.1,40.772675,-111.842178,276
2025-01-22 16:10:24.054,-104.8,40.772594,-111.84227,276
2025-01-22 16:10:24.574,-111.3,40.772594,-111.84227,276
2025-01-22 16:10:25.104,-104.3,40.772511,-111.842354,276
2025-01-22 16:10:25.604,-105.4,40.772511,-111.842354,276
2025-01-22 16:10:26.139,-110.6,40.772415,-111.84243,276
2025-01-22 16:10:26.664,-115.8,40.772316,-111.842491,276
2025-01-22 16:10:27.173,-110.8,40.772316,-111.842491,276
2025-01-22 16:10:27.661,-113.3,40.772213,-111.842552,276
2025-01-22 16:10:28.174,-107.3,40.772213,-111.842552,276
2025-01-22 16:10:28.674,-116.5,40.772106,-111.842606,276
2025-01-22 16:10:29.194,-112.7,40.772106,-111.842606,276
2025-01-22 16:10:29.709,-114.0,40.772003,-111.842659,276
2025-01-22 16:10:30.229,-114.1,40.772003,-111.842659,276
2025-01-22 16:10:30.734,-111.6,40.771896,-111.842712,276
2025-01-22 16:10:31.250,-115.9,40.771896,-111.842712,276
2025-01-22 16:10:31.716,-114.6,40.77179,-111.842773,276
2025-01-22 16:10:32.274,-111.9,40.77179,-111.842773,276
2025-01-22 16:10:32.769,-114.3,40.771687,-111.842834,276
2025-01-22 16:10:33.173,-114.7,40.771687,-111.842834,276
2025-01-22 16:10:33.798,-112.2,40.771587,-111.842903,276
2025-01-22 16:10:34.328,-110.0,40.771587,-111.842903,276
2025-01-22 16:10:34.843,-105.5,40.771492,-111.842987,276
2025-01-22 16:10:35.358,-110.6,40.771492,-111.842987,276
2025-01-22 16:10:35.878,-109.2,40.771408,-111.843079,276
2025-01-22 16:10:36.409,-111.3,40.771408,-111.843079,276
2025-01-22 16:10:36.923,-114.6,40.771332,-111.843178,276
2025-01-22 16:10:37.447,-112.2,40.771332,-111.843178,276
2025-01-22 16:10:37.961,-108.8,40.771267,-111.843277,276
2025-01-22 16:10:38.486,-109.0,40.771267,-111.843277,276
2025-01-22 16:10:39.016,-98.4,40.77121,-111.843391,276
2025-01-22 16:10:39.531,-99.9,40.77121,-111.843391,276
2025-01-22 16:10:40.040,-104.8,40.771164,-111.843506,276
2025-01-22 16:10:40.580,-100.4,40.771164,-111.843506,276
2025-01-22 16:10:41.085,-96.1,40.771122,-111.843628,276
2025-01-22 16:10:41.606,-96.8,40.771122,-111.843628,276
2025-01-22 16:10:42.138,-99.6,40.771091,-111.843758,276
2025-01-22 16:10:42.636,-96.8,40.771091,-111.843758,276
2025-01-22 16:10:43.166,-100.7,40.771069,-111.843895,276
2025-01-22 16:10:43.700,-95.7,40.771046,-111.844025,276
2025-01-22 16:10:44.201,-96.8,40.771046,-111.844025,276
2025-01-22 16:10:44.732,-94.8,40.77103,-111.844154,276
2025-01-22 16:10:45.240,-100.1,40.77103,-111.844154,276
2025-01-22 16:10:45.742,-96.9,40.771015,-111.844276,276
2025-01-22 16:10:46.255,-100.0,40.771015,-111.844276,276
2025-01-22 16:10:46.780,-102.7,40.771008,-111.844391,276
2025-01-22 16:10:47.283,-103.8,40.771008,-111.844391,276
2025-01-22 16:10:47.806,-101.5,40.771004,-111.844482,276
2025-01-22 16:10:48.328,-100.6,40.771004,-111.844482,276
2025-01-22 16:10:48.837,-107.9,40.771004,-111.844559,276
2025-01-22 16:10:49.365,-100.6,40.771004,-111.844559,276
2025-01-22 16:10:49.874,-101.3,40.771004,-111.84462,276
2025-01-22 16:10:50.400,-105.4,40.771004,-111.84462,276
2025-01-22 16:10:50.901,-110.4,40.771004,-111.844658,276
2025-01-22 16:10:51.426,-98.8,40.771004,-111.844658,276
2025-01-22 16:10:51.950,-100.6,40.771004,-111.844681,276
2025-01-22 16:10:52.460,-102.1,40.771004,-111.844681,276
2025-01-22 16:10:52.971,-101.3,40.771004,-111.844696,276
2025-01-22 16:10:53.489,-100.9,40.771004,-111.844696,276
2025-01-22 16:10:54.005,-101.9,40.771008,-111.844711,276
2025-01-22 16:10:54.513,-104.7,40.771008,-111.844711,276
2025-01-22 16:10:55.023,-103.0,40.771008,-111.844727,276
2025-01-22 16:10:55.556,-103.5,40.771008,-111.844727,276
2025-01-22 16:10:56.086,-100.2,40.771008,-111.844742,276
2025-01-22 16:10:56.586,-99.9,40.771008,-111.844742,276
2025-01-22 16:10:57.112,-104.6,40.771008,-111.844757,276
2025-01-22 16:10:57.616,-104.3,40.771008,-111.844757,276
2025-01-22 16:10:58.126,-102.9,40.771008,-111.844765,276
2025-01-22 16:10:58.646,-101.2,40.771008,-111.844765,276
2025-01-22 16:10:59.157,-101.3,40.771008,-111.844765,276
2025-01-22 16:10:59.666,-101.2,40.771008,-111.844772,276
2025-01-22 16:11:00.161,-101.5,40.771008,-111.844772,276
2025-01-22 16:11:00.676,-101.3,40.771004,-111.844772,276
2025-01-22 16:11:01.214,-100.8,40.771004,-111.844772,276
2025-01-22 16:11:01.731,-101.1,40.771004,-111.844772,276
2025-01-22 16:11:02.236,-100.9,40.771004,-111.844772,276
2025-01-22 16:11:02.738,-102.3,40.771004,-111.844772,276
2025-01-22 16:11:03.246,-100.2,40.771004,-111.844772,276
2025-01-22 16:11:03.781,-100.6,40.771004,-111.844772,276
2025-01-22 16:11:04.296,-100.2,40.771004,-111.844772,276
2025-01-22 16:11:04.814,-100.7,40.771004,-111.844772,276
2025-01-22 16:11:05.321,-99.7,40.771004,-111.844772,276
2025-01-22 16:11:05.836,-103.6,40.771004,-111.844772,276
2025-01-22 16:11:06.344,-101.1,40.771004,-111.844772,276
2025-01-22 16:11:06.851,-101.1,40.771004,-111.844772,276
2025-01-22 16:11:07.390,-101.5,40.771004,-111.844772,276
2025-01-22 16:11:07.905,-101.3,40.771004,-111.844772,276
2025-01-22 16:11:08.411,-102.3,40.771004,-111.844772,276
2025-01-22 16:11:08.936,-100.4,40.771004,-111.844772,276
2025-01-22 16:11:09.446,-100.4,40.771004,-111.844772,276
2025-01-22 16:11:09.966,-100.1,40.771004,-111.844772,276
2025-01-22 16:11:10.466,-99.8,40.771004,-111.844772,276
2025-01-22 16:11:10.972,-100.1,40.771004,-111.844772,276
2025-01-22 16:11:11.511,-97.4,40.771004,-111.844772,276
2025-01-22 16:11:12.016,-99.9,40.771004,-111.844772,276
2025-01-22 16:11:12.526,-104.4,40.771004,-111.844772,276
2025-01-22 16:11:13.035,-101.3,40.771004,-111.84478,276
2025-01-22 16:11:13.551,-102.9,40.771004,-111.84478,276
2025-01-22 16:11:14.060,-101.9,40.771004,-111.844788,276
2025-01-22 16:11:14.561,-103.5,40.771004,-111.844788,276
2025-01-22 16:11:15.096,-102.2,40.771004,-111.844803,276
2025-01-22 16:11:15.601,-104.3,40.771004,-111.844803,276
2025-01-22 16:11:16.129,-103.1,40.771,-111.844826,276
2025-01-22 16:11:16.633,-107.7,40.771,-111.844826,276
2025-01-22 16:11:17.125,-103.0,40.770988,-111.844872,276
2025-01-22 16:11:17.636,-97.9,40.770988,-111.844872,276
2025-01-22 16:11:18.156,-98.3,40.770954,-111.84491,276
2025-01-22 16:11:18.649,-105.9,40.770954,-111.84491,276
2025-01-22 16:11:19.186,-111.8,40.770908,-111.844933,276
2025-01-22 16:11:19.696,-113.3,40.770847,-111.84494,276
2025-01-22 16:11:20.216,-109.9,40.770847,-111.84494,276
2025-01-22 16:11:20.729,-111.5,40.770786,-111.84494,276
2025-01-22 16:11:21.236,-106.8,40.770786,-111.84494,276
2025-01-22 16:11:21.771,-101.6,40.770714,-111.84494,276
2025-01-22 16:11:22.279,-105.8,40.770714,-111.84494,276
2025-01-22 16:11:22.789,-106.3,40.770641,-111.84494,276
2025-01-22 16:11:23.316,-107.4,40.770641,-111.84494,276
2025-01-22 16:11:23.829,-107.1,40.770561,-111.84494,276
2025-01-22 16:11:24.349,-109.6,40.770561,-111.84494,276
2025-01-22 16:11:24.856,-108.4,40.770473,-111.84494,276
2025-01-22 16:11:25.364,-106.9,40.770473,-111.84494,276
2025-01-22 16:11:25.888,-104.1,40.770382,-111.84494,276
2025-01-22 16:11:26.400,-106.7,40.770382,-111.84494,276
2025-01-22 16:11:26.908,-105.6,40.77029,-111.84494,276
2025-01-22 16:11:27.443,-103.6,40.77029,-111.84494,276
2025-01-22 16:11:27.954,-104.1,40.770203,-111.84494,276
2025-01-22 16:11:28.469,-103.1,40.770203,-111.84494,276
2025-01-22 16:11:28.980,-103.1,40.770115,-111.84494,276
2025-01-22 16:11:29.503,-98.5,40.770115,-111.84494,276
2025-01-22 16:11:30.016,-97.4,40.770031,-111.84494,276
2025-01-22 16:11:30.533,-97.2,40.770031,-111.84494,276
2025-01-22 16:11:31.056,-101.3,40.769947,-111.84494,276
2025-01-22 16:11:31.579,-100.6,40.769947,-111.84494,276
2025-01-22 16:11:32.089,-102.9,40.769863,-111.84494,276
2025-01-22 16:11:32.618,-102.9,40.769863,-111.84494,276
2025-01-22 16:11:33.137,-106.2,40.769787,-111.84494,276
2025-01-22 16:11:33.649,-102.4,40.769787,-111.84494,276
2025-01-22 16:11:34.156,-101.9,40.769707,-111.84494,276
2025-01-22 16:11:34.659,-100.8,40.76963,-111.84494,276
2025-01-22 16:11:35.165,-106.4,40.76963,-111.84494,276
2025-01-22 16:11:35.670,-109.0,40.769554,-111.84494,276
2025-01-22 16:11:36.178,-109.3,40.769554,-111.84494,276
2025-01-22 16:11:36.681,-108.6,40.769474,-111.844925,276
2025-01-22 16:11:37.191,-110.8,40.769474,-111.844925,276
2025-01-22 16:11:37.699,-112.6,40.769398,-111.844917,276
2025-01-22 16:11:38.208,-110.5,40.769398,-111.844917,276
2025-01-22 16:11:38.718,-111.3,40.769325,-111.844902,276
2025-01-22 16:11:39.236,-110.6,40.769325,-111.844902,276
2025-01-22 16:11:39.755,-112.2,40.769253,-111.844887,276
2025-01-22 16:11:40.288,-113.1,40.769253,-111.844887,276
2025-01-22 16:11:40.796,-112.4,40.76918,-111.844872,276
2025-01-22 16:11:41.298,-109.4,40.76918,-111.844872,276
2025-01-22 16:11:41.813,-112.9,40.769112,-111.844849,276
2025-01-22 16:11:42.333,-113.1,40.769112,-111.844849,276
2025-01-22 16:11:42.838,-115.4,40.769039,-111.844826,276
2025-01-22 16:11:43.354,-112.3,40.769039,-111.844826,276
2025-01-22 16:11:43.873,-111.6,40.76897,-111.84481,276
2025-01-22 16:11:44.386,-116.2,40.76897,-111.84481,276
2025-01-22 16:11:44.872,-114.6,40.768902,-111.844788,276
2025-01-22 16:11:45.383,-117.6,40.768902,-111.844788,276
2025-01-22 16:11:45.913,-115.8,40.768829,-111.844765,276
2025-01-22 16:11:46.436,-112.2,40.768829,-111.844765,276
2025-01-22 16:11:46.961,-117.3,40.768757,-111.844749,276
2025-01-22 16:11:47.448,-115.9,40.768757,-111.844749,276
2025-01-22 16:11:47.943,-116.0,40.768688,-111.844727,276
2025-01-22 16:11:48.463,-119.1,40.768688,-111.844727,276
2025-01-22 16:11:48.976,-115.8,40.76862,-111.844711,276
2025-01-22 16:11:49.478,-118.7,40.76862,-111.844711,276
2025-01-22 16:11:50.016,-118.5,40.768555,-111.844688,276
2025-01-22 16:11:50.521,-122.1,40.768555,-111.844688,276
2025-01-22 16:11:51.045,-120.1,40.76849,-111.844666,276
2025-01-22 16:11:51.545,-120.6,40.76849,-111.844666,276
2025-01-22 16:11:52.045,-122.7,40.768425,-111.84465,276
2025-01-22 16:11:52.560,-123.4,40.768425,-111.84465,276
2025-01-22 16:11:53.108,-122.2,40.76836,-111.844627,276
2025-01-22 16:11:53.647,-116.2,40.76836,-111.844627,276
2025-01-22 16:11:54.160,-115.6,40.768288,-111.844604,276
2025-01-22 16:11:54.600,-120.8,40.768288,-111.844604,276
2025-01-22 16:11:55.189,-117.9,40.768223,-111.844589,276
2025-01-22 16:11:55.727,-124.7,40.768158,-111.844566,276
2025-01-22 16:11:56.232,-127.4,40.768158,-111.844566,276
2025-01-22 16:12:19.528,-116.1,40.766949,-111.844276,276
2025-01-22 16:12:20.068,-111.8,40.766895,-111.844261,276
2025-01-22 16:12:20.573,-117.0,40.766895,-111.844261,276
2025-01-22 16:12:21.084,-117.6,40.766834,-111.844246,276
2025-01-22 16:12:21.618,-116.8,40.766834,-111.844246,276
2025-01-22 16:12:22.133,-115.0,40.766777,-111.844231,276
2025-01-22 16:12:22.648,-114.3,40.766777,-111.844231,276
2025-01-22 16:12:23.154,-117.8,40.766716,-111.844223,276
2025-01-22 16:12:23.664,-113.0,40.766659,-111.844208,276
2025-01-22 16:12:24.183,-110.2,40.766659,-111.844208,276
2025-01-22 16:12:24.693,-112.2,40.766602,-111.8442,276
2025-01-22 16:12:25.193,-115.9,40.766602,-111.8442,276
2025-01-22 16:12:25.728,-115.0,40.766544,-111.844193,276
2025-01-22 16:12:26.239,-115.6,40.766544,-111.844193,276
2025-01-22 16:12:26.754,-116.9,40.766483,-111.844193,276
2025-01-22 16:12:27.273,-118.8,40.766483,-111.844193,276
2025-01-22 16:12:27.783,-117.6,40.766426,-111.844193,276
2025-01-22 16:12:28.279,-117.3,40.766426,-111.844193,276
2025-01-22 16:12:28.808,-119.6,40.766369,-111.844193,276
2025-01-22 16:12:29.313,-122.6,40.766369,-111.844193,276
2025-01-22 16:12:29.824,-118.6,40.766312,-111.844193,276
2025-01-22 16:12:30.343,-119.8,40.766312,-111.844193,276
2025-01-22 16:12:30.863,-114.6,40.766254,-111.844193,276
2025-01-22 16:12:31.379,-117.3,40.766254,-111.844193,276
2025-01-22 16:12:31.902,-117.6,40.766197,-111.844193,276
2025-01-22 16:12:32.428,-121.4,40.766197,-111.844193,276
2025-01-22 16:12:32.949,-123.3,40.76614,-111.844193,276
2025-01-22 16:12:33.385,-125.1,40.76614,-111.844193,276
2025-01-22 16:14:38.968,-115.4,40.766819,-111.844193,276
2025-01-22 16:14:39.471,-115.5,40.766819,-111.844193,276
2025-01-22 16:14:39.959,-113.2,40.766872,-111.8442,276
2025-01-22 16:14:40.445,-113.4,40.766872,-111.8442,276
2025-01-22 16:14:41.018,-110.3,40.766922,-111.844215,276
2025-01-22 16:14:41.531,-111.0,40.766922,-111.844215,276
2025-01-22 16:14:42.030,-110.8,40.766968,-111.844231,276
2025-01-22 16:14:42.516,-113.8,40.766968,-111.844231,276
2025-01-22 16:14:42.996,-114.2,40.767014,-111.844238,276
2025-01-22 16:14:43.325,-113.0,40.767014,-111.844238,276
2025-01-22 16:14:43.959,-116.9,40.767056,-111.844246,276
2025-01-22 16:14:44.589,-116.9,40.767056,-111.844246,276
2025-01-22 16:14:45.006,-115.3,40.767094,-111.844261,276
2025-01-22 16:14:45.561,-116.4,40.767094,-111.844261,276
2025-01-22 16:14:46.291,-118.6,40.767132,-111.844269,276
2025-01-22 16:14:46.852,-117.0,40.76717,-111.844284,276
2025-01-22 16:14:47.321,-115.2,40.76717,-111.844284,276
2025-01-22 16:14:47.846,-118.9,40.767212,-111.844292,276
2025-01-22 16:14:48.336,-117.8,40.767212,-111.844292,276
2025-01-22 16:14:48.820,-113.5,40.767254,-111.844307,276
2025-01-22 16:14:49.912,-111.1,40.767296,-111.844322,276
2025-01-22 16:14:50.406,-118.2,40.767296,-111.844322,276
2025-01-22 16:14:50.939,-118.4,40.767342,-111.84433,276
2025-01-22 16:14:51.449,-123.6,40.767342,-111.84433,276
2025-01-22 16:14:51.972,-124.3,40.767387,-111.844345,276
2025-01-22 16:14:52.463,-124.9,40.767387,-111.844345,276
2025-01-22 16:15:05.048,-117.9,40.768059,-111.844498,276
2025-01-22 16:15:05.567,-113.9,40.768059,-111.844498,276
2025-01-22 16:15:05.948,-106.4,40.768108,-111.844513,276
2025-01-22 16:15:06.194,-106.4,40.768108,-111.844513,276
2025-01-22 16:15:06.833,-117.9,40.768162,-111.844521,276
2025-01-22 16:15:07.519,-117.4,40.768162,-111.844521,276
2025-01-22 16:15:07.989,-118.8,40.768211,-111.844536,276
2025-01-22 16:15:08.429,-113.9,40.768211,-111.844536,276
2025-01-22 16:15:09.189,-116.4,40.768269,-111.844551,276
2025-01-22 16:15:09.555,-117.7,40.768269,-111.844551,276
2025-01-22 16:15:10.304,-115.6,40.768322,-111.844574,276
2025-01-22 16:15:10.673,-118.0,40.768379,-111.844589,276
2025-01-22 16:15:11.320,-117.9,40.768379,-111.844589,276
2025-01-22 16:15:11.829,-114.6,40.76844,-111.844604,276
2025-01-22 16:15:12.338,-113.2,40.76844,-111.844604,276
2025-01-22 16:15:12.889,-114.5,40.768505,-111.844627,276
2025-01-22 16:15:13.398,-114.9,40.768505,-111.844627,276
2025-01-22 16:15:13.905,-114.7,40.76857,-111.844643,276
2025-01-22 16:15:14.404,-113.6,40.76857,-111.844643,276
2025-01-22 16:15:14.931,-113.8,40.768639,-111.844658,276
2025-01-22 16:15:15.464,-111.3,40.768639,-111.844658,276
2025-01-22 16:15:15.969,-114.3,40.7687,-111.844681,276
2025-01-22 16:15:16.479,-110.5,40.7687,-111.844681,276
2025-01-22 16:15:16.984,-111.6,40.768761,-111.844696,276
2025-01-22 16:15:17.499,-112.6,40.768761,-111.844696,276
2025-01-22 16:15:18.004,-109.8,40.768814,-111.844711,276
2025-01-22 16:15:18.509,-107.3,40.768814,-111.844711,276
2025-01-22 16:15:19.019,-110.6,40.76886,-111.844719,276
2025-01-22 16:15:19.525,-110.6,40.76886,-111.844719,276
2025-01-22 16:15:20.034,-112.3,40.768902,-111.844719,276
2025-01-22 16:15:20.568,-107.2,40.768902,-111.844719,276
2025-01-22 16:15:21.054,-109.0,40.76894,-111.844711,276
2025-01-22 16:15:21.559,-110.8,40.76894,-111.844711,276
2025-01-22 16:15:22.069,-111.5,40.768974,-111.844696,276
2025-01-22 16:15:22.570,-115.1,40.768974,-111.844696,276
2025-01-22 16:15:23.079,-110.2,40.769005,-111.844666,276
2025-01-22 16:15:23.609,-109.3,40.769005,-111.844666,276
2025-01-22 16:15:24.114,-106.3,40.769024,-111.844627,276
2025-01-22 16:15:24.624,-107.0,40.769024,-111.844627,276
2025-01-22 16:15:25.134,-106.9,40.769035,-111.844574,276
2025-01-22 16:15:25.639,-113.2,40.769035,-111.844574,276
2025-01-22 16:15:26.166,-112.3,40.769051,-111.844513,276
2025-01-22 16:15:26.679,-109.5,40.769066,-111.844444,276
2025-01-22 16:15:27.204,-113.3,40.769066,-111.844444,276
2025-01-22 16:15:27.728,-115.4,40.769089,-111.844383,276
2025-01-22 16:15:28.239,-115.6,40.769089,-111.844383,276
2025-01-22 16:15:28.770,-113.3,40.769108,-111.844322,276
2025-01-22 16:15:29.304,-110.2,40.769108,-111.844322,276
2025-01-22 16:15:29.815,-114.5,40.769131,-111.844261,276
2025-01-22 16:15:30.344,-113.0,40.769131,-111.844261,276
2025-01-22 16:15:30.854,-113.6,40.76915,-111.844215,276
2025-01-22 16:15:31.366,-108.9,40.76915,-111.844215,276
2025-01-22 16:15:31.849,-114.2,40.769169,-111.84417,276
2025-01-22 16:15:32.364,-113.9,40.769169,-111.84417,276
2025-01-22 16:15:32.868,-114.9,40.76918,-111.844131,276
2025-01-22 16:15:33.379,-111.7,40.76918,-111.844131,276
2025-01-22 16:15:33.891,-113.3,40.769176,-111.844101,276
2025-01-22 16:15:34.404,-116.8,40.769176,-111.844101,276
2025-01-22 16:15:34.922,-116.1,40.769169,-111.84407,276
2025-01-22 16:15:35.459,-116.0,40.769169,-111.84407,276
2025-01-22 16:15:35.977,-113.9,40.769154,-111.844048,276
2025-01-22 16:15:36.474,-115.3,40.769154,-111.844048,276
2025-01-22 16:15:36.989,-109.2,40.769135,-111.844025,276
2025-01-22 16:15:37.509,-112.1,40.769135,-111.844025,276
2025-01-22 16:15:38.014,-111.4,40.769112,-111.844009,276
2025-01-22 16:15:38.504,-114.1,40.769112,-111.844009,276
2025-01-22 16:15:39.026,-117.4,40.769089,-111.843987,276
2025-01-22 16:15:39.559,-114.3,40.769089,-111.843987,276
2025-01-22 16:15:40.069,-110.4,40.76907,-111.843979,276
2025-01-22 16:15:40.573,-112.8,40.76907,-111.843979,276
2025-01-22 16:15:41.061,-112.1,40.769054,-111.843971,276
2025-01-22 16:15:41.574,-113.8,40.769054,-111.843971,276
2025-01-22 16:15:42.054,-116.8,40.769039,-111.843979,276
2025-01-22 16:15:42.574,-110.4,40.769039,-111.843979,276
2025-01-22 16:15:43.108,-108.4,40.769024,-111.843994,276
2025-01-22 16:15:43.599,-110.8,40.769024,-111.843994,276
2025-01-22 16:15:44.114,-109.2,40.769009,-111.844017,276
2025-01-22 16:15:44.614,-107.7,40.769009,-111.844017,276
2025-01-22 16:15:45.135,-109.1,40.768997,-111.844048,276
2025-01-22 16:15:45.650,-113.9,40.768997,-111.844048,276
2025-01-22 16:15:46.189,-112.9,40.76899,-111.84407,276
2025-01-22 16:15:46.695,-110.6,40.768978,-111.844093,276
2025-01-22 16:15:47.205,-111.6,40.768978,-111.844093,276
2025-01-22 16:15:47.723,-111.2,40.768967,-111.844116,276
2025-01-22 16:15:48.259,-113.7,40.768967,-111.844116,276
2025-01-22 15:54:29.711,-108.3,40.770966,-111.843834,276
2025-01-22 15:54:30.233,-104.7,40.770966,-111.843834,276
2025-01-22 15:54:30.740,-102.8,40.770981,-111.843735,276
2025-01-22 15:54:31.266,-99.6,40.770981,-111.843735,276
2025-01-22 15:54:31.766,-100.7,40.771004,-111.843636,276
2025-01-22 15:54:32.301,-98.5,40.771004,-111.843636,276
2025-01-22 15:54:32.807,-100.2,40.77103,-111.843536,276
2025-01-22 15:54:54.031,-112.4,40.770332,-111.842529,276
2025-01-22 15:54:54.525,-112.4,40.770332,-111.842529,276
2025-01-22 15:54:55.058,-110.3,40.770283,-111.842484,276
2025-01-22 15:54:55.570,-110.3,40.770283,-111.842484,276
2025-01-22 15:54:56.116,-108.8,40.770229,-111.842445,276
2025-01-22 15:54:56.625,-109.4,40.770229,-111.842445,276
2025-01-22 15:54:57.140,-109.4,40.770176,-111.8424,276
2025-01-22 15:54:57.670,-107.7,40.770123,-111.842346,276
2025-01-22 15:54:58.736,-108.9,40.770065,-111.842293,276
2025-01-22 15:54:59.252,-109.3,40.770065,-111.842293,276
2025-01-22 15:54:59.777,-108.4,40.770012,-111.842239,276
2025-01-22 15:55:00.291,-107.9,40.770012,-111.842239,276
2025-01-22 15:55:00.740,-110.0,40.769955,-111.842186,276
2025-01-22 15:55:01.318,-109.1,40.769955,-111.842186,276
2025-01-22 15:55:01.838,-109.1,40.769901,-111.842125,276
2025-01-22 15:55:02.355,-112.5,40.769901,-111.842125,276
2025-01-22 15:55:02.870,-110.9,40.769844,-111.842072,276
2025-01-22 15:55:03.375,-110.9,40.769844,-111.842072,276
2025-01-22 15:55:04.409,-110.9,40.769791,-111.84201,276
2025-01-22 15:55:04.933,-110.9,40.769737,-111.841949,276
2025-01-22 15:55:06.542,-109.5,40.769688,-111.841888,276
2025-01-22 15:55:07.053,-109.5,40.769634,-111.841827,276
2025-01-22 15:55:07.555,-109.5,40.769634,-111.841827,276
2025-01-22 15:55:08.033,-109.5,40.769585,-111.841766,276
2025-01-22 15:55:08.558,-109.5,40.769585,-111.841766,276
2025-01-22 15:55:09.079,-109.5,40.769535,-111.841705,276
2025-01-22 15:55:09.593,-109.5,40.769535,-111.841705,276
2025-01-22 15:55:10.062,-108.9,40.769489,-111.841652,276
2025-01-22 15:55:11.130,-112.8,40.769444,-111.841591,276
2025-01-22 15:55:12.677,-112.1,40.769363,-111.841492,276
2025-01-22 15:55:13.720,-112.1,40.769318,-111.841438,276
2025-01-22 15:55:14.931,-112.1,40.769272,-111.841385,276
2025-01-22 15:55:15.220,-112.1,40.769272,-111.841385,276
2025-01-22 15:55:17.492,-109.4,40.76918,-111.841263,276
2025-01-22 15:55:18.761,-109.4,40.769085,-111.841148,276
2025-01-22 15:55:18.772,-109.6,40.769085,-111.841148,276
2025-01-22 15:55:19.557,-109.6,40.769085,-111.841148,276
2025-01-22 15:55:20.220,-110.8,40.769043,-111.841095,276
2025-01-22 15:55:21.321,-110.8,40.769005,-111.841049,276
2025-01-22 15:55:21.720,-109.6,40.768967,-111.841011,276
2025-01-22 15:55:22.720,-109.6,40.768932,-111.840981,276
2025-01-22 15:55:26.161,-110.7,40.768776,-111.840919,276
2025-01-22 15:56:09.798,-108.9,40.766846,-111.838249,276
2025-01-22 15:56:10.312,-109.1,40.766846,-111.838249,276
2025-01-22 15:56:10.840,-109.1,40.7668,-111.838196,276
2025-01-22 15:56:11.354,-109.0,40.7668,-111.838196,276
2025-01-22 15:56:11.887,-107.8,40.76675,-111.838142,276
2025-01-22 15:56:12.391,-110.3,40.76675,-111.838142,276
2025-01-22 15:56:12.897,-109.7,40.766701,-111.838089,276
2025-01-22 15:56:13.412,-109.7,40.766701,-111.838089,276
2025-01-22 15:56:13.909,-109.4,40.766651,-111.838028,276
2025-01-22 15:56:14.440,-108.1,40.766651,-111.838028,276
2025-01-22 15:56:14.932,-108.4,40.766594,-111.837967,276
2025-01-22 15:56:15.441,-111.3,40.766594,-111.837967,276
2025-01-22 15:56:15.946,-108.5,40.766541,-111.837906,276
2025-01-22 15:56:16.472,-107.6,40.766541,-111.837906,276
2025-01-22 15:56:16.988,-107.6,40.766487,-111.837837,276
2025-01-22 15:56:17.502,-110.7,40.766487,-111.837837,276
2025-01-22 15:56:18.012,-108.8,40.766434,-111.837776,276
2025-01-22 15:56:18.546,-108.8,40.766434,-111.837776,276
2025-01-22 15:56:19.057,-108.9,40.76638,-111.837715,276
2025-01-22 15:56:19.582,-108.8,40.76638,-111.837715,276
2025-01-22 15:56:20.094,-109.3,40.766323,-111.837654,276
2025-01-22 15:56:20.602,-109.3,40.766323,-111.837654,276
2025-01-22 15:56:21.112,-110.7,40.766262,-111.837608,276
2025-01-22 15:56:21.620,-110.6,40.766262,-111.837608,276
2025-01-22 15:56:22.143,-109.8,40.766205,-111.837563,276
2025-01-22 15:56:22.649,-109.8,40.766205,-111.837563,276
2025-01-22 15:56:23.152,-109.8,40.766144,-111.837524,276
2025-01-22 15:56:23.687,-109.8,40.766083,-111.837486,276
2025-01-22 15:56:24.192,-109.8,40.766083,-111.837486,276
2025-01-22 15:56:24.697,-108.7,40.766029,-111.837448,276
2025-01-22 15:56:25.202,-107.6,40.766029,-111.837448,276
2025-01-22 15:56:25.733,-107.1,40.76598,-111.83741,276
2025-01-22 15:56:26.242,-109.7,40.76598,-111.83741,276
2025-01-22 15:56:26.768,-109.0,40.765942,-111.837364,276
2025-01-22 15:56:27.271,-109.0,40.765942,-111.837364,276
2025-01-22 15:56:27.796,-109.0,40.765915,-111.837334,276
2025-01-22 15:56:28.300,-109.0,40.765915,-111.837334,276
2025-01-22 15:56:28.827,-109.0,40.765896,-111.837311,276
2025-01-22 15:56:29.327,-109.0,40.765896,-111.837311,276
2025-01-22 15:56:29.831,-109.0,40.765888,-111.837296,276
2025-01-22 15:56:30.337,-109.0,40.765888,-111.837296,276
2025-01-22 15:56:31.872,-109.1,40.765881,-111.837288,276
2025-01-22 15:56:32.404,-111.9,40.765881,-111.837288,276
2025-01-22 15:56:32.907,-110.6,40.765881,-111.837288,276
2025-01-22 15:56:33.414,-111.1,40.765881,-111.837288,276
2025-01-22 15:56:33.922,-111.1,40.765881,-111.837288,276
2025-01-22 15:56:34.452,-111.1,40.765881,-111.837288,276
2025-01-22 15:56:34.952,-111.1,40.765881,-111.837288,276
2025-01-22 15:56:35.462,-111.1,40.765881,-111.837288,276
2025-01-22 15:56:35.977,-111.1,40.765881,-111.837288,276
2025-01-22 15:56:36.480,-113.9,40.765881,-111.837288,276
2025-01-22 15:56:36.980,-113.1,40.765881,-111.837288,276
2025-01-22 15:56:37.507,-112.4,40.765881,-111.837288,276
2025-01-22 15:56:38.017,-111.9,40.765881,-111.837288,276
2025-01-22 15:56:38.522,-112.3,40.765881,-111.837288,276
2025-01-22 15:56:39.032,-112.9,40.765881,-111.837288,276
2025-01-22 15:56:39.560,-112.4,40.765881,-111.837288,276
2025-01-22 15:56:40.068,-111.1,40.765881,-111.837288,276
2025-01-22 15:56:40.582,-111.3,40.765881,-111.837288,276
2025-01-22 15:56:43.672,-111.9,40.765881,-111.837288,276
2025-01-22 15:56:44.182,-111.9,40.765881,-111.837288,276
2025-01-22 15:56:44.687,-112.6,40.765881,-111.837288,276
2025-01-22 15:56:45.197,-112.3,40.765881,-111.837288,276
2025-01-22 15:56:45.712,-111.8,40.765881,-111.837288,276
2025-01-22 15:56:46.219,-111.8,40.765881,-111.837288,276
2025-01-22 15:56:46.737,-112.7,40.765881,-111.837288,276
2025-01-22 15:56:47.242,-113.2,40.765881,-111.837288,276
2025-01-22 15:56:47.774,-112.4,40.765881,-111.837288,276
2025-01-22 15:56:48.287,-112.8,40.765881,-111.837288,276
2025-01-22 15:56:48.797,-111.4,40.765881,-111.837288,276
2025-01-22 15:56:49.307,-111.1,40.765881,-111.837288,276
2025-01-22 15:56:49.828,-112.8,40.765881,-111.837288,276
2025-01-22 15:56:50.361,-112.6,40.765881,-111.837288,276
2025-01-22 15:56:50.871,-113.0,40.765881,-111.837288,276
2025-01-22 15:56:51.377,-113.0,40.765881,-111.837288,276
2025-01-22 15:56:51.884,-111.6,40.765881,-111.837288,276
2025-01-22 15:56:52.386,-112.2,40.765881,-111.837288,276
2025-01-22 15:56:52.905,-110.3,40.765881,-111.837288,276
2025-01-22 15:56:53.408,-110.5,40.765881,-111.837288,276
2025-01-22 15:56:53.916,-111.4,40.765881,-111.837288,276
2025-01-22 15:56:54.427,-112.4,40.765881,-111.837288,276
2025-01-22 15:56:54.943,-111.9,40.765877,-111.837288,276
2025-01-22 15:56:55.460,-112.4,40.765877,-111.837288,276
2025-01-22 15:56:55.961,-112.4,40.765877,-111.837288,276
2025-01-22 15:56:56.468,-112.4,40.765877,-111.837288,276
2025-01-22 15:56:56.972,-112.4,40.765877,-111.837288,276
2025-01-22 15:56:57.478,-112.4,40.765877,-111.837288,276
2025-01-22 15:57:02.581,-111.8,40.765877,-111.837288,276
2025-01-22 15:57:03.117,-111.8,40.765873,-111.837288,276
2025-01-22 15:57:03.622,-111.8,40.765873,-111.837288,276
2025-01-22 15:57:04.129,-112.6,40.765873,-111.837288,276
2025-01-22 15:57:04.627,-111.5,40.765873,-111.837288,276
2025-01-22 15:57:05.156,-111.8,40.765873,-111.837288,276
2025-01-22 15:57:05.686,-111.8,40.765869,-111.83728,276
2025-01-22 15:57:06.196,-111.8,40.765869,-111.83728,276
2025-01-22 15:57:06.706,-111.8,40.765858,-111.837257,276
2025-01-22 15:57:07.231,-113.1,40.765858,-111.837257,276
2025-01-22 15:57:07.738,-113.4,40.765842,-111.837227,276
2025-01-22 15:57:08.243,-112.1,40.765842,-111.837227,276
2025-01-22 15:57:08.773,-112.4,40.765823,-111.837189,276
2025-01-22 15:57:09.300,-112.4,40.765823,-111.837189,276
2025-01-22 15:57:09.775,-112.4,40.765804,-111.837151,276
2025-01-22 15:57:10.278,-112.4,40.765804,-111.837151,276
2025-01-22 15:57:10.781,-113.8,40.765781,-111.837105,276
2025-01-22 15:57:11.311,-111.6,40.765781,-111.837105,276
2025-01-22 15:57:11.816,-111.8,40.765762,-111.837059,276
2025-01-22 15:57:12.349,-111.8,40.765762,-111.837059,276
2025-01-22 15:57:12.853,-111.8,40.765736,-111.837013,276
2025-01-22 15:57:13.356,-111.8,40.765736,-111.837013,276
2025-01-22 15:57:13.870,-111.8,40.765701,-111.836967,276
2025-01-22 15:57:14.376,-111.8,40.765701,-111.836967,276
2025-01-22 15:57:14.905,-111.8,40.765656,-111.836937,276
2025-01-22 15:57:15.417,-111.8,40.765656,-111.836937,276
2025-01-22 16:00:27.993,-112.6,40.765663,-111.836769,276
2025-01-22 16:00:28.506,-115.5,40.765663,-111.836769,276
2025-01-22 16:00:29.013,-111.5,40.765751,-111.836769,276
2025-01-22 16:00:29.515,-111.6,40.765751,-111.836769,276
2025-01-22 16:00:30.020,-111.6,40.765839,-111.836761,276
2025-01-22 16:00:30.548,-111.6,40.765839,-111.836761,276
2025-01-22 16:00:31.055,-111.6,40.765919,-111.836746,276
2025-01-22 16:00:31.589,-111.6,40.765919,-111.836746,276
2025-01-22 16:00:32.093,-111.6,40.766003,-111.836731,276
2025-01-22 16:00:32.623,-109.6,40.766003,-111.836731,276
2025-01-22 16:00:33.148,-109.1,40.766083,-111.836708,276
2025-01-22 16:00:33.653,-109.0,40.766083,-111.836708,276
2025-01-22 16:00:34.150,-110.3,40.766159,-111.836685,276
2025-01-22 16:00:34.686,-107.3,40.766232,-111.836655,276
2025-01-22 16:00:35.158,-104.2,40.766232,-111.836655,276
2025-01-22 16:00:35.658,-106.7,40.766232,-111.836655,276
2025-01-22 16:00:36.188,-105.9,40.766304,-111.836624,276
2025-01-22 16:00:36.695,-107.4,40.766376,-111.836601,276
2025-01-22 16:00:37.208,-105.8,40.766376,-111.836601,276
2025-01-22 16:00:37.723,-103.8,40.766445,-111.836571,276
2025-01-22 16:00:38.226,-110.8,40.766445,-111.836571,276
2025-01-22 16:00:38.739,-109.9,40.766518,-111.83654,276
2025-01-22 16:00:39.246,-111.4,40.766518,-111.83654,276
2025-01-22 16:00:39.755,-111.3,40.766586,-111.83651,276
2025-01-22 16:00:40.263,-110.6,40.766586,-111.83651,276
2025-01-22 16:00:40.783,-110.1,40.766659,-111.836479,276
2025-01-22 16:00:41.293,-110.1,40.766659,-111.836479,276
2025-01-22 16:00:41.797,-108.7,40.766727,-111.836449,276
2025-01-22 16:00:42.328,-110.3,40.766727,-111.836449,276
2025-01-22 16:00:42.853,-110.3,40.766804,-111.836418,276
2025-01-22 16:00:43.353,-110.3,40.766804,-111.836418,276
2025-01-22 16:00:43.855,-110.3,40.766876,-111.836388,276
2025-01-22 16:00:44.366,-110.3,40.766876,-111.836388,276
2025-01-22 16:00:44.878,-110.3,40.766949,-111.836357,276
2025-01-22 16:00:45.384,-110.3,40.766949,-111.836357,276
2025-01-22 16:00:45.888,-110.3,40.767025,-111.836327,276
2025-01-22 16:01:21.355,-105.9,40.769127,-111.837822,276
2025-01-22 16:01:21.886,-105.6,40.769173,-111.837898,276
2025-01-22 16:01:22.394,-105.6,40.769173,-111.837898,276
2025-01-22 16:01:22.929,-105.6,40.769218,-111.837967,276
2025-01-22 16:01:23.465,-105.6,40.769218,-111.837967,276
2025-01-22 16:01:23.991,-105.6,40.769268,-111.838043,276
2025-01-22 16:01:24.496,-105.6,40.769268,-111.838043,276
2025-01-22 16:01:24.996,-105.6,40.769321,-111.83812,276
2025-01-22 16:01:25.501,-105.6,40.769321,-111.83812,276
2025-01-22 16:01:49.053,-108.3,40.771019,-111.839943,276
2025-01-22 16:01:49.579,-108.3,40.771019,-111.839943,276
2025-01-22 16:01:50.089,-109.4,40.771091,-111.840012,276
2025-01-22 16:01:50.618,-109.4,40.771091,-111.840012,276
2025-01-22 16:01:51.130,-108.1,40.771168,-111.84008,276
2025-01-22 16:01:51.633,-107.8,40.771168,-111.84008,276
2025-01-22 16:01:52.146,-109.1,40.771248,-111.840149,276
2025-01-22 16:01:52.654,-107.4,40.771248,-111.840149,276
2025-01-22 16:01:53.079,-105.9,40.771328,-111.84021,276
2025-01-22 16:01:53.679,-105.9,40.771412,-111.840271,276
2025-01-22 16:01:54.156,-104.0,40.771412,-111.840271,276
2025-01-22 16:01:54.621,-104.3,40.771412,-111.840271,276
2025-01-22 16:01:55.225,-104.7,40.771496,-111.840332,276
2025-01-22 16:01:55.733,-103.1,40.771584,-111.840385,276
2025-01-22 16:01:56.234,-102.4,40.771584,-111.840385,276
2025-01-22 16:01:56.757,-101.9,40.771667,-111.840424,276
2025-01-22 16:01:57.250,-99.7,40.771667,-111.840424,276
2025-01-22 16:01:57.764,-99.1,40.771759,-111.840454,276
2025-01-22 16:01:58.294,-101.3,40.771759,-111.840454,276
2025-01-22 16:01:58.816,-101.6,40.771843,-111.840485,276
2025-01-22 16:01:59.344,-102.1,40.771843,-111.840485,276
2025-01-22 16:02:00.900,-107.9,40.772018,-111.840523,276
2025-01-22 16:02:01.951,-107.9,40.77211,-111.840538,276
2025-01-22 16:02:41.981,-104.1,40.772751,-111.838341,276
2025-01-22 16:02:42.534,-101.8,40.772751,-111.838341,276
2025-01-22 16:02:43.064,-103.4,40.772755,-111.83831,276
2025-01-22 16:02:43.581,-103.6,40.772755,-111.83831,276
2025-01-22 16:02:44.104,-103.6,40.772755,-111.838264,276
2025-01-22 16:02:44.629,-103.1,40.772755,-111.838264,276
2025-01-22 16:02:45.123,-103.3,40.772751,-111.838211,276
2025-01-22 16:02:45.639,-104.3,40.772751,-111.838211,276
2025-01-22 16:02:46.151,-103.3,40.772755,-111.83815,276
2025-01-22 16:02:46.659,-100.0,40.772755,-111.83815,276
2025-01-22 16:02:47.173,-99.6,40.77277,-111.838097,276
2025-01-22 16:02:47.679,-101.8,40.772797,-111.838043,276
2025-01-22 16:02:48.192,-101.9,40.772797,-111.838043,276
2025-01-22 16:02:48.712,-103.8,40.772831,-111.837997,276
2025-01-22 16:02:49.202,-102.1,40.772831,-111.837997,276
2025-01-22 16:02:49.719,-102.3,40.772865,-111.837952,276
2025-01-22 16:02:50.222,-102.4,40.772865,-111.837952,276
2025-01-22 16:02:50.732,-103.1,40.772896,-111.837898,276
2025-01-22 16:02:51.249,-102.3,40.772896,-111.837898,276
2025-01-22 16:02:51.759,-101.1,40.772923,-111.837837,276
2025-01-22 16:02:52.278,-102.1,40.772923,-111.837837,276
2025-01-22 16:02:52.792,-100.4,40.772949,-111.837784,276
2025-01-22 16:02:53.292,-100.1,40.772949,-111.837784,276
2025-01-22 16:02:53.814,-100.0,40.772968,-111.83773,276
2025-01-22 16:02:54.304,-100.3,40.772968,-111.83773,276
2025-01-22 16:02:54.820,-101.3,40.772984,-111.837685,276
2025-01-22 16:02:55.337,-102.3,40.772984,-111.837685,276
2025-01-22 16:02:55.854,-102.3,40.772995,-111.837646,276
2025-01-22 16:02:56.363,-100.9,40.772995,-111.837646,276
2025-01-22 16:02:56.883,-100.9,40.773006,-111.837608,276
2025-01-22 16:02:57.402,-99.9,40.773006,-111.837608,276
2025-01-22 16:02:57.924,-99.6,40.773014,-111.83757,276
2025-01-22 16:02:58.442,-98.7,40.773014,-111.83757,276
2025-01-22 16:02:58.969,-100.3,40.773014,-111.837517,276
2025-01-22 16:02:59.481,-98.6,40.773014,-111.837517,276
2025-01-22 16:02:59.999,-98.9,40.773014,-111.837471,276
2025-01-22 16:03:00.509,-99.6,40.773014,-111.837471,276
2025-01-22 16:03:01.017,-101.8,40.773026,-111.83741,276
2025-01-22 16:03:01.511,-102.3,40.773026,-111.83741,276
2025-01-22 16:03:02.056,-102.4,40.773045,-111.837349,276
2025-01-22 16:03:02.562,-102.8,40.773045,-111.837349,276
2025-01-22 16:03:03.084,-102.1,40.773064,-111.837296,276
2025-01-22 16:03:03.591,-101.8,40.773064,-111.837296,276
2025-01-22 16:03:04.129,-102.9,40.773079,-111.837234,276
2025-01-22 16:03:04.642,-101.2,40.773079,-111.837234,276
2025-01-22 16:03:05.149,-99.9,40.773083,-111.837181,276
2025-01-22 16:03:05.659,-98.3,40.773083,-111.837181,276
2025-01-22 16:03:06.174,-99.4,40.773075,-111.837128,276
2025-01-22 16:03:06.679,-100.3,40.773064,-111.837067,276
2025-01-22 16:03:07.193,-101.6,40.773064,-111.837067,276
2025-01-22 16:03:07.713,-99.9,40.773045,-111.837006,276
2025-01-22 16:03:08.244,-101.9,40.773045,-111.837006,276
2025-01-22 16:03:08.774,-102.4,40.773026,-111.836945,276
2025-01-22 16:03:09.302,-103.9,40.773026,-111.836945,276
2025-01-22 16:03:09.814,-104.1,40.773003,-111.836876,276
2025-01-22 16:03:10.329,-106.9,40.773003,-111.836876,276
2025-01-22 16:03:10.843,-108.8,40.772984,-111.8368,276
2025-01-22 16:03:11.364,-109.4,40.772984,-111.8368,276
2025-01-22 16:03:11.879,-108.2,40.772968,-111.836731,276
2025-01-22 16:03:12.392,-108.1,40.772968,-111.836731,276
2025-01-22 16:03:12.894,-107.0,40.772953,-111.836662,276
2025-01-22 16:03:13.422,-109.4,40.772953,-111.836662,276
2025-01-22 16:03:13.934,-106.8,40.772945,-111.836586,276
2025-01-22 16:03:14.446,-106.6,40.772945,-111.836586,276
2025-01-22 16:03:14.966,-106.2,40.772945,-111.836517,276
2025-01-22 16:03:15.477,-106.2,40.772945,-111.836517,276
2025-01-22 16:03:15.982,-106.4,40.772949,-111.836441,276
2025-01-22 16:03:16.490,-105.1,40.772949,-111.836441,276
2025-01-22 16:03:17.002,-105.5,40.772957,-111.83638,276
2025-01-22 16:03:17.535,-106.2,40.772957,-111.83638,276
2025-01-22 16:03:18.049,-106.2,40.772964,-111.836311,276
2025-01-22 16:03:18.564,-107.5,40.772964,-111.836311,276
2025-01-22 16:03:19.099,-105.6,40.772968,-111.83625,276
2025-01-22 16:03:19.602,-105.6,40.772968,-111.83625,276
2025-01-22 16:03:20.109,-106.9,40.772964,-111.836189,276
2025-01-22 16:03:20.622,-105.9,40.772964,-111.836189,276
2025-01-22 16:03:21.146,-106.9,40.772953,-111.836128,276
2025-01-22 16:03:21.679,-106.2,40.77293,-111.836075,276
2025-01-22 16:03:22.194,-106.8,40.77293,-111.836075,276
2025-01-22 16:03:22.722,-106.8,40.772896,-111.836029,276
2025-01-22 16:03:23.234,-105.3,40.772896,-111.836029,276
2025-01-22 16:03:23.749,-109.8,40.772858,-111.835983,276
2025-01-22 16:03:24.264,-109.3,40.772858,-111.835983,276
2025-01-22 16:03:24.782,-111.7,40.772816,-111.835938,276
2025-01-22 16:03:25.294,-111.8,40.772816,-111.835938,276
2025-01-22 16:03:25.804,-110.1,40.772774,-111.835899,276
2025-01-22 16:03:26.324,-110.9,40.772774,-111.835899,276
2025-01-22 16:03:26.822,-111.4,40.772736,-111.835861,276
2025-01-22 16:03:27.342,-111.9,40.772736,-111.835861,276
2025-01-22 16:03:27.742,-110.9,40.772701,-111.835823,276
2025-01-22 16:03:28.377,-110.6,40.772701,-111.835823,276
2025-01-22 16:03:28.901,-110.6,40.772659,-111.835785,276
2025-01-22 16:03:29.424,-109.4,40.772659,-111.835785,276
2025-01-22 16:03:29.935,-109.4,40.772621,-111.835739,276
2025-01-22 16:03:30.447,-109.8,40.772621,-111.835739,276
2025-01-22 16:03:30.966,-109.8,40.772579,-111.835701,276
2025-01-22 16:03:31.487,-109.7,40.772579,-111.835701,276
2025-01-22 16:03:31.985,-109.4,40.772537,-111.835655,276
2025-01-22 16:03:32.486,-108.8,40.772537,-111.835655,276
2025-01-22 16:03:33.007,-110.3,40.772495,-111.835609,276
2025-01-22 16:03:33.546,-107.6,40.772495,-111.835609,276
2025-01-22 16:03:34.056,-108.0,40.772457,-111.835571,276
2025-01-22 16:03:34.575,-108.4,40.772457,-111.835571,276
2025-01-22 16:03:35.088,-107.0,40.772423,-111.835533,276
2025-01-22 16:03:35.600,-107.9,40.772423,-111.835533,276
2025-01-22 16:03:36.110,-109.4,40.772388,-111.835495,276
2025-01-22 16:03:36.622,-109.1,40.772388,-111.835495,276
2025-01-22 16:03:37.125,-109.1,40.77235,-111.835464,276
2025-01-22 16:03:37.648,-108.4,40.77235,-111.835464,276
2025-01-22 16:03:38.152,-108.3,40.772305,-111.835449,276
2025-01-22 16:03:38.660,-108.1,40.772259,-111.835434,276
2025-01-22 16:03:39.170,-110.8,40.772259,-111.835434,276
2025-01-22 16:03:39.685,-111.4,40.772217,-111.835419,276
2025-01-22 16:03:40.184,-111.8,40.772217,-111.835419,276
2025-01-22 16:03:40.685,-109.1,40.772171,-111.835411,276
2025-01-22 16:03:41.191,-109.1,40.772171,-111.835411,276
2025-01-22 16:03:41.720,-110.8,40.772129,-111.835388,276
2025-01-22 16:03:42.221,-110.8,40.772129,-111.835388,276
2025-01-22 16:03:42.755,-110.8,40.772087,-111.835358,276
2025-01-22 16:03:43.272,-111.3,40.772087,-111.835358,276
2025-01-22 16:03:43.775,-109.7,40.772049,-111.835327,276
2025-01-22 16:03:44.285,-110.1,40.772049,-111.835327,276
2025-01-22 16:03:44.792,-111.1,40.772011,-111.835289,276
2025-01-22 16:03:45.315,-110.8,40.772011,-111.835289,276
2025-01-22 16:03:45.816,-112.5,40.77198,-111.835243,276
2025-01-22 16:03:46.345,-110.6,40.77198,-111.835243,276
2025-01-22 16:03:46.848,-110.4,40.77195,-111.835197,276
2025-01-22 16:03:47.372,-110.9,40.77195,-111.835197,276
2025-01-22 16:03:47.872,-111.2,40.771927,-111.835144,276
2025-01-22 16:03:48.373,-111.4,40.771927,-111.835144,276
2025-01-22 16:03:48.908,-110.4,40.771904,-111.835091,276
2025-01-22 16:03:49.409,-111.0,40.771904,-111.835091,276
2025-01-22 16:03:49.935,-111.0,40.771889,-111.83503,276
2025-01-22 16:03:50.432,-108.4,40.771889,-111.83503,276
2025-01-22 16:03:50.955,-108.4,40.771873,-111.834969,276
2025-01-22 16:03:51.465,-108.4,40.771873,-111.834969,276
2025-01-22 16:03:51.975,-112.6,40.771866,-111.834908,276
2025-01-22 16:03:52.485,-111.4,40.771866,-111.834908,276
2025-01-22 16:03:52.993,-111.4,40.771858,-111.834839,276
2025-01-22 16:03:53.505,-109.3,40.771858,-111.834839,276
2025-01-22 16:03:54.012,-109.3,40.771854,-111.834778,276
2025-01-22 16:03:54.540,-109.3,40.771854,-111.834778,276
2025-01-22 16:03:55.045,-109.3,40.771851,-111.834709,276
2025-01-22 16:03:55.550,-109.3,40.771851,-111.834709,276
2025-01-22 16:03:56.055,-109.3,40.771847,-111.834656,276
2025-01-22 16:03:56.560,-109.3,40.771847,-111.834656,276
2025-01-22 16:03:57.072,-109.3,40.771839,-111.834595,276
2025-01-22 16:03:57.600,-109.3,40.771839,-111.834595,276
2025-01-22 16:04:01.175,-112.9,40.77174,-111.834412,276
2025-01-22 16:04:01.681,-107.8,40.771702,-111.834366,276
2025-01-22 16:04:02.204,-106.3,40.771702,-111.834366,276
2025-01-22 16:04:02.709,-107.1,40.77166,-111.83432,276
2025-01-22 16:04:03.211,-106.7,40.77166,-111.83432,276
2025-01-22 16:04:03.713,-109.6,40.771614,-111.834259,276
2025-01-22 16:04:04.221,-110.9,40.771614,-111.834259,276
2025-01-22 16:04:04.724,-110.9,40.771568,-111.834206,276
2025-01-22 16:04:05.251,-110.7,40.771568,-111.834206,276
2025-01-22 16:04:05.756,-105.5,40.771523,-111.834145,276
2025-01-22 16:04:06.262,-102.9,40.771523,-111.834145,276
2025-01-22 16:04:06.773,-105.3,40.771484,-111.834091,276
2025-01-22 16:04:07.279,-107.3,40.771484,-111.834091,276
2025-01-22 16:04:07.785,-104.7,40.771442,-111.83403,276
2025-01-22 16:04:08.296,-103.9,40.771442,-111.83403,276
2025-01-22 16:04:08.800,-105.3,40.771408,-111.833977,276
2025-01-22 16:04:09.331,-105.1,40.771408,-111.833977,276
2025-01-22 16:04:09.840,-103.8,40.771374,-111.833923,276
2025-01-22 16:04:10.373,-105.6,40.771374,-111.833923,276
2025-01-22 16:04:10.874,-106.1,40.771339,-111.83387,276
2025-01-22 16:04:11.381,-107.6,40.771339,-111.83387,276
2025-01-22 16:04:11.909,-107.2,40.771305,-111.833817,276
2025-01-22 16:04:12.436,-107.1,40.771305,-111.833817,276
2025-01-22 16:04:12.961,-106.1,40.771275,-111.833771,276
2025-01-22 16:04:13.461,-106.4,40.771275,-111.833771,276
2025-01-22 16:04:13.986,-109.9,40.77124,-111.833717,276
2025-01-22 16:04:14.491,-109.6,40.77124,-111.833717,276
2025-01-22 16:04:15.021,-109.6,40.77121,-111.833679,276
2025-01-22 16:04:15.522,-111.4,40.77121,-111.833679,276
2025-01-22 16:04:16.034,-111.2,40.771179,-111.833633,276
2025-01-22 16:04:16.527,-111.9,40.771179,-111.833633,276
2025-01-22 16:04:17.031,-111.9,40.771152,-111.833595,276
2025-01-22 16:04:17.548,-111.9,40.771152,-111.833595,276
2025-01-22 16:04:18.050,-111.9,40.771122,-111.833557,276
2025-01-22 16:04:18.583,-111.9,40.771122,-111.833557,276
2025-01-22 16:04:19.096,-111.9,40.771095,-111.833519,276
2025-01-22 16:04:19.601,-111.9,40.771095,-111.833519,276
2025-01-22 16:04:20.112,-111.9,40.771065,-111.833488,276
2025-01-22 16:04:41.653,-116.4,40.770332,-111.832649,276
2025-01-22 16:04:42.161,-116.4,40.770332,-111.832649,276
2025-01-22 16:04:42.689,-116.4,40.770309,-111.832619,276
2025-01-22 16:04:43.203,-116.4,40.770309,-111.832619,276
2025-01-22 16:04:43.718,-116.4,40.770287,-111.832581,276
2025-01-22 16:04:44.223,-116.4,40.770287,-111.832581,276
2025-01-22 16:04:44.733,-116.4,40.77026,-111.832542,276
2025-01-22 16:04:45.275,-116.4,40.77026,-111.832542,276
2025-01-22 16:04:45.792,-116.4,40.770226,-111.832497,276
2025-01-22 16:05:31.606,-108.6,40.768665,-111.832108,276
2025-01-22 16:05:32.109,-109.3,40.768658,-111.832115,276
2025-01-22 16:05:32.620,-108.6,40.768658,-111.832115,276
2025-01-22 16:05:33.126,-109.2,40.768654,-111.832123,276
2025-01-22 16:05:33.638,-108.5,40.768654,-111.832123,276
2025-01-22 16:05:34.144,-108.8,40.76865,-111.83213,276
2025-01-22 16:05:34.646,-109.6,40.76865,-111.83213,276
2025-01-22 16:05:35.152,-108.8,40.768642,-111.83213,276
2025-01-22 16:05:35.661,-108.8,40.768639,-111.832138,276
2025-01-22 16:05:36.174,-109.6,40.768639,-111.832138,276
2025-01-22 16:05:36.662,-109.6,40.768635,-111.832138,276
2025-01-22 16:05:37.175,-109.6,40.768635,-111.832138,276
2025-01-22 16:05:37.686,-109.6,40.768627,-111.832146,276
2025-01-22 16:05:38.196,-109.6,40.768627,-111.832146,276
2025-01-22 16:05:47.945,-108.6,40.768375,-111.832458,276
2025-01-22 16:05:48.451,-107.4,40.768375,-111.832458,276
2025-01-22 16:05:48.986,-107.4,40.768341,-111.832504,276
2025-01-22 16:05:49.496,-107.4,40.768341,-111.832504,276
2025-01-22 16:05:50.027,-107.4,40.768307,-111.832558,276
2025-01-22 16:05:50.535,-107.4,40.768307,-111.832558,276
2025-01-22 16:05:51.040,-107.4,40.768272,-111.832611,276
2025-01-22 16:05:51.571,-107.4,40.768272,-111.832611,276
2025-01-22 16:05:52.072,-107.4,40.768234,-111.832664,276
2025-01-22 16:06:04.961,-108.1,40.767731,-111.833481,276
2025-01-22 16:06:05.480,-107.7,40.767731,-111.833481,276
2025-01-22 16:06:05.991,-105.9,40.7677,-111.833557,276
2025-01-22 16:06:06.500,-105.1,40.7677,-111.833557,276
2025-01-22 16:06:06.987,-104.8,40.767673,-111.833626,276
2025-01-22 16:06:07.506,-104.4,40.767673,-111.833626,276
2025-01-22 16:06:08.031,-103.9,40.767662,-111.833702,276
2025-01-22 16:06:08.549,-104.3,40.767662,-111.833702,276
2025-01-22 16:06:09.062,-106.1,40.767654,-111.833778,276
2025-01-22 16:06:09.566,-106.4,40.767654,-111.833778,276
2025-01-22 16:06:10.099,-107.6,40.767658,-111.833847,276
2025-01-22 16:06:10.600,-106.4,40.767658,-111.833847,276
2025-01-22 16:06:11.100,-104.9,40.767666,-111.833916,276
2025-01-22 16:06:11.601,-104.1,40.767666,-111.833916,276
2025-01-22 16:06:12.111,-104.2,40.767677,-111.833969,276
2025-01-22 16:06:12.646,-103.4,40.767677,-111.833969,276
2025-01-22 16:06:13.146,-102.7,40.767693,-111.834007,276
2025-01-22 16:06:13.656,-106.4,40.767704,-111.834038,276
2025-01-22 16:06:14.161,-106.9,40.767704,-111.834038,276
2025-01-22 16:06:14.666,-105.7,40.767715,-111.834068,276
2025-01-22 16:06:15.196,-105.9,40.767715,-111.834068,276
2025-01-22 16:06:15.701,-105.9,40.767731,-111.834091,276
2025-01-22 16:06:16.229,-107.3,40.767731,-111.834091,276
2025-01-22 16:06:16.752,-103.4,40.767746,-111.834114,276
2025-01-22 16:06:17.256,-106.5,40.767746,-111.834114,276
2025-01-22 16:06:17.756,-104.6,40.767765,-111.834137,276
2025-01-22 16:06:18.259,-105.4,40.767765,-111.834137,276
2025-01-22 16:06:18.793,-105.4,40.76778,-111.834152,276
2025-01-22 16:06:19.301,-105.4,40.76778,-111.834152,276
2025-01-22 16:06:19.836,-105.4,40.767799,-111.834175,276
2025-01-22 16:06:20.341,-105.4,40.767799,-111.834175,276
2025-01-22 16:06:20.851,-106.4,40.767815,-111.83419,276
2025-01-22 16:06:21.356,-106.4,40.767815,-111.83419,276
2025-01-22 16:06:21.866,-106.4,40.767834,-111.834213,276
2025-01-22 16:06:22.401,-105.4,40.767834,-111.834213,276
2025-01-22 16:06:22.906,-104.8,40.767857,-111.834244,276
2025-01-22 16:06:23.414,-104.5,40.767857,-111.834244,276
2025-01-22 16:06:23.915,-105.6,40.767879,-111.834267,276
2025-01-22 16:06:24.421,-106.3,40.767879,-111.834267,276
2025-01-22 16:06:24.926,-105.6,40.767902,-111.83429,276
2025-01-22 16:06:25.436,-105.6,40.767902,-111.83429,276
2025-01-22 16:06:25.956,-105.6,40.767925,-111.834312,276
2025-01-22 16:06:26.491,-105.6,40.767925,-111.834312,276
2025-01-22 16:06:27.021,-105.6,40.767948,-111.834335,276
2025-01-22 16:06:27.535,-103.0,40.767948,-111.834335,276
2025-01-22 16:06:28.040,-104.2,40.767967,-111.834358,276
2025-01-22 16:06:28.546,-103.6,40.767967,-111.834358,276
2025-01-22 16:06:29.086,-102.8,40.767986,-111.834381,276
2025-01-22 16:06:29.591,-102.8,40.767986,-111.834381,276
2025-01-22 16:06:30.094,-104.5,40.768009,-111.834412,276
2025-01-22 16:06:30.601,-105.1,40.768009,-111.834412,276
2025-01-22 16:06:31.111,-105.1,40.768036,-111.834435,276
2025-01-22 16:06:31.616,-105.1,40.768036,-111.834435,276
2025-01-22 16:06:32.151,-105.1,40.768055,-111.834473,276
2025-01-22 16:06:32.655,-102.9,40.768078,-111.834503,276
2025-01-22 16:06:33.156,-102.5,40.768078,-111.834503,276
2025-01-22 16:06:33.655,-102.5,40.768097,-111.834541,276
2025-01-22 16:06:34.186,-103.7,40.768097,-111.834541,276
2025-01-22 16:06:34.686,-103.7,40.768116,-111.834587,276
2025-01-22 16:06:35.204,-103.7,40.768116,-111.834587,276
2025-01-22 16:06:35.701,-103.7,40.768127,-111.834633,276
2025-01-22 16:06:36.214,-103.7,40.768127,-111.834633,276
2025-01-22 16:06:36.716,-103.7,40.768139,-111.834679,276
2025-01-22 16:06:37.231,-104.4,40.768139,-111.834679,276
2025-01-22 16:06:37.731,-103.2,40.76815,-111.834732,276
2025-01-22 16:06:38.256,-103.3,40.76815,-111.834732,276
2025-01-22 16:06:38.741,-103.3,40.768158,-111.834778,276
2025-01-22 16:06:39.271,-103.3,40.768158,-111.834778,276
2025-01-22 16:06:39.771,-103.3,40.768166,-111.834816,276
2025-01-22 16:06:40.296,-103.3,40.768166,-111.834816,276
2025-01-22 16:06:40.796,-103.3,40.768169,-111.834846,276
2025-01-22 16:06:41.352,-103.3,40.768169,-111.834846,276
2025-01-22 16:06:41.879,-103.3,40.768173,-111.834862,276
2025-01-22 16:06:43.441,-103.5,40.768177,-111.834885,276
2025-01-22 16:06:43.964,-102.4,40.768181,-111.834908,276
2025-01-22 16:06:44.499,-102.7,40.768181,-111.834908,276
2025-01-22 16:06:45.012,-102.8,40.768185,-111.834938,276
2025-01-22 16:06:45.516,-103.0,40.768185,-111.834938,276
2025-01-22 16:06:46.035,-102.9,40.768188,-111.834961,276
2025-01-22 16:06:46.521,-102.8,40.768188,-111.834961,276
2025-01-22 16:06:47.055,-102.3,40.768196,-111.834991,276
2025-01-22 16:06:47.609,-102.8,40.768196,-111.834991,276
2025-01-22 16:06:48.131,-102.2,40.7682,-111.835022,276
2025-01-22 16:06:48.661,-102.2,40.768204,-111.83506,276
2025-01-22 16:06:49.189,-102.2,40.768204,-111.83506,276
2025-01-22 16:06:49.712,-102.2,40.768211,-111.835091,276
2025-01-22 16:06:50.193,-102.2,40.768211,-111.835091,276
2025-01-22 16:06:50.776,-102.2,40.768215,-111.835121,276
2025-01-22 16:06:51.290,-102.2,40.768215,-111.835121,276
2025-01-22 16:06:51.781,-102.2,40.768223,-111.835152,276
2025-01-22 16:07:50.128,-106.5,40.768864,-111.837402,276
2025-01-22 16:07:50.656,-105.3,40.768909,-111.837479,276
2025-01-22 16:07:51.143,-106.1,40.768909,-111.837479,276
2025-01-22 16:07:51.558,-106.1,40.768909,-111.837479,276
2025-01-22 16:07:52.171,-106.1,40.768955,-111.837563,276
2025-01-22 16:07:52.689,-108.0,40.769005,-111.837639,276
2025-01-22 16:07:53.176,-104.7,40.769005,-111.837639,276
2025-01-22 16:07:53.691,-104.8,40.769054,-111.837715,276
2025-01-22 16:07:54.211,-107.0,40.769054,-111.837715,276
2025-01-22 16:07:54.685,-103.6,40.769104,-111.837791,276
2025-01-22 16:07:55.173,-106.5,40.769104,-111.837791,276
2025-01-22 16:07:55.786,-105.1,40.769154,-111.837868,276
2025-01-22 16:07:56.311,-105.8,40.769154,-111.837868,276
2025-01-22 16:07:56.804,-104.3,40.769199,-111.837944,276
2025-01-22 16:07:57.333,-104.7,40.769199,-111.837944,276
2025-01-22 16:07:57.856,-104.6,40.769241,-111.838013,276
2025-01-22 16:07:58.366,-104.6,40.769241,-111.838013,276
2025-01-22 16:07:58.876,-103.6,40.769287,-111.838074,276
2025-01-22 16:07:59.387,-104.8,40.769287,-111.838074,276
2025-01-22 16:07:59.886,-104.8,40.769329,-111.838135,276
2025-01-22 16:08:00.391,-104.8,40.769329,-111.838135,276
2025-01-22 16:08:00.906,-104.8,40.769363,-111.838188,276
2025-01-22 16:08:01.436,-104.9,40.769363,-111.838188,276
2025-01-22 16:08:01.941,-104.9,40.769398,-111.838234,276
2025-01-22 16:08:02.447,-104.9,40.769398,-111.838234,276
2025-01-22 16:08:02.952,-104.9,40.769424,-111.838272,276
2025-01-22 16:08:03.466,-104.9,40.769424,-111.838272,276
2025-01-22 16:08:03.976,-104.9,40.769444,-111.838295,276
2025-01-22 16:08:04.486,-104.9,40.769444,-111.838295,276
2025-01-22 16:08:04.991,-104.9,40.769459,-111.838318,276
2025-01-22 16:08:05.509,-104.9,40.769459,-111.838318,276
2025-01-22 16:08:08.546,-105.5,40.769485,-111.838348,276
2025-01-22 16:08:09.057,-104.8,40.769489,-111.838356,276
2025-01-22 16:08:09.566,-104.8,40.769489,-111.838356,276
2025-01-22 16:08:10.071,-104.8,40.769493,-111.838356,276
2025-01-22 16:08:10.573,-104.8,40.769493,-111.838356,276
2025-01-22 16:08:11.072,-104.8,40.769493,-111.838364,276
2025-01-22 16:08:11.580,-104.8,40.769493,-111.838364,276
2025-01-22 16:08:12.113,-104.8,40.769497,-111.838364,276
2025-01-22 16:08:12.620,-104.8,40.769497,-111.838364,276
2025-01-22 16:08:21.312,-105.6,40.769501,-111.838364,276
2025-01-22 16:08:21.813,-104.8,40.769501,-111.838364,276
2025-01-22 16:08:22.320,-104.8,40.769501,-111.838364,276
2025-01-22 16:08:22.825,-104.8,40.769505,-111.838364,276
2025-01-22 16:08:23.332,-104.8,40.769505,-111.838364,276
2025-01-22 16:08:23.865,-104.8,40.769508,-111.838371,276
2025-01-22 16:08:24.375,-104.8,40.769508,-111.838371,276
2025-01-22 16:08:24.889,-104.8,40.769516,-111.838379,276
2025-01-22 16:08:25.390,-104.8,40.769516,-111.838379,276
2025-01-22 16:09:00.717,-108.8,40.770489,-111.839424,276
2025-01-22 16:09:01.220,-107.6,40.770489,-111.839424,276
2025-01-22 16:09:01.725,-107.6,40.770561,-111.839516,276
2025-01-22 16:09:02.231,-107.6,40.770561,-111.839516,276
2025-01-22 16:09:02.763,-107.6,40.770638,-111.8396,276
2025-01-22 16:09:03.250,-108.8,40.770638,-111.8396,276
2025-01-22 16:09:03.790,-108.5,40.770714,-111.839691,276
2025-01-22 16:09:04.292,-108.5,40.770714,-111.839691,276
2025-01-22 16:09:04.805,-108.5,40.770794,-111.839775,276
2025-01-22 16:09:05.312,-108.5,40.770794,-111.839775,276
2025-01-22 16:09:05.825,-108.5,40.770874,-111.839867,276
2025-01-22 16:09:06.355,-106.8,40.770874,-111.839867,276
2025-01-22 16:09:06.855,-106.6,40.770958,-111.839951,276
2025-01-22 16:09:07.372,-106.3,40.770958,-111.839951,276
2025-01-22 16:09:07.860,-106.8,40.771046,-111.840034,276
2025-01-22 16:09:08.383,-106.9,40.771046,-111.840034,276
2025-01-22 16:09:08.882,-107.8,40.77113,-111.840118,276
2025-01-22 16:09:09.415,-108.1,40.77113,-111.840118,276
2025-01-22 16:09:09.923,-107.5,40.771214,-111.840195,276
2025-01-22 16:09:10.452,-104.9,40.771214,-111.840195,276
2025-01-22 16:09:10.978,-105.6,40.771297,-111.840256,276
2025-01-22 16:09:11.498,-104.6,40.771297,-111.840256,276
2025-01-22 16:09:12.547,-103.2,40.771381,-111.840317,276
2025-01-22 16:09:13.069,-102.3,40.771461,-111.840363,276
2025-01-22 16:09:13.580,-102.7,40.771461,-111.840363,276
2025-01-22 16:09:14.100,-101.7,40.771538,-111.840408,276
2025-01-22 16:09:14.622,-101.6,40.771538,-111.840408,276
2025-01-22 16:09:15.156,-98.9,40.77161,-111.840439,276
2025-01-22 16:09:15.654,-99.8,40.771683,-111.840469,276
2025-01-22 16:09:16.183,-101.1,40.771683,-111.840469,276
2025-01-22 16:09:16.717,-99.6,40.771763,-111.8405,276
2025-01-22 16:09:17.237,-102.3,40.771763,-111.8405,276
2025-01-22 16:09:17.742,-102.3,40.771843,-111.84053,276
2025-01-22 16:09:18.267,-103.7,40.771843,-111.84053,276
2025-01-22 16:09:19.820,-105.9,40.772022,-111.840584,276
2025-01-22 16:09:21.388,-103.4,40.772118,-111.840607,276
2025-01-22 16:09:21.900,-102.2,40.772217,-111.840622,276
2025-01-22 16:09:22.418,-100.3,40.772217,-111.840622,276
2025-01-22 16:09:22.944,-98.8,40.772316,-111.840645,276
2025-01-22 16:09:23.451,-98.8,40.772316,-111.840645,276
2025-01-22 16:09:23.978,-98.0,40.772415,-111.840652,276
2025-01-22 16:09:24.493,-99.9,40.772415,-111.840652,276
2025-01-22 16:09:25.011,-99.0,40.772511,-111.84066,276
2025-01-22 16:09:25.526,-98.9,40.772511,-111.84066,276
2025-01-22 16:09:26.033,-100.1,40.772598,-111.84066,276
2025-01-22 16:09:26.552,-100.1,40.772598,-111.84066,276
2025-01-22 16:09:27.058,-100.8,40.772667,-111.84066,276
2025-01-22 16:09:27.584,-98.8,40.772667,-111.84066,276
2025-01-22 16:09:28.118,-99.9,40.772717,-111.840668,276
2025-01-22 16:09:28.633,-99.6,40.772717,-111.840668,276
2025-01-22 16:09:29.144,-99.9,40.772747,-111.840668,276
2025-01-22 16:09:29.652,-100.8,40.772747,-111.840668,276
2025-01-22 16:09:30.168,-99.4,40.772766,-111.840668,276
2025-01-22 16:09:30.678,-99.4,40.772774,-111.840668,276
2025-01-22 16:09:31.203,-99.6,40.772774,-111.840668,276
2025-01-22 16:09:31.718,-100.6,40.772774,-111.840668,276
2025-01-22 16:09:32.246,-100.0,40.772774,-111.840668,276
2025-01-22 16:09:32.757,-99.4,40.772774,-111.840668,276
2025-01-22 16:09:33.278,-100.4,40.772774,-111.840668,276
2025-01-22 16:09:33.793,-99.2,40.772774,-111.840668,276
2025-01-22 16:09:34.334,-100.0,40.772774,-111.840668,276
2025-01-22 16:09:34.851,-99.4,40.772774,-111.840668,276
2025-01-22 16:09:35.353,-99.7,40.772774,-111.840668,276
2025-01-22 16:09:35.868,-100.6,40.772774,-111.840668,276
2025-01-22 16:09:36.391,-100.9,40.772774,-111.840668,276
2025-01-22 16:09:36.882,-103.5,40.772774,-111.840668,276
2025-01-22 16:09:37.406,-101.9,40.772774,-111.840668,276
2025-01-22 16:09:37.929,-103.3,40.772778,-111.840668,276
2025-01-22 16:09:38.422,-101.8,40.772778,-111.840668,276
2025-01-22 16:09:38.948,-100.8,40.772778,-111.840668,276
2025-01-22 16:09:39.451,-101.0,40.772778,-111.840668,276
2025-01-22 16:09:39.958,-101.2,40.772778,-111.840668,276
2025-01-22 16:09:40.479,-102.3,40.772778,-111.840668,276
2025-01-22 16:09:40.978,-104.7,40.772778,-111.840668,276
2025-01-22 16:09:41.488,-102.4,40.772778,-111.840668,276
2025-01-22 16:09:42.007,-101.1,40.772778,-111.840668,276
2025-01-22 16:09:42.523,-101.9,40.772778,-111.840668,276
2025-01-22 16:09:43.046,-100.7,40.772778,-111.840668,276
2025-01-22 16:09:43.558,-100.7,40.772778,-111.840668,276
2025-01-22 16:09:44.058,-99.6,40.772778,-111.840668,276
2025-01-22 16:09:44.549,-100.2,40.772778,-111.840668,276
2025-01-22 16:09:45.066,-100.4,40.772778,-111.840668,276
2025-01-22 16:09:45.582,-100.6,40.772778,-111.840668,276
2025-01-22 16:09:46.071,-100.3,40.772778,-111.840668,276
2025-01-22 16:09:46.594,-100.0,40.772778,-111.840668,276
2025-01-22 16:09:47.112,-102.3,40.772778,-111.840668,276
2025-01-22 16:09:47.628,-101.1,40.772778,-111.840668,276
2025-01-22 16:09:48.153,-100.4,40.772778,-111.840668,276
2025-01-22 16:09:48.671,-101.5,40.772778,-111.840668,276
2025-01-22 16:09:49.163,-100.8,40.772778,-111.840668,276
2025-01-22 16:09:49.678,-100.4,40.772778,-111.840668,276
2025-01-22 16:09:50.193,-100.8,40.772778,-111.840668,276
2025-01-22 16:09:50.708,-99.8,40.772778,-111.840668,276
2025-01-22 16:09:51.221,-99.4,40.772778,-111.840668,276
2025-01-22 16:09:51.735,-100.1,40.772778,-111.840668,276
2025-01-22 16:09:52.251,-100.1,40.772778,-111.840668,276
2025-01-22 16:09:52.771,-100.1,40.772778,-111.840668,276
2025-01-22 16:09:53.278,-100.2,40.772778,-111.840668,276
2025-01-22 16:09:53.789,-100.8,40.772778,-111.840668,276
2025-01-22 16:09:54.293,-101.1,40.772778,-111.840668,276
2025-01-22 16:09:54.822,-100.9,40.772778,-111.840668,276
2025-01-22 16:09:55.338,-101.8,40.772778,-111.840668,276
2025-01-22 16:09:55.848,-101.1,40.772781,-111.840668,276
2025-01-22 16:09:56.361,-101.3,40.772781,-111.840668,276
2025-01-22 16:09:56.871,-101.4,40.772781,-111.840668,276
2025-01-22 16:09:57.378,-100.6,40.772781,-111.840668,276
2025-01-22 16:09:57.891,-100.5,40.772781,-111.840668,276
2025-01-22 16:09:58.403,-100.9,40.772781,-111.840668,276
2025-01-22 16:09:58.907,-99.3,40.772781,-111.84066,276
2025-01-22 16:09:59.411,-100.5,40.772781,-111.84066,276
2025-01-22 16:09:59.922,-101.6,40.772781,-111.84066,276
2025-01-22 16:10:00.438,-100.3,40.772781,-111.84066,276
2025-01-22 16:10:00.942,-99.9,40.772781,-111.84066,276
2025-01-22 16:10:01.451,-100.1,40.772781,-111.84066,276
2025-01-22 16:10:01.968,-100.0,40.772778,-111.84066,276
2025-01-22 16:10:02.468,-100.3,40.772778,-111.84066,276
2025-01-22 16:10:02.978,-101.3,40.772778,-111.84066,276
2025-01-22 16:10:03.483,-101.3,40.772778,-111.84066,276
2025-01-22 16:10:03.991,-100.8,40.772778,-111.84066,276
2025-01-22 16:10:04.500,-100.8,40.772778,-111.84066,276
2025-01-22 16:10:05.012,-101.6,40.772793,-111.84066,276
2025-01-22 16:10:05.529,-99.9,40.772793,-111.84066,276
2025-01-22 16:10:06.052,-99.3,40.772831,-111.84066,276
2025-01-22 16:10:09.123,-97.3,40.772984,-111.840714,276
2025-01-22 16:10:09.621,-95.7,40.772984,-111.840714,276
2025-01-22 16:10:10.157,-95.1,40.773026,-111.840767,276
2025-01-22 16:10:10.654,-96.3,40.773026,-111.840767,276
2025-01-22 16:10:11.182,-96.3,40.773056,-111.840843,276
2025-01-22 16:10:11.694,-96.3,40.773067,-111.840927,276
2025-01-22 16:10:12.185,-95.1,40.773067,-111.840927,276
2025-01-22 16:10:12.739,-95.9,40.773064,-111.841034,276
2025-01-22 16:10:13.239,-95.9,40.773064,-111.841034,276
2025-01-22 16:10:13.759,-95.9,40.773056,-111.841141,276
2025-01-22 16:10:14.283,-93.8,40.773056,-111.841141,276
2025-01-22 16:10:14.814,-94.8,40.773041,-111.841263,276
2025-01-22 16:10:15.319,-92.8,40.773041,-111.841263,276
2025-01-22 16:10:15.822,-96.2,40.773018,-111.841377,276
2025-01-22 16:10:16.339,-94.9,40.773018,-111.841377,276
2025-01-22 16:10:16.854,-94.9,40.772987,-111.841499,276
2025-01-22 16:10:17.359,-94.9,40.772987,-111.841499,276
2025-01-22 16:10:17.864,-98.8,40.772953,-111.841614,276
2025-01-22 16:10:18.349,-96.8,40.772953,-111.841614,276
2025-01-22 16:10:18.883,-95.6,40.772911,-111.841736,276
2025-01-22 16:10:19.403,-94.8,40.772911,-111.841736,276
2025-01-22 16:10:19.882,-96.5,40.772861,-111.84185,276
2025-01-22 16:12:07.579,-113.5,40.767555,-111.844444,276
2025-01-22 16:12:08.100,-110.9,40.767509,-111.844429,276
2025-01-22 16:12:08.605,-111.7,40.767509,-111.844429,276
2025-01-22 16:12:09.115,-111.4,40.76746,-111.844414,276
2025-01-22 16:12:09.607,-111.6,40.76746,-111.844414,276
2025-01-22 16:12:10.618,-111.6,40.76741,-111.844406,276
2025-01-22 16:12:37.594,-110.4,40.765934,-111.844261,276
2025-01-22 16:12:38.125,-108.9,40.765884,-111.844299,276
2025-01-22 16:12:38.638,-109.7,40.765884,-111.844299,276
2025-01-22 16:12:39.160,-108.3,40.765842,-111.844345,276
2025-01-22 16:12:39.677,-107.7,40.765808,-111.844398,276
2025-01-22 16:12:40.197,-107.6,40.765808,-111.844398,276
2025-01-22 16:12:40.697,-109.1,40.765774,-111.844452,276
2025-01-22 16:12:41.197,-111.4,40.765774,-111.844452,276
2025-01-22 16:12:41.727,-112.7,40.765743,-111.844513,276
2025-01-22 16:12:42.238,-112.1,40.765743,-111.844513,276
2025-01-22 16:12:42.752,-112.6,40.765713,-111.844574,276
2025-01-22 16:12:43.805,-112.0,40.765686,-111.844635,276
2025-01-22 16:12:44.309,-112.0,40.765686,-111.844635,276
2025-01-22 16:12:44.814,-112.0,40.765659,-111.844704,276
2025-01-22 16:12:45.309,-112.0,40.765659,-111.844704,276
2025-01-22 16:12:45.848,-112.0,40.765633,-111.844765,276
2025-01-22 16:12:46.349,-112.0,40.765633,-111.844765,276
2025-01-22 16:12:46.869,-112.0,40.765606,-111.844833,276
2025-01-22 16:12:47.392,-112.0,40.765606,-111.844833,276
2025-01-22 16:12:47.912,-112.0,40.765583,-111.844894,276
2025-01-22 16:12:54.079,-110.9,40.765396,-111.8452,276
2025-01-22 16:12:54.574,-111.5,40.765396,-111.8452,276
2025-01-22 16:12:55.104,-111.6,40.765354,-111.845238,276
2025-01-22 16:12:55.595,-111.6,40.765354,-111.845238,276
2025-01-22 16:12:56.107,-111.6,40.765308,-111.845268,276
2025-01-22 16:13:20.822,-110.8,40.764324,-111.844772,276
2025-01-22 16:13:21.328,-110.2,40.764324,-111.844772,276
2025-01-22 16:13:21.860,-110.2,40.764297,-111.844742,276
2025-01-22 16:13:22.355,-112.6,40.764297,-111.844742,276
2025-01-22 16:13:22.880,-113.9,40.764275,-111.844719,276
2025-01-22 16:13:23.388,-113.9,40.764275,-111.844719,276
2025-01-22 16:13:23.890,-113.9,40.764252,-111.844688,276
2025-01-22 16:13:24.415,-113.9,40.764252,-111.844688,276
2025-01-22 16:13:24.924,-113.9,40.764233,-111.84465,276
2025-01-22 16:13:25.430,-113.9,40.764233,-111.84465,276
2025-01-22 16:13:25.960,-113.9,40.764217,-111.844612,276
2025-01-22 16:13:26.455,-113.9,40.764217,-111.844612,276
2025-01-22 16:13:33.112,-114.8,40.764244,-111.844269,276
2025-01-22 16:13:33.621,-114.3,40.764244,-111.844269,276
2025-01-22 16:13:34.116,-114.3,40.764267,-111.844223,276
2025-01-22 16:13:34.628,-114.3,40.764267,-111.844223,276
2025-01-22 16:13:35.133,-114.3,40.76429,-111.844177,276
2025-01-22 16:13:35.618,-114.3,40.76429,-111.844177,276
2025-01-22 16:13:36.131,-114.3,40.764313,-111.844124,276
2025-01-22 16:13:36.653,-114.3,40.764313,-111.844124,276
2025-01-22 16:13:37.198,-114.3,40.764339,-111.844078,276
2025-01-22 16:13:59.484,-113.6,40.765163,-111.844177,276
2025-01-22 16:14:00.064,-112.3,40.765198,-111.844208,276
2025-01-22 16:14:00.568,-112.2,40.765198,-111.844208,276
2025-01-22 16:14:01.028,-111.5,40.765232,-111.844238,276
2025-01-22 16:14:01.612,-112.3,40.765232,-111.844238,276
2025-01-22 16:14:02.131,-113.8,40.765266,-111.844269,276
2025-01-22 16:14:02.623,-113.6,40.765266,-111.844269,276
2025-01-22 16:14:03.064,-111.9,40.765301,-111.844299,276
2025-01-22 16:14:03.610,-113.1,40.765301,-111.844299,276
2025-01-22 16:14:04.190,-111.7,40.765331,-111.844322,276
2025-01-22 16:14:04.701,-112.1,40.765362,-111.844337,276
2025-01-22 16:14:05.206,-113.4,40.765362,-111.844337,276
2025-01-22 16:14:05.730,-113.3,40.765392,-111.844353,276
2025-01-22 16:14:06.153,-113.3,40.765392,-111.844353,276
2025-01-22 16:14:06.655,-113.3,40.765392,-111.844353,276
2025-01-22 16:14:10.880,-110.9,40.765568,-111.844406,276
2025-01-22 16:14:11.874,-112.8,40.765606,-111.844406,276
2025-01-22 16:14:12.994,-115.1,40.765648,-111.844398,276
2025-01-22 16:14:13.420,-111.7,40.765648,-111.844398,276
2025-01-22 16:14:14.044,-111.7,40.765686,-111.844391,276
2025-01-22 16:14:14.539,-112.5,40.765686,-111.844391,276
2025-01-22 16:14:15.070,-112.5,40.765724,-111.844376,276
2025-01-22 16:14:15.388,-112.4,40.765724,-111.844376,276
2025-01-22 16:14:16.077,-112.4,40.765759,-111.844353,276
2025-01-22 16:14:16.506,-112.4,40.765759,-111.844353,276
2025-01-22 16:14:17.162,-112.4,40.765789,-111.844315,276
2025-01-22 16:14:17.543,-112.4,40.765789,-111.844315,276
2025-01-22 16:14:17.938,-112.4,40.765823,-111.844284,276
2025-01-22 16:14:18.723,-112.8,40.765858,-111.844254,276
2025-01-22 16:14:19.253,-112.8,40.765858,-111.844254,276
2025-01-22 16:14:19.783,-112.8,40.765892,-111.844223,276
2025-01-22 16:14:20.312,-113.3,40.765892,-111.844223,276
2025-01-22 16:14:20.823,-113.9,40.76593,-111.8442,276
2025-01-22 16:14:21.329,-113.9,40.76593,-111.8442,276
2025-01-22 16:14:21.837,-113.9,40.765968,-111.844177,276
2025-01-22 16:14:23.965,-113.9,40.766052,-111.844147,276
2025-01-22 16:14:28.024,-110.4,40.766243,-111.844147,276
2025-01-22 16:14:28.577,-109.7,40.766243,-111.844147,276
2025-01-22 16:14:29.154,-112.8,40.766293,-111.844147,276
2025-01-22 16:14:29.631,-110.9,40.766293,-111.844147,276
2025-01-22 16:14:30.153,-111.9,40.766342,-111.844147,276
2025-01-22 16:14:30.673,-113.2,40.766392,-111.844147,276
2025-01-22 16:14:31.193,-111.5,40.766392,-111.844147,276
2025-01-22 16:14:31.693,-112.7,40.766445,-111.844139,276
2025-01-22 16:14:33.734,-112.7,40.766552,-111.844147,276
2025-01-22 16:15:48.782,-111.8,40.768959,-111.844139,276
2025-01-22 16:15:49.261,-108.4,40.768959,-111.844139,276
2025-01-22 16:15:49.695,-108.1,40.768951,-111.844154,276
2025-01-22 16:15:50.308,-108.1,40.768951,-111.844154,276
2025-01-22 16:15:50.756,-108.1,40.768948,-111.84417,276
2025-01-22 16:15:51.314,-108.1,40.768948,-111.84417,276
2025-01-22 16:15:51.879,-111.6,40.768944,-111.844177,276
