Time,RSRP,Latitude,Longitude,PCI
2025-01-20 01:52:59.808,-115.9,40.767887,-111.844498,180
2025-01-20 01:53:05.512,-114.8,40.767612,-111.844452,180
2025-01-20 01:53:06.120,-114.8,40.767567,-111.844437,180
2025-01-20 01:53:06.641,-119.4,40.767567,-111.844437,180
2025-01-20 01:53:08.268,-116.8,40.767475,-111.844414,180
2025-01-20 01:53:08.789,-118.2,40.767475,-111.844414,180
2025-01-20 01:53:09.291,-120.6,40.767429,-111.844406,180
2025-01-20 01:53:09.813,-115.7,40.767429,-111.844406,180
2025-01-20 01:53:10.312,-115.9,40.767387,-111.844391,180
2025-01-20 01:53:10.836,-116.1,40.767349,-111.844383,180
2025-01-20 01:53:11.372,-116.9,40.767349,-111.844383,180
2025-01-20 01:53:11.871,-113.9,40.767307,-111.844368,180
2025-01-20 01:53:12.386,-115.7,40.767307,-111.844368,180
2025-01-20 01:53:12.902,-117.3,40.767265,-111.844353,180
2025-01-20 01:53:13.436,-114.9,40.767265,-111.844353,180
2025-01-20 01:53:13.939,-116.1,40.767223,-111.844345,180
2025-01-20 01:53:14.421,-117.4,40.767223,-111.844345,180
2025-01-20 01:53:15.511,-115.8,40.767181,-111.84433,180
2025-01-20 01:53:15.949,-118.6,40.767139,-111.844322,180
2025-01-20 01:53:17.090,-117.4,40.767097,-111.844315,180
2025-01-20 01:53:17.609,-112.2,40.767097,-111.844315,180
2025-01-20 01:53:18.107,-111.6,40.767052,-111.844299,180
2025-01-20 01:53:18.635,-116.6,40.767052,-111.844299,180
2025-01-20 01:53:19.109,-117.6,40.76701,-111.844292,180
2025-01-20 01:53:19.689,-117.6,40.76701,-111.844292,180
2025-01-20 01:53:20.229,-119.7,40.766968,-111.844276,180
2025-01-20 01:53:20.769,-117.7,40.766968,-111.844276,180
2025-01-20 01:53:21.294,-119.9,40.766926,-111.844269,180
2025-01-20 01:53:21.809,-118.0,40.766926,-111.844269,180
2025-01-20 01:53:22.316,-119.3,40.766884,-111.844254,180
2025-01-20 01:53:22.859,-119.7,40.766838,-111.844246,180
2025-01-20 01:53:23.374,-120.9,40.766838,-111.844246,180
2025-01-20 01:53:23.889,-121.4,40.766792,-111.844231,180
2025-01-20 01:53:24.407,-122.6,40.766792,-111.844231,180
2025-01-20 01:53:24.944,-119.4,40.766747,-111.844215,180
2025-01-20 01:53:25.454,-119.9,40.766747,-111.844215,180
2025-01-20 01:53:25.989,-119.4,40.766701,-111.844208,180
2025-01-20 01:53:26.509,-121.1,40.766701,-111.844208,180
2025-01-20 01:53:27.015,-117.1,40.766655,-111.8442,180
2025-01-20 01:53:27.515,-116.1,40.766655,-111.8442,180
2025-01-20 01:53:28.048,-117.1,40.766613,-111.8442,180
2025-01-20 01:53:28.579,-115.2,40.766613,-111.8442,180
2025-01-20 01:53:29.084,-117.3,40.766567,-111.844193,180
2025-01-20 01:53:29.589,-116.9,40.766567,-111.844193,180
2025-01-20 01:53:30.089,-117.3,40.766525,-111.844193,180
2025-01-20 01:53:30.589,-115.1,40.766525,-111.844193,180
2025-01-20 01:53:31.115,-116.5,40.766483,-111.844193,180
2025-01-20 01:53:31.639,-114.7,40.766483,-111.844193,180
2025-01-20 01:53:32.178,-116.7,40.766441,-111.844193,180
2025-01-20 01:53:32.719,-117.3,40.766441,-111.844193,180
2025-01-20 01:53:33.049,-118.0,40.766396,-111.844193,180
2025-01-20 01:53:33.754,-117.1,40.766396,-111.844193,180
2025-01-20 01:53:34.270,-117.6,40.766354,-111.844185,180
2025-01-20 01:53:34.814,-117.5,40.766354,-111.844185,180
2025-01-20 01:53:35.339,-119.2,40.766308,-111.844185,180
2025-01-20 01:53:35.879,-117.6,40.766266,-111.844193,180
2025-01-20 01:53:36.409,-116.4,40.766266,-111.844193,180
2025-01-20 01:53:36.924,-119.4,40.766224,-111.844193,180
2025-01-20 01:53:37.433,-123.1,40.766224,-111.844193,180
2025-01-20 01:53:37.968,-118.2,40.766182,-111.844193,180
2025-01-20 01:53:38.449,-118.5,40.766182,-111.844193,180
2025-01-20 01:53:39.019,-113.0,40.76614,-111.844193,180
2025-01-20 01:53:39.518,-116.4,40.76614,-111.844193,180
2025-01-20 01:53:40.028,-115.6,40.766098,-111.8442,180
2025-01-20 01:53:40.478,-123.6,40.766098,-111.8442,180
2025-01-20 01:53:41.068,-114.8,40.766056,-111.844208,180
2025-01-20 01:53:41.588,-120.8,40.766056,-111.844208,180
2025-01-20 01:53:42.108,-117.2,40.766014,-111.844223,180
2025-01-20 01:53:42.645,-121.3,40.766014,-111.844223,180
2025-01-20 01:53:43.164,-121.8,40.765972,-111.844238,180
2025-01-20 01:53:43.689,-121.3,40.765972,-111.844238,180
2025-01-20 01:53:44.202,-123.2,40.765926,-111.844269,180
2025-01-20 01:53:44.710,-119.4,40.765926,-111.844269,180
2025-01-20 01:53:45.255,-121.5,40.765884,-111.844299,180
2025-01-20 01:53:45.769,-120.9,40.765884,-111.844299,180
2025-01-20 01:53:46.308,-122.4,40.765846,-111.844337,180
2025-01-20 01:53:46.829,-123.4,40.765846,-111.844337,180
2025-01-20 01:53:47.330,-121.7,40.765808,-111.844376,180
2025-01-20 01:53:47.784,-122.4,40.765808,-111.844376,180
2025-01-20 01:53:48.335,-123.3,40.765778,-111.844421,180
2025-01-20 01:53:48.863,-124.2,40.765747,-111.844467,180
2025-01-20 01:53:49.394,-124.6,40.765747,-111.844467,180
2025-01-20 01:53:49.893,-126.1,40.765724,-111.844521,180
2025-01-20 01:53:50.357,-119.7,40.765724,-111.844521,180
2025-01-20 01:53:52.951,-118.9,40.765656,-111.844681,180
2025-01-20 01:54:39.291,-115.6,40.764431,-111.844826,180
2025-01-20 01:54:39.776,-113.8,40.764431,-111.844826,180
2025-01-20 01:54:40.288,-116.8,40.764397,-111.844795,180
2025-01-20 01:54:41.331,-107.6,40.76437,-111.844772,180
2025-01-20 01:54:41.884,-111.1,40.764347,-111.844749,180
2025-01-20 01:54:42.424,-109.0,40.764347,-111.844749,180
2025-01-20 01:54:42.963,-112.1,40.764324,-111.844734,180
2025-01-20 01:54:43.487,-111.8,40.764324,-111.844734,180
2025-01-20 01:54:43.965,-119.2,40.764305,-111.844711,180
2025-01-20 01:54:44.529,-118.0,40.764305,-111.844711,180
2025-01-20 01:54:44.851,-118.0,40.764282,-111.844688,180
2025-01-20 01:54:45.600,-122.3,40.764282,-111.844688,180
2025-01-20 01:54:45.749,-121.7,40.764282,-111.844688,180
2025-01-20 01:54:46.496,-125.5,40.764259,-111.844658,180
2025-01-20 01:54:47.090,-121.9,40.764236,-111.844612,180
2025-01-20 01:54:47.453,-124.9,40.764236,-111.844612,180
2025-01-20 01:54:48.241,-127.9,40.764221,-111.844566,180
2025-01-20 01:54:48.747,-122.1,40.764221,-111.844566,180
2025-01-20 01:54:49.262,-118.8,40.764214,-111.844513,180
2025-01-20 01:54:49.782,-119.9,40.764214,-111.844513,180
2025-01-20 01:54:50.242,-123.3,40.764214,-111.84446,180
2025-01-20 01:54:50.756,-116.6,40.764214,-111.84446,180
2025-01-20 01:54:51.842,-113.5,40.764225,-111.84436,180
2025-01-20 01:54:52.377,-120.2,40.764225,-111.84436,180
2025-01-20 01:54:52.905,-119.8,40.764244,-111.844307,180
2025-01-20 01:54:53.434,-116.9,40.764244,-111.844307,180
2025-01-20 01:54:53.954,-122.3,40.764263,-111.844261,180
2025-01-20 01:54:54.455,-120.3,40.764263,-111.844261,180
2025-01-20 01:54:54.986,-117.3,40.764286,-111.844208,180
2025-01-20 01:54:55.506,-121.6,40.764286,-111.844208,180
2025-01-20 01:54:55.755,-122.6,40.764286,-111.844208,180
2025-01-20 01:54:56.526,-127.3,40.764309,-111.844162,180
2025-01-20 01:54:57.041,-127.9,40.764332,-111.844109,180
2025-01-20 01:54:57.551,-124.3,40.764332,-111.844109,180
2025-01-20 01:54:58.088,-125.1,40.764359,-111.844063,180
2025-01-20 01:54:58.569,-128.0,40.764359,-111.844063,180
2025-01-20 01:54:59.143,-128.0,40.764385,-111.844017,180
2025-01-20 01:54:59.627,-128.0,40.764385,-111.844017,180
2025-01-20 01:55:11.771,-108.6,40.764805,-111.843864,180
2025-01-20 01:55:12.286,-110.4,40.764851,-111.843903,180
2025-01-20 01:55:13.239,-116.2,40.764893,-111.843941,180
2025-01-20 01:55:14.340,-119.1,40.764938,-111.843979,180
2025-01-20 01:55:16.946,-118.9,40.765079,-111.844101,180
2025-01-20 01:55:18.346,-115.8,40.765125,-111.844147,180
2025-01-20 01:55:34.935,-120.5,40.765835,-111.844276,180
2025-01-20 01:56:13.666,-118.4,40.767513,-111.844376,180
2025-01-20 01:57:58.973,-114.3,40.770172,-111.842407,180
2025-01-20 01:58:00.002,-114.1,40.770138,-111.842377,180
2025-01-20 01:58:01.075,-115.6,40.770107,-111.842354,180
2025-01-20 01:58:01.564,-118.4,40.770107,-111.842354,180
2025-01-20 01:58:01.905,-118.6,40.770084,-111.842323,180
2025-01-20 01:58:02.599,-118.3,40.770084,-111.842323,180
2025-01-20 01:58:03.182,-116.9,40.770061,-111.842308,180
2025-01-20 01:58:03.559,-117.3,40.770061,-111.842308,180
2025-01-20 01:58:04.192,-114.5,40.770046,-111.842293,180
2025-01-20 01:58:04.783,-114.6,40.770046,-111.842293,180
2025-01-20 01:58:05.341,-112.9,40.770027,-111.84227,180
2025-01-20 01:58:05.851,-114.7,40.77,-111.842247,180
2025-01-20 01:58:06.360,-114.1,40.77,-111.842247,180
2025-01-20 01:58:06.885,-116.4,40.769974,-111.842216,180
2025-01-20 01:58:07.421,-113.6,40.769974,-111.842216,180
2025-01-20 01:58:07.912,-115.9,40.769943,-111.842178,180
2025-01-20 01:58:08.447,-116.9,40.769943,-111.842178,180
2025-01-20 01:58:09.017,-116.0,40.769905,-111.84214,180
2025-01-20 01:58:09.522,-116.4,40.769905,-111.84214,180
2025-01-20 01:58:10.062,-116.6,40.769867,-111.842094,180
2025-01-20 01:58:10.592,-118.3,40.769867,-111.842094,180
2025-01-20 01:58:11.101,-113.7,40.769825,-111.842049,180
2025-01-20 01:58:11.632,-117.4,40.769825,-111.842049,180
2025-01-20 01:58:12.157,-116.8,40.769779,-111.842003,180
2025-01-20 01:58:12.612,-119.1,40.769779,-111.842003,180
2025-01-20 01:58:13.184,-117.8,40.769733,-111.841949,180
2025-01-20 01:58:13.697,-118.6,40.769733,-111.841949,180
2025-01-20 01:59:15.852,-117.8,40.767612,-111.839203,180
2025-01-20 01:59:47.565,-113.1,40.766361,-111.837708,180
2025-01-20 01:59:48.650,-112.0,40.766308,-111.837654,180
2025-01-20 01:59:49.715,-111.1,40.766251,-111.837608,180
2025-01-20 01:59:50.201,-114.4,40.766193,-111.83757,180
2025-01-20 01:59:51.155,-116.1,40.76614,-111.837532,180
2025-01-20 01:59:51.838,-113.8,40.766083,-111.837494,180
2025-01-20 01:59:52.117,-119.3,40.766083,-111.837494,180
2025-01-20 01:59:52.876,-112.7,40.766029,-111.837456,180
2025-01-20 01:59:53.396,-115.8,40.766029,-111.837456,180
2025-01-20 01:59:53.688,-119.3,40.766029,-111.837456,180
2025-01-20 01:59:54.356,-119.3,40.76598,-111.83741,180
2025-01-20 01:59:54.960,-125.6,40.765934,-111.837364,180
2025-01-20 01:59:55.495,-124.5,40.765934,-111.837364,180
2025-01-20 01:59:56.010,-125.2,40.765892,-111.837311,180
2025-01-20 01:59:56.539,-124.9,40.765892,-111.837311,180
2025-01-20 01:59:57.006,-126.4,40.765858,-111.837257,180
2025-01-20 02:00:15.750,-122.9,40.764767,-111.836639,180
2025-01-20 02:00:34.797,-112.6,40.76334,-111.835953,180
2025-01-20 02:00:35.297,-104.9,40.763264,-111.83593,180
2025-01-20 02:00:35.804,-104.4,40.763264,-111.83593,180
2025-01-20 02:00:36.305,-105.8,40.763184,-111.835907,180
2025-01-20 02:00:36.841,-108.0,40.763107,-111.835884,180
2025-01-20 02:00:37.376,-101.4,40.763107,-111.835884,180
2025-01-20 02:00:37.895,-101.4,40.763031,-111.835861,180
2025-01-20 02:00:38.420,-110.7,40.763031,-111.835861,180
2025-01-20 02:00:38.945,-107.1,40.762959,-111.835838,180
2025-01-20 02:00:39.482,-112.8,40.762959,-111.835838,180
2025-01-20 02:00:39.737,-112.1,40.762959,-111.835838,180
2025-01-20 02:00:40.491,-109.5,40.762886,-111.835808,180
2025-01-20 02:00:40.671,-111.4,40.762886,-111.835808,180
2025-01-20 02:00:41.531,-110.4,40.762821,-111.835785,180
2025-01-20 02:00:42.048,-113.8,40.762756,-111.835762,180
2025-01-20 02:00:42.495,-113.6,40.762756,-111.835762,180
2025-01-20 02:00:43.128,-111.8,40.762699,-111.835739,180
2025-01-20 02:00:43.670,-107.5,40.762699,-111.835739,180
2025-01-20 02:00:43.909,-104.6,40.762646,-111.835724,180
2025-01-20 02:00:44.743,-104.9,40.762646,-111.835724,180
2025-01-20 02:00:45.162,-104.2,40.762604,-111.835709,180
2025-01-20 02:00:45.506,-104.5,40.762604,-111.835709,180
2025-01-20 02:00:46.210,-104.4,40.762573,-111.835693,180
2025-01-20 02:00:46.771,-104.6,40.762573,-111.835693,180
2025-01-20 02:00:47.719,-104.6,40.76255,-111.835686,180
2025-01-20 02:00:50.519,-104.6,40.762531,-111.835686,180
2025-01-20 02:01:02.362,-99.8,40.762497,-111.835663,180
2025-01-20 02:01:02.900,-101.8,40.762489,-111.835648,180
2025-01-20 02:01:03.429,-108.6,40.762489,-111.835648,180
2025-01-20 02:01:03.943,-105.8,40.762486,-111.835617,180
2025-01-20 02:01:04.479,-100.8,40.762486,-111.835617,180
2025-01-20 02:01:05.013,-103.4,40.762489,-111.835602,180
2025-01-20 02:01:05.560,-105.4,40.762489,-111.835602,180
2025-01-20 02:01:06.070,-99.3,40.762489,-111.835602,180
2025-01-20 02:01:06.574,-96.5,40.762489,-111.835602,180
2025-01-20 02:01:07.096,-97.8,40.762489,-111.835609,180
2025-01-20 02:01:07.600,-103.1,40.762489,-111.835609,180
2025-01-20 02:01:08.100,-104.5,40.762489,-111.835625,180
2025-01-20 02:01:08.603,-103.6,40.762489,-111.835625,180
2025-01-20 02:01:09.119,-101.8,40.762489,-111.835625,180
2025-01-20 02:01:09.649,-103.1,40.762489,-111.835625,180
2025-01-20 02:01:11.210,-108.4,40.762531,-111.835609,180
2025-01-20 02:01:11.750,-108.4,40.762531,-111.835609,180
2025-01-20 02:01:12.772,-108.7,40.762581,-111.835609,180
2025-01-20 02:01:15.831,-111.4,40.762886,-111.835686,180
2025-01-20 02:01:16.877,-111.4,40.76297,-111.835709,180
2025-01-20 02:01:17.885,-108.8,40.76305,-111.835724,180
2025-01-20 02:01:18.411,-108.8,40.76305,-111.835724,180
2025-01-20 02:01:19.439,-107.6,40.763126,-111.835747,180
2025-01-20 02:02:55.008,-103.7,40.767471,-111.835793,180
2025-01-20 02:02:55.529,-104.6,40.767471,-111.835793,180
2025-01-20 02:02:57.076,-98.8,40.767479,-111.835785,180
2025-01-20 02:02:57.605,-110.3,40.767479,-111.835785,180
2025-01-20 02:02:58.112,-108.6,40.767494,-111.83577,180
2025-01-20 02:02:58.612,-109.2,40.767494,-111.83577,180
2025-01-20 02:02:59.151,-113.2,40.767513,-111.835754,180
2025-01-20 02:02:59.662,-115.3,40.767513,-111.835754,180
2025-01-20 02:03:00.162,-114.4,40.767525,-111.835739,180
2025-01-20 02:03:00.674,-112.5,40.767525,-111.835739,180
2025-01-20 02:03:01.211,-114.6,40.76754,-111.835732,180
2025-01-20 02:03:02.235,-114.0,40.767563,-111.835716,180
2025-01-20 02:03:02.761,-109.8,40.767563,-111.835716,180
2025-01-20 02:03:03.306,-111.5,40.767586,-111.835709,180
2025-01-20 02:03:03.833,-109.2,40.767612,-111.835709,180
2025-01-20 02:03:04.364,-113.4,40.767612,-111.835709,180
2025-01-20 02:03:04.895,-112.9,40.767639,-111.835716,180
2025-01-20 02:03:05.410,-113.1,40.767639,-111.835716,180
2025-01-20 02:03:05.915,-113.5,40.767662,-111.835732,180
2025-01-20 02:03:06.435,-113.6,40.767662,-111.835732,180
2025-01-20 02:03:06.935,-116.3,40.767685,-111.835747,180
2025-01-20 02:03:07.449,-114.9,40.767685,-111.835747,180
2025-01-20 02:03:07.969,-113.8,40.767696,-111.835762,180
2025-01-20 02:03:08.491,-111.3,40.767696,-111.835762,180
2025-01-20 02:03:09.007,-114.1,40.767704,-111.83577,180
2025-01-20 02:03:09.529,-114.2,40.767704,-111.83577,180
2025-01-20 02:03:10.062,-114.3,40.767708,-111.83577,180
2025-01-20 02:03:10.601,-114.4,40.767708,-111.83577,180
2025-01-20 02:03:11.140,-111.3,40.767708,-111.83577,180
2025-01-20 02:03:11.677,-116.4,40.767708,-111.83577,180
2025-01-20 02:03:12.217,-111.5,40.767708,-111.83577,180
2025-01-20 02:03:12.739,-113.3,40.767708,-111.83577,180
2025-01-20 02:03:13.241,-113.6,40.767715,-111.835777,180
2025-01-20 02:03:13.770,-112.3,40.767715,-111.835777,180
2025-01-20 02:03:14.276,-108.9,40.767719,-111.835785,180
2025-01-20 02:03:14.785,-107.1,40.767719,-111.835785,180
2025-01-20 02:03:15.309,-113.1,40.767727,-111.835793,180
2025-01-20 02:03:15.840,-109.3,40.767738,-111.8358,180
2025-01-20 02:03:16.349,-102.0,40.767738,-111.8358,180
2025-01-20 02:03:16.851,-102.4,40.767757,-111.835808,180
2025-01-20 02:03:17.355,-101.4,40.767757,-111.835808,180
2025-01-20 02:03:17.874,-102.7,40.767776,-111.835815,180
2025-01-20 02:03:18.375,-102.3,40.767776,-111.835815,180
2025-01-20 02:03:18.921,-107.0,40.767799,-111.835808,180
2025-01-20 02:03:19.421,-105.4,40.767799,-111.835808,180
2025-01-20 02:03:19.931,-106.8,40.767826,-111.835793,180
2025-01-20 02:03:20.473,-104.9,40.767826,-111.835793,180
2025-01-20 02:03:21.010,-108.4,40.76786,-111.83577,180
2025-01-20 02:03:21.520,-103.9,40.76786,-111.83577,180
2025-01-20 02:03:22.025,-104.3,40.767891,-111.835739,180
2025-01-20 02:03:22.544,-100.9,40.767891,-111.835739,180
2025-01-20 02:03:23.063,-99.6,40.767921,-111.835716,180
2025-01-20 02:03:23.597,-97.4,40.767921,-111.835716,180
2025-01-20 02:03:24.122,-103.2,40.767948,-111.835709,180
2025-01-20 02:03:24.622,-103.6,40.767948,-111.835709,180
2025-01-20 02:03:25.133,-103.7,40.767971,-111.835716,180
2025-01-20 02:03:25.649,-97.3,40.767971,-111.835716,180
2025-01-20 02:03:26.181,-97.9,40.767986,-111.835732,180
2025-01-20 02:03:26.708,-95.2,40.767986,-111.835732,180
2025-01-20 02:03:27.229,-98.3,40.767994,-111.83577,180
2025-01-20 02:03:27.748,-94.9,40.767994,-111.83577,180
2025-01-20 02:03:28.268,-108.4,40.76799,-111.835815,180
2025-01-20 02:03:28.794,-95.6,40.76799,-111.835815,180
2025-01-20 02:03:29.315,-101.4,40.767979,-111.835861,180
2025-01-20 02:03:29.837,-101.2,40.767963,-111.835915,180
2025-01-20 02:03:30.344,-101.3,40.767963,-111.835915,180
2025-01-20 02:03:30.870,-99.5,40.767948,-111.835968,180
2025-01-20 02:03:31.403,-108.1,40.767948,-111.835968,180
2025-01-20 02:03:31.924,-101.6,40.767944,-111.836014,180
2025-01-20 02:03:32.448,-106.7,40.767944,-111.836014,180
2025-01-20 02:03:32.985,-109.6,40.767944,-111.836075,180
2025-01-20 02:03:33.493,-115.3,40.767944,-111.836075,180
2025-01-20 02:03:34.024,-114.1,40.767956,-111.836128,180
2025-01-20 02:03:34.528,-115.9,40.767956,-111.836128,180
2025-01-20 02:03:35.029,-114.7,40.767975,-111.836189,180
2025-01-20 02:03:35.554,-116.2,40.767975,-111.836189,180
2025-01-20 02:03:36.058,-115.4,40.768005,-111.83625,180
2025-01-20 02:03:36.565,-115.1,40.768005,-111.83625,180
2025-01-20 02:03:37.099,-114.3,40.768047,-111.836304,180
2025-01-20 02:03:37.634,-114.1,40.768047,-111.836304,180
2025-01-20 02:03:38.164,-114.5,40.768093,-111.836357,180
2025-01-20 02:03:38.669,-113.1,40.768093,-111.836357,180
2025-01-20 02:03:39.178,-113.1,40.768143,-111.836403,180
2025-01-20 02:03:39.700,-114.7,40.768143,-111.836403,180
2025-01-20 02:03:40.220,-114.2,40.768196,-111.836464,180
2025-01-20 02:03:40.754,-117.4,40.768196,-111.836464,180
2025-01-20 02:03:41.290,-115.6,40.768246,-111.836517,180
2025-01-20 02:03:41.792,-115.9,40.768246,-111.836517,180
2025-01-20 02:03:42.304,-116.1,40.768299,-111.836578,180
2025-01-20 02:03:42.814,-116.3,40.768299,-111.836578,180
2025-01-20 02:03:43.340,-114.8,40.768345,-111.836647,180
2025-01-20 02:03:43.848,-116.1,40.768391,-111.836716,180
2025-01-20 02:03:44.348,-115.8,40.768391,-111.836716,180
2025-01-20 02:03:44.850,-115.5,40.768433,-111.836784,180
2025-01-20 02:03:45.381,-113.4,40.768433,-111.836784,180
2025-01-20 02:03:45.903,-113.3,40.768478,-111.836853,180
2025-01-20 02:03:46.409,-112.3,40.768478,-111.836853,180
2025-01-20 02:03:46.918,-114.6,40.76852,-111.836922,180
2025-01-20 02:03:47.440,-110.9,40.76852,-111.836922,180
2025-01-20 02:03:47.971,-114.8,40.768562,-111.836998,180
2025-01-20 02:03:48.502,-116.1,40.768562,-111.836998,180
2025-01-20 02:03:49.035,-113.7,40.768604,-111.837067,180
2025-01-20 02:03:49.563,-114.1,40.768604,-111.837067,180
2025-01-20 02:03:50.097,-112.3,40.768646,-111.837135,180
2025-01-20 02:03:50.619,-113.7,40.768646,-111.837135,180
2025-01-20 02:03:51.139,-114.1,40.768688,-111.837204,180
2025-01-20 02:03:51.678,-116.0,40.768688,-111.837204,180
2025-01-20 02:03:52.182,-112.3,40.76873,-111.837265,180
2025-01-20 02:03:52.683,-109.6,40.76873,-111.837265,180
2025-01-20 02:03:53.185,-108.1,40.768772,-111.837334,180
2025-01-20 02:03:53.709,-111.2,40.768772,-111.837334,180
2025-01-20 02:03:54.222,-113.4,40.768814,-111.837402,180
2025-01-20 02:03:54.755,-117.2,40.768814,-111.837402,180
2025-01-20 02:03:55.274,-113.6,40.768852,-111.837463,180
2025-01-20 02:03:55.808,-113.6,40.768852,-111.837463,180
2025-01-20 02:03:56.329,-113.0,40.768894,-111.837532,180
2025-01-20 02:03:56.859,-116.9,40.768932,-111.837593,180
2025-01-20 02:03:57.368,-114.2,40.768932,-111.837593,180
2025-01-20 02:03:57.908,-116.7,40.768974,-111.837662,180
2025-01-20 02:03:58.420,-114.1,40.768974,-111.837662,180
2025-01-20 02:03:58.935,-114.0,40.769012,-111.83773,180
2025-01-20 02:03:59.480,-116.6,40.769012,-111.83773,180
2025-01-20 02:04:00.013,-114.5,40.769054,-111.837799,180
2025-01-20 02:04:00.555,-112.6,40.769054,-111.837799,180
2025-01-20 02:04:01.073,-111.4,40.769096,-111.837868,180
2025-01-20 02:04:01.608,-110.0,40.769096,-111.837868,180
2025-01-20 02:04:02.109,-109.9,40.769138,-111.837936,180
2025-01-20 02:04:02.644,-108.2,40.769138,-111.837936,180
2025-01-20 02:04:03.148,-110.6,40.769184,-111.837997,180
2025-01-20 02:04:03.649,-110.1,40.769184,-111.837997,180
2025-01-20 02:04:04.168,-109.1,40.769234,-111.838058,180
2025-01-20 02:04:04.679,-108.6,40.769234,-111.838058,180
2025-01-20 02:04:05.183,-106.5,40.769283,-111.83812,180
2025-01-20 02:04:05.695,-109.0,40.769283,-111.83812,180
2025-01-20 02:04:06.239,-108.5,40.769337,-111.838181,180
2025-01-20 02:04:06.754,-108.6,40.769337,-111.838181,180
2025-01-20 02:04:07.276,-111.9,40.76939,-111.838242,180
2025-01-20 02:04:07.814,-109.3,40.76939,-111.838242,180
2025-01-20 02:04:08.324,-110.3,40.76944,-111.83831,180
2025-01-20 02:04:08.829,-111.5,40.769493,-111.838371,180
2025-01-20 02:04:09.355,-110.6,40.769493,-111.838371,180
2025-01-20 02:04:09.881,-106.9,40.769547,-111.838425,180
2025-01-20 02:04:10.384,-108.9,40.769547,-111.838425,180
2025-01-20 02:04:10.893,-111.3,40.7696,-111.838486,180
2025-01-20 02:04:11.400,-109.6,40.7696,-111.838486,180
2025-01-20 02:04:11.904,-110.0,40.769653,-111.838539,180
2025-01-20 02:04:12.438,-111.5,40.769653,-111.838539,180
2025-01-20 02:04:12.948,-109.9,40.769703,-111.838593,180
2025-01-20 02:04:13.477,-109.8,40.769703,-111.838593,180
2025-01-20 02:04:13.987,-107.4,40.769749,-111.838646,180
2025-01-20 02:04:14.501,-108.5,40.769749,-111.838646,180
2025-01-20 02:04:15.009,-109.7,40.769791,-111.838684,180
2025-01-20 02:04:15.513,-106.0,40.769791,-111.838684,180
2025-01-20 02:04:16.018,-107.4,40.769821,-111.838722,180
2025-01-20 02:04:16.528,-103.8,40.769821,-111.838722,180
2025-01-20 02:04:17.048,-104.7,40.769844,-111.838737,180
2025-01-20 02:04:17.569,-106.1,40.769844,-111.838737,180
2025-01-20 02:04:18.096,-109.5,40.769852,-111.838753,180
2025-01-20 02:04:18.638,-108.4,40.769852,-111.838753,180
2025-01-20 02:04:19.143,-108.4,40.769855,-111.838753,180
2025-01-20 02:04:19.650,-107.9,40.769855,-111.838753,180
2025-01-20 02:04:20.190,-107.4,40.769855,-111.838753,180
2025-01-20 02:04:20.723,-108.3,40.769855,-111.838753,180
2025-01-20 02:04:21.268,-108.0,40.769855,-111.838753,180
2025-01-20 02:04:21.804,-108.6,40.769855,-111.838753,180
2025-01-20 02:04:22.305,-108.4,40.769855,-111.838753,180
2025-01-20 02:04:22.828,-108.3,40.769855,-111.838753,180
2025-01-20 02:04:23.363,-108.3,40.769855,-111.838753,180
2025-01-20 02:04:23.885,-108.3,40.769855,-111.838753,180
2025-01-20 02:04:24.403,-108.0,40.769855,-111.838753,180
2025-01-20 02:04:24.924,-108.4,40.769855,-111.838753,180
2025-01-20 02:04:25.432,-108.1,40.769855,-111.838753,180
2025-01-20 02:04:25.968,-108.0,40.769855,-111.838753,180
2025-01-20 02:04:26.501,-109.0,40.769855,-111.838753,180
2025-01-20 02:04:27.033,-107.9,40.769859,-111.838753,180
2025-01-20 02:04:27.543,-109.3,40.769859,-111.838753,180
2025-01-20 02:04:28.053,-110.3,40.769867,-111.83876,180
2025-01-20 02:04:28.588,-108.8,40.769867,-111.83876,180
2025-01-20 02:04:29.108,-108.2,40.769886,-111.838776,180
2025-01-20 02:04:29.613,-109.9,40.769886,-111.838776,180
2025-01-20 02:04:30.128,-111.1,40.76992,-111.838814,180
2025-01-20 02:04:30.642,-109.9,40.76992,-111.838814,180
2025-01-20 02:04:31.154,-109.4,40.769962,-111.83886,180
2025-01-20 02:04:31.674,-111.6,40.769962,-111.83886,180
2025-01-20 02:04:32.213,-111.3,40.770012,-111.838913,180
2025-01-20 02:04:32.743,-114.6,40.770012,-111.838913,180
2025-01-20 02:04:33.272,-116.0,40.770065,-111.838974,180
2025-01-20 02:04:33.808,-116.6,40.770065,-111.838974,180
2025-01-20 02:04:34.333,-116.3,40.770126,-111.839043,180
2025-01-20 02:04:34.854,-117.1,40.770195,-111.839111,180
2025-01-20 02:04:35.369,-116.7,40.770195,-111.839111,180
2025-01-20 02:04:35.894,-117.3,40.770264,-111.839188,180
2025-01-20 02:04:36.402,-117.7,40.770264,-111.839188,180
2025-01-20 02:04:36.907,-117.8,40.770336,-111.839256,180
2025-01-20 02:04:37.429,-116.4,40.770336,-111.839256,180
2025-01-20 02:04:37.939,-117.9,40.770409,-111.839333,180
2025-01-20 02:04:38.448,-117.8,40.770409,-111.839333,180
2025-01-20 02:04:38.969,-117.4,40.770481,-111.839409,180
2025-01-20 02:04:39.485,-117.6,40.770481,-111.839409,180
2025-01-20 02:04:40.022,-117.9,40.770554,-111.839485,180
2025-01-20 02:04:40.532,-115.8,40.770554,-111.839485,180
2025-01-20 02:04:41.059,-117.4,40.770622,-111.839561,180
2025-01-20 02:04:41.593,-117.8,40.770622,-111.839561,180
2025-01-20 02:04:42.123,-116.7,40.770691,-111.83963,180
2025-01-20 02:04:42.628,-115.6,40.770691,-111.83963,180
2025-01-20 02:04:43.148,-111.5,40.77076,-111.839706,180
2025-01-20 02:04:43.648,-109.8,40.77076,-111.839706,180
2025-01-20 02:04:44.167,-110.7,40.770828,-111.839775,180
2025-01-20 02:04:44.702,-107.9,40.770828,-111.839775,180
2025-01-20 02:04:45.238,-114.4,40.770893,-111.839844,180
2025-01-20 02:04:45.773,-115.7,40.770893,-111.839844,180
2025-01-20 02:04:46.292,-114.6,40.770962,-111.839905,180
2025-01-20 02:04:46.794,-113.4,40.770962,-111.839905,180
2025-01-20 02:04:47.305,-116.0,40.77103,-111.839966,180
2025-01-20 02:04:47.830,-116.3,40.771095,-111.840027,180
2025-01-20 02:04:48.378,-118.4,40.771095,-111.840027,180
2025-01-20 02:04:48.883,-121.3,40.771164,-111.840088,180
2025-01-20 02:04:49.429,-118.6,40.771164,-111.840088,180
2025-01-20 02:04:49.962,-118.7,40.771229,-111.840141,180
2025-01-20 02:04:50.493,-118.7,40.771229,-111.840141,180
2025-01-20 02:04:51.026,-121.2,40.771297,-111.840195,180
2025-01-20 02:04:51.554,-117.6,40.771297,-111.840195,180
2025-01-20 02:04:52.055,-117.1,40.771366,-111.840248,180
2025-01-20 02:04:52.577,-114.1,40.771366,-111.840248,180
2025-01-20 02:04:53.079,-115.8,40.771431,-111.840294,180
2025-01-20 02:04:53.582,-112.0,40.771431,-111.840294,180
2025-01-20 02:07:24.583,-119.9,40.771851,-111.834793,180
2025-01-20 02:07:26.111,-112.1,40.771839,-111.834663,180
2025-01-20 02:07:27.167,-114.3,40.771832,-111.83461,180
2025-01-20 02:07:28.188,-116.1,40.771816,-111.834557,180
2025-01-20 02:07:28.709,-108.6,40.771816,-111.834557,180
2025-01-20 02:07:29.211,-118.3,40.771793,-111.834503,180
2025-01-20 02:07:29.717,-112.9,40.771793,-111.834503,180
2025-01-20 02:07:30.252,-116.8,40.77177,-111.834465,180
2025-01-20 02:07:30.758,-115.8,40.77177,-111.834465,180
2025-01-20 02:07:31.272,-117.3,40.77174,-111.834419,180
2025-01-20 02:07:31.777,-116.5,40.77174,-111.834419,180
2025-01-20 02:07:32.288,-114.8,40.771706,-111.834381,180
2025-01-20 02:07:32.807,-119.8,40.771706,-111.834381,180
2025-01-20 02:07:33.349,-114.3,40.771667,-111.834335,180
2025-01-20 02:07:33.872,-114.4,40.771629,-111.83429,180
2025-01-20 02:07:34.376,-113.3,40.771629,-111.83429,180
2025-01-20 02:07:34.892,-120.7,40.771591,-111.834244,180
2025-01-20 02:07:35.427,-119.9,40.771591,-111.834244,180
2025-01-20 02:07:35.927,-115.0,40.771553,-111.83419,180
2025-01-20 02:07:36.437,-113.8,40.771553,-111.83419,180
2025-01-20 02:07:36.956,-119.3,40.771515,-111.834145,180
2025-01-20 02:07:37.492,-117.8,40.771515,-111.834145,180
2025-01-20 02:07:38.026,-118.3,40.771481,-111.834091,180
2025-01-20 02:07:38.542,-122.6,40.771481,-111.834091,180
2025-01-20 02:07:39.071,-120.5,40.771442,-111.834038,180
2025-01-20 02:07:39.607,-114.3,40.771442,-111.834038,180
2025-01-20 02:07:40.127,-111.8,40.771404,-111.833984,180
2025-01-20 02:07:40.632,-113.1,40.771404,-111.833984,180
2025-01-20 02:07:41.142,-120.4,40.77137,-111.833931,180
2025-01-20 02:07:41.642,-124.4,40.77137,-111.833931,180
2025-01-20 02:07:42.142,-123.3,40.771336,-111.833878,180
2025-01-20 02:07:42.657,-121.5,40.771336,-111.833878,180
2025-01-20 02:07:43.157,-118.8,40.771301,-111.833824,180
2025-01-20 02:07:43.657,-118.5,40.771301,-111.833824,180
2025-01-20 02:07:44.187,-120.8,40.771267,-111.833771,180
2025-01-20 02:07:44.690,-123.1,40.771267,-111.833771,180
2025-01-20 02:07:45.227,-124.9,40.771233,-111.833725,180
2025-01-20 02:07:45.755,-114.5,40.771233,-111.833725,180
2025-01-20 02:07:46.266,-117.1,40.771198,-111.833672,180
2025-01-20 02:07:46.780,-116.3,40.771198,-111.833672,180
2025-01-20 02:07:47.290,-118.3,40.771164,-111.833626,180
2025-01-20 02:07:47.821,-119.0,40.771133,-111.83358,180
2025-01-20 02:07:48.338,-125.4,40.771133,-111.83358,180
2025-01-20 02:07:48.846,-128.3,40.771103,-111.833534,180
2025-01-20 02:07:49.350,-128.3,40.771103,-111.833534,180
2025-01-20 02:07:49.869,-128.3,40.771072,-111.833488,180
2025-01-20 02:07:50.394,-129.8,40.771072,-111.833488,180
2025-01-20 02:07:50.929,-129.8,40.771042,-111.83345,180
2025-01-20 02:07:51.977,-129.8,40.771011,-111.833412,180
2025-01-20 02:07:54.021,-129.8,40.770947,-111.833321,180
2025-01-20 02:08:56.816,-118.4,40.768978,-111.831902,180
2025-01-20 02:09:04.072,-103.8,40.768654,-111.832092,180
2025-01-20 02:09:05.113,-102.2,40.76862,-111.832123,180
2025-01-20 02:09:08.223,-105.1,40.768528,-111.832237,180
2025-01-20 02:09:08.747,-114.1,40.768528,-111.832237,180
2025-01-20 02:09:09.289,-114.1,40.768497,-111.832275,180
2025-01-20 02:09:10.834,-116.6,40.768436,-111.832344,180
2025-01-20 02:09:11.336,-118.1,40.768436,-111.832344,180
2025-01-20 02:09:11.848,-114.5,40.76841,-111.83239,180
2025-01-20 02:09:13.906,-110.9,40.768353,-111.832466,180
2025-01-20 02:09:14.410,-110.9,40.768353,-111.832466,180
2025-01-20 02:09:15.943,-112.4,40.768291,-111.832558,180
2025-01-20 02:09:16.956,-116.9,40.768261,-111.832603,180
2025-01-20 02:09:17.462,-116.9,40.768261,-111.832603,180
2025-01-20 02:09:18.476,-115.6,40.768227,-111.832649,180
2025-01-20 02:09:18.981,-115.6,40.768196,-111.832695,180
2025-01-20 02:09:20.534,-117.8,40.768166,-111.832741,180
2025-01-20 02:09:23.093,-117.8,40.768078,-111.83287,180
2025-01-20 02:09:24.631,-117.9,40.768055,-111.832916,180
2025-01-20 02:09:29.284,-120.3,40.767937,-111.833115,180
2025-01-20 02:09:34.857,-118.3,40.767784,-111.833366,180
2025-01-20 02:10:14.137,-99.2,40.768238,-111.835327,180
2025-01-20 02:10:14.638,-100.3,40.768238,-111.835327,180
2025-01-20 02:10:15.141,-99.7,40.768242,-111.835381,180
2025-01-20 02:10:15.668,-101.4,40.768242,-111.835381,180
2025-01-20 02:10:16.189,-98.8,40.768238,-111.835434,180
2025-01-20 02:10:16.730,-94.6,40.768238,-111.835434,180
2025-01-20 02:10:17.270,-96.4,40.768227,-111.835495,180
2025-01-20 02:10:17.779,-97.2,40.768227,-111.835495,180
2025-01-20 02:10:18.284,-97.9,40.768204,-111.835548,180
2025-01-20 02:10:18.792,-95.8,40.768204,-111.835548,180
2025-01-20 02:10:19.338,-97.5,40.768169,-111.835602,180
2025-01-20 02:10:19.877,-96.1,40.768131,-111.835655,180
2025-01-20 02:10:20.420,-94.9,40.768131,-111.835655,180
2025-01-20 02:10:20.969,-94.2,40.768093,-111.835701,180
2025-01-20 02:10:22.514,-95.2,40.768055,-111.835754,180
2025-01-20 02:10:23.538,-97.8,40.768017,-111.8358,180
2025-01-20 02:10:24.582,-95.3,40.76799,-111.835846,180
2025-01-20 02:10:25.083,-95.3,40.767963,-111.835899,180
2025-01-20 02:10:26.097,-95.6,40.767948,-111.835953,180
2025-01-20 02:10:28.658,-99.4,40.767941,-111.836067,180
2025-01-20 02:10:30.173,-119.4,40.767967,-111.836189,180
2025-01-20 02:10:35.917,-115.9,40.768261,-111.836548,180
2025-01-20 02:10:38.500,-113.9,40.768372,-111.8367,180
2025-01-20 02:10:39.040,-113.8,40.768425,-111.836784,180
2025-01-20 02:10:39.559,-112.3,40.768425,-111.836784,180
2025-01-20 02:10:40.106,-110.7,40.768478,-111.836868,180
2025-01-20 02:10:41.650,-110.1,40.768532,-111.836952,180
2025-01-20 02:10:44.211,-111.3,40.768692,-111.837204,180
2025-01-20 02:10:45.236,-114.1,40.768745,-111.837288,180
2025-01-20 02:10:46.771,-104.3,40.768795,-111.837372,180
2025-01-20 02:10:47.596,-111.4,40.768845,-111.837456,180
2025-01-20 02:10:48.876,-110.8,40.76894,-111.837608,180
2025-01-20 02:10:49.767,-113.4,40.76894,-111.837608,180
2025-01-20 02:10:50.154,-113.4,40.768986,-111.837685,180
2025-01-20 02:10:50.720,-114.4,40.768986,-111.837685,180
2025-01-20 02:10:51.011,-114.4,40.769035,-111.837761,180
2025-01-20 02:10:52.719,-114.4,40.769081,-111.837837,180
2025-01-20 02:11:07.645,-111.8,40.769939,-111.838898,180
2025-01-20 02:11:08.206,-113.3,40.77,-111.838966,180
2025-01-20 02:11:08.707,-113.9,40.77,-111.838966,180
2025-01-20 02:11:09.227,-115.4,40.770065,-111.839035,180
2025-01-20 02:11:09.731,-116.3,40.770065,-111.839035,180
2025-01-20 02:11:10.240,-117.2,40.770123,-111.839096,180
2025-01-20 02:11:10.749,-116.0,40.770123,-111.839096,180
2025-01-20 02:11:11.277,-118.0,40.77018,-111.839157,180
2025-01-20 02:11:11.783,-117.0,40.77018,-111.839157,180
2025-01-20 02:11:12.305,-117.3,40.770237,-111.839211,180
2025-01-20 02:11:12.832,-116.9,40.770294,-111.839264,180
2025-01-20 02:11:13.342,-116.5,40.770294,-111.839264,180
2025-01-20 02:11:13.842,-116.5,40.770348,-111.839325,180
2025-01-20 02:11:14.317,-114.2,40.770348,-111.839325,180
2025-01-20 02:11:15.755,-114.9,40.770401,-111.839378,180
2025-01-20 02:11:16.031,-116.5,40.770454,-111.839439,180
2025-01-20 02:11:16.936,-116.5,40.770512,-111.839493,180
2025-01-20 02:11:17.137,-114.4,40.770512,-111.839493,180
2025-01-20 02:11:18.882,-114.4,40.770622,-111.839607,180
2025-01-20 02:11:19.992,-114.4,40.770676,-111.839668,180
2025-01-20 02:11:20.507,-114.4,40.770676,-111.839668,180
2025-01-20 02:11:35.197,-105.1,40.771595,-111.840454,180
2025-01-20 02:11:36.208,-100.1,40.771667,-111.840492,180
2025-01-20 02:11:37.249,-102.8,40.771736,-111.840523,180
2025-01-20 02:11:40.399,-102.6,40.771961,-111.840591,180
2025-01-20 02:11:40.932,-104.4,40.772034,-111.840607,180
2025-01-20 02:11:41.433,-103.1,40.772034,-111.840607,180
2025-01-20 02:11:41.945,-102.8,40.772106,-111.840622,180
2025-01-20 02:11:42.479,-103.3,40.772106,-111.840622,180
2025-01-20 02:11:42.996,-108.5,40.772182,-111.840645,180
2025-01-20 02:11:43.533,-112.9,40.772182,-111.840645,180
2025-01-20 02:11:43.873,-111.6,40.772251,-111.84066,180
2025-01-20 02:11:44.489,-99.5,40.772251,-111.84066,180
2025-01-20 02:11:44.862,-106.3,40.772324,-111.840668,180
2025-01-20 02:11:45.451,-104.8,40.772324,-111.840668,180
2025-01-20 02:11:46.140,-101.2,40.772396,-111.840675,180
2025-01-20 02:11:46.456,-101.3,40.772396,-111.840675,180
2025-01-20 02:11:48.230,-100.6,40.772549,-111.840683,180
2025-01-20 02:11:48.328,-101.8,40.772549,-111.840683,180
2025-01-20 02:11:49.229,-99.7,40.772633,-111.840683,180
2025-01-20 02:11:52.874,-101.7,40.772911,-111.840691,180
2025-01-20 02:11:54.154,-99.5,40.772961,-111.840714,180
2025-01-20 02:11:54.552,-99.1,40.772961,-111.840714,180
2025-01-20 02:11:55.436,-99.1,40.773003,-111.840744,180
2025-01-20 02:11:56.824,-96.4,40.77306,-111.840843,180
2025-01-20 02:11:57.993,-96.4,40.773067,-111.840912,180
2025-01-20 02:11:59.284,-99.6,40.773067,-111.840988,180
2025-01-20 02:12:00.564,-97.3,40.77306,-111.841072,180
2025-01-20 02:12:01.830,-97.3,40.773037,-111.841255,180
2025-01-20 02:12:03.124,-96.4,40.773018,-111.841347,180
2025-01-20 02:12:05.684,-94.7,40.772972,-111.84153,180
2025-01-20 02:12:06.839,-98.6,40.772915,-111.841713,180
2025-01-20 02:12:08.247,-93.4,40.772881,-111.841797,180
2025-01-20 02:12:10.803,-91.7,40.772808,-111.841957,180
2025-01-20 02:12:11.844,-100.2,40.77272,-111.84211,180
2025-01-20 02:12:12.083,-100.2,40.77272,-111.84211,180
2025-01-20 02:12:13.354,-108.2,40.772671,-111.842178,180
2025-01-20 02:12:15.913,-110.6,40.772507,-111.842354,180
2025-01-20 02:12:16.852,-113.1,40.772446,-111.842407,180
2025-01-20 02:12:17.205,-103.7,40.772446,-111.842407,180
2025-01-20 02:12:18.474,-111.3,40.772381,-111.842453,180
2025-01-20 02:12:19.753,-111.3,40.772312,-111.842491,180
2025-01-20 02:12:21.034,-116.4,40.772182,-111.842567,180
2025-01-20 02:12:21.860,-116.9,40.772121,-111.842598,180
2025-01-20 02:12:24.551,-114.8,40.771992,-111.842667,180
2025-01-20 02:12:24.875,-113.9,40.771931,-111.842697,180
2025-01-20 02:12:26.165,-105.6,40.77187,-111.842728,180
2025-01-20 02:12:27.866,-109.4,40.771744,-111.842796,180
2025-01-20 01:51:51.000,-110.6,40.769333,-111.845406,180
2025-01-20 01:51:51.582,-105.9,40.769333,-111.845406,180
2025-01-20 01:51:52.032,-111.1,40.769333,-111.845406,180
2025-01-20 01:51:52.623,-109.5,40.769333,-111.845406,180
2025-01-20 01:51:53.145,-109.5,40.769333,-111.845406,180
2025-01-20 01:51:53.630,-109.5,40.769333,-111.845406,180
2025-01-20 01:51:54.199,-109.5,40.769333,-111.845406,180
2025-01-20 01:51:54.698,-109.5,40.769333,-111.845406,180
2025-01-20 01:51:55.240,-109.5,40.769333,-111.845406,180
2025-01-20 01:51:55.773,-109.5,40.769333,-111.845406,180
2025-01-20 01:51:57.366,-106.3,40.769333,-111.845406,180
2025-01-20 01:51:57.888,-105.9,40.769333,-111.845398,180
2025-01-20 01:51:58.414,-104.6,40.769333,-111.845398,180
2025-01-20 01:51:58.914,-104.6,40.769337,-111.845367,180
2025-01-20 01:51:59.398,-104.6,40.769337,-111.845367,180
2025-01-20 01:51:59.948,-104.6,40.769344,-111.845337,180
2025-01-20 01:52:00.512,-104.6,40.769344,-111.845337,180
2025-01-20 01:52:01.021,-104.6,40.769367,-111.845299,180
2025-01-20 01:52:01.554,-104.6,40.769367,-111.845299,180
2025-01-20 01:52:02.059,-104.6,40.769405,-111.845276,180
2025-01-20 01:52:06.734,-97.3,40.769596,-111.845253,180
2025-01-20 01:52:07.292,-97.3,40.769642,-111.845253,180
2025-01-20 01:52:07.767,-96.9,40.769642,-111.845253,180
2025-01-20 01:52:08.271,-94.5,40.76968,-111.845253,180
2025-01-20 01:52:08.831,-94.5,40.76968,-111.845253,180
2025-01-20 01:52:09.352,-94.5,40.769718,-111.845253,180
2025-01-20 01:52:09.802,-94.5,40.769718,-111.845253,180
2025-01-20 01:52:10.330,-94.5,40.769745,-111.845245,180
2025-01-20 01:52:10.912,-94.5,40.769772,-111.845245,180
2025-01-20 01:52:11.387,-94.5,40.769772,-111.845245,180
2025-01-20 01:52:11.900,-94.5,40.769798,-111.84523,180
2025-01-20 01:52:18.632,-102.2,40.76984,-111.845047,180
2025-01-20 01:52:19.188,-103.6,40.76984,-111.845039,180
2025-01-20 01:52:19.706,-99.7,40.76984,-111.845039,180
2025-01-20 01:52:20.208,-97.4,40.76984,-111.845016,180
2025-01-20 01:52:20.711,-97.4,40.76984,-111.845016,180
2025-01-20 01:52:21.235,-97.3,40.769829,-111.844994,180
2025-01-20 01:52:21.692,-105.3,40.769829,-111.844994,180
2025-01-20 01:52:22.276,-103.2,40.769814,-111.844978,180
2025-01-20 01:52:22.800,-103.2,40.769814,-111.844978,180
2025-01-20 01:52:23.332,-107.5,40.769783,-111.844955,180
2025-01-20 01:52:23.843,-108.1,40.769745,-111.844948,180
2025-01-20 01:52:24.339,-107.4,40.769745,-111.844948,180
2025-01-20 01:52:24.847,-107.2,40.769691,-111.84494,180
2025-01-20 01:52:25.418,-106.4,40.769691,-111.84494,180
2025-01-20 01:52:25.956,-101.7,40.76963,-111.84494,180
2025-01-20 01:52:26.499,-107.3,40.76963,-111.84494,180
2025-01-20 01:52:26.951,-107.2,40.769562,-111.844933,180
2025-01-20 01:52:27.501,-108.0,40.769562,-111.844933,180
2025-01-20 01:52:27.994,-107.9,40.769485,-111.844925,180
2025-01-20 01:52:28.529,-106.5,40.769485,-111.844925,180
2025-01-20 01:52:29.083,-107.4,40.769409,-111.844917,180
2025-01-20 01:52:29.591,-107.4,40.769409,-111.844917,180
2025-01-20 01:52:30.101,-109.4,40.769337,-111.844902,180
2025-01-20 01:52:30.614,-110.2,40.769337,-111.844902,180
2025-01-20 01:52:31.116,-109.1,40.769268,-111.844894,180
2025-01-20 01:52:31.623,-109.8,40.769268,-111.844894,180
2025-01-20 01:52:32.135,-108.5,40.769207,-111.844879,180
2025-01-20 01:52:32.681,-109.1,40.769207,-111.844879,180
2025-01-20 01:52:33.188,-109.1,40.769154,-111.844864,180
2025-01-20 01:52:33.708,-107.8,40.769154,-111.844864,180
2025-01-20 01:52:34.237,-108.9,40.7691,-111.844849,180
2025-01-20 01:52:34.758,-110.4,40.7691,-111.844849,180
2025-01-20 01:52:35.291,-110.5,40.769047,-111.844833,180
2025-01-20 01:52:35.798,-109.8,40.769047,-111.844833,180
2025-01-20 01:52:36.312,-109.9,40.768993,-111.844818,180
2025-01-20 01:52:36.767,-108.9,40.768993,-111.844818,180
2025-01-20 01:52:37.326,-110.9,40.768944,-111.844803,180
2025-01-20 01:52:37.736,-111.4,40.768944,-111.844803,180
2025-01-20 01:52:38.349,-112.2,40.768894,-111.844788,180
2025-01-20 01:52:38.883,-110.5,40.768845,-111.844772,180
2025-01-20 01:52:39.401,-110.6,40.768845,-111.844772,180
2025-01-20 01:52:39.853,-110.6,40.768799,-111.844757,180
2025-01-20 01:52:40.448,-110.3,40.768799,-111.844757,180
2025-01-20 01:52:40.951,-110.6,40.768745,-111.844742,180
2025-01-20 01:52:41.448,-111.2,40.768745,-111.844742,180
2025-01-20 01:52:42.036,-112.3,40.768696,-111.844727,180
2025-01-20 01:52:42.494,-111.7,40.768696,-111.844727,180
2025-01-20 01:52:43.041,-110.8,40.768642,-111.844711,180
2025-01-20 01:52:43.562,-112.1,40.768642,-111.844711,180
2025-01-20 01:52:44.091,-112.9,40.768589,-111.844696,180
2025-01-20 01:52:44.671,-113.7,40.768589,-111.844696,180
2025-01-20 01:52:45.183,-113.1,40.768536,-111.844673,180
2025-01-20 01:52:45.644,-112.9,40.768536,-111.844673,180
2025-01-20 01:52:46.212,-112.9,40.768486,-111.844658,180
2025-01-20 01:52:46.750,-112.1,40.768486,-111.844658,180
2025-01-20 01:52:47.282,-113.6,40.76844,-111.844643,180
2025-01-20 01:52:47.825,-113.1,40.76844,-111.844643,180
2025-01-20 01:52:48.363,-114.2,40.768391,-111.844627,180
2025-01-20 01:52:48.867,-113.6,40.768345,-111.844612,180
2025-01-20 01:52:49.347,-116.1,40.768345,-111.844612,180
2025-01-20 01:52:49.933,-114.8,40.768299,-111.844604,180
2025-01-20 01:52:50.431,-115.3,40.768299,-111.844604,180
2025-01-20 01:52:50.936,-112.6,40.768253,-111.844589,180
2025-01-20 01:52:51.501,-113.3,40.768253,-111.844589,180
2025-01-20 01:52:52.023,-114.8,40.768204,-111.844574,180
2025-01-20 01:52:52.569,-114.8,40.768204,-111.844574,180
2025-01-20 01:52:53.037,-113.9,40.768162,-111.844559,180
2025-01-20 01:52:53.624,-114.3,40.768162,-111.844559,180
2025-01-20 01:52:54.171,-113.8,40.768116,-111.844551,180
2025-01-20 01:52:54.628,-113.3,40.768116,-111.844551,180
2025-01-20 01:52:55.203,-115.5,40.76807,-111.844536,180
2025-01-20 01:52:56.206,-112.6,40.768024,-111.844528,180
2025-01-20 01:52:56.788,-113.5,40.768024,-111.844528,180
2025-01-20 01:52:57.292,-111.3,40.767979,-111.844513,180
2025-01-20 01:52:57.815,-111.3,40.767979,-111.844513,180
2025-01-20 01:52:58.340,-111.3,40.767933,-111.844505,180
2025-01-20 01:52:58.851,-111.3,40.767887,-111.844498,180
2025-01-20 01:53:59.305,-116.1,40.765553,-111.84494,180
2025-01-20 01:54:00.352,-113.5,40.765533,-111.844978,180
2025-01-20 01:54:00.861,-114.1,40.765514,-111.845016,180
2025-01-20 01:54:01.393,-112.9,40.765514,-111.845016,180
2025-01-20 01:54:01.896,-112.6,40.765488,-111.845047,180
2025-01-20 01:54:02.360,-112.9,40.765488,-111.845047,180
2025-01-20 01:54:02.929,-112.6,40.765465,-111.845085,180
2025-01-20 01:54:03.459,-112.1,40.765465,-111.845085,180
2025-01-20 01:54:03.918,-113.3,40.765434,-111.845116,180
2025-01-20 01:54:04.489,-113.8,40.765434,-111.845116,180
2025-01-20 01:54:05.020,-113.8,40.765408,-111.845146,180
2025-01-20 01:54:05.550,-113.5,40.765408,-111.845146,180
2025-01-20 01:54:05.954,-113.9,40.765377,-111.845177,180
2025-01-20 01:54:06.563,-113.8,40.765377,-111.845177,180
2025-01-20 01:54:07.095,-115.9,40.765347,-111.845207,180
2025-01-20 01:54:07.599,-116.9,40.765347,-111.845207,180
2025-01-20 01:54:08.080,-115.4,40.765312,-111.84523,180
2025-01-20 01:54:08.654,-116.2,40.765312,-111.84523,180
2025-01-20 01:54:09.176,-116.2,40.765282,-111.845245,180
2025-01-20 01:54:09.680,-116.1,40.765282,-111.845245,180
2025-01-20 01:54:10.200,-115.6,40.765251,-111.845261,180
2025-01-20 01:54:10.685,-115.9,40.765251,-111.845261,180
2025-01-20 01:54:34.603,-109.7,40.764641,-111.845016,180
2025-01-20 01:54:35.115,-112.3,40.764595,-111.844978,180
2025-01-20 01:54:35.645,-108.0,40.764595,-111.844978,180
2025-01-20 01:54:36.159,-109.7,40.764553,-111.84494,180
2025-01-20 01:54:36.663,-113.6,40.764553,-111.84494,180
2025-01-20 01:54:37.194,-114.9,40.764511,-111.844894,180
2025-01-20 01:54:37.733,-113.6,40.764511,-111.844894,180
2025-01-20 01:54:38.268,-116.8,40.764465,-111.844856,180
2025-01-20 01:54:38.722,-113.4,40.764465,-111.844856,180
2025-01-20 01:55:04.256,-113.9,40.764511,-111.843803,180
2025-01-20 01:55:04.897,-113.8,40.764545,-111.843773,180
2025-01-20 01:55:05.376,-112.0,40.764545,-111.843773,180
2025-01-20 01:55:05.896,-113.0,40.764584,-111.843765,180
2025-01-20 01:55:06.463,-114.7,40.764584,-111.843765,180
2025-01-20 01:55:07.005,-113.8,40.764626,-111.843773,180
2025-01-20 01:55:07.561,-113.1,40.764626,-111.843773,180
2025-01-20 01:55:07.579,-113.1,40.764626,-111.843773,180
2025-01-20 01:55:08.416,-113.1,40.764671,-111.843781,180
2025-01-20 01:55:09.107,-113.9,40.764717,-111.843803,180
2025-01-20 01:55:09.692,-112.9,40.764717,-111.843803,180
2025-01-20 01:55:10.222,-111.6,40.764759,-111.843834,180
2025-01-20 01:55:10.742,-104.6,40.764759,-111.843834,180
2025-01-20 01:55:11.251,-103.8,40.764805,-111.843864,180
2025-01-20 01:55:29.807,-114.5,40.765629,-111.844398,180
2025-01-20 01:55:30.306,-113.6,40.765671,-111.844391,180
2025-01-20 01:55:30.853,-114.3,40.765709,-111.844376,180
2025-01-20 01:55:31.368,-112.0,40.765709,-111.844376,180
2025-01-20 01:55:31.870,-115.6,40.765739,-111.844353,180
2025-01-20 01:55:32.408,-115.9,40.765739,-111.844353,180
2025-01-20 01:55:32.913,-115.6,40.765774,-111.84433,180
2025-01-20 01:55:33.418,-113.4,40.765774,-111.84433,180
2025-01-20 01:55:33.957,-113.4,40.765804,-111.844307,180
2025-01-20 01:55:34.481,-115.3,40.765804,-111.844307,180
2025-01-20 01:55:36.053,-115.1,40.765869,-111.844254,180
2025-01-20 01:55:36.530,-113.2,40.765869,-111.844254,180
2025-01-20 01:55:37.111,-113.4,40.7659,-111.844231,180
2025-01-20 01:55:37.653,-110.5,40.7659,-111.844231,180
2025-01-20 01:55:37.814,-111.3,40.7659,-111.844231,180
2025-01-20 01:55:38.492,-114.1,40.765938,-111.844208,180
2025-01-20 01:55:39.133,-114.1,40.765976,-111.844185,180
2025-01-20 01:55:39.453,-113.9,40.765976,-111.844185,180
2025-01-20 01:55:40.092,-113.9,40.766022,-111.84417,180
2025-01-20 01:55:40.731,-113.9,40.766022,-111.84417,180
2025-01-20 01:55:41.369,-113.9,40.766064,-111.844154,180
2025-01-20 01:55:41.880,-113.9,40.766109,-111.844147,180
2025-01-20 01:55:42.404,-113.9,40.766109,-111.844147,180
2025-01-20 01:55:42.923,-113.8,40.766159,-111.844147,180
2025-01-20 01:55:43.393,-110.8,40.766159,-111.844147,180
2025-01-20 01:55:43.903,-111.5,40.766209,-111.844147,180
2025-01-20 01:55:44.461,-111.5,40.766209,-111.844147,180
2025-01-20 01:55:44.988,-111.5,40.766258,-111.844147,180
2025-01-20 01:55:45.512,-111.5,40.766258,-111.844147,180
2025-01-20 01:55:46.053,-111.5,40.766308,-111.844147,180
2025-01-20 01:55:46.590,-111.5,40.766308,-111.844147,180
2025-01-20 01:55:47.133,-109.8,40.766357,-111.844147,180
2025-01-20 01:55:47.645,-111.8,40.766357,-111.844147,180
2025-01-20 01:55:48.163,-111.8,40.766403,-111.844147,180
2025-01-20 01:55:48.684,-111.8,40.766403,-111.844147,180
2025-01-20 01:55:49.224,-111.8,40.766449,-111.844147,180
2025-01-20 01:55:49.712,-111.8,40.766449,-111.844147,180
2025-01-20 01:55:50.283,-111.8,40.766499,-111.844147,180
2025-01-20 01:55:50.786,-111.8,40.766499,-111.844147,180
2025-01-20 01:55:51.328,-111.8,40.766541,-111.844147,180
2025-01-20 01:55:56.590,-108.7,40.766769,-111.844177,180
2025-01-20 01:55:57.063,-110.3,40.766815,-111.844185,180
2025-01-20 01:55:57.643,-111.2,40.766815,-111.844185,180
2025-01-20 01:55:58.143,-109.0,40.766861,-111.8442,180
2025-01-20 01:55:58.666,-108.9,40.766861,-111.8442,180
2025-01-20 01:55:59.175,-108.9,40.766911,-111.844208,180
2025-01-20 01:55:59.714,-108.9,40.766911,-111.844208,180
2025-01-20 01:56:00.243,-108.9,40.766953,-111.844223,180
2025-01-20 01:56:00.722,-108.9,40.766953,-111.844223,180
2025-01-20 01:56:01.315,-108.9,40.766994,-111.844231,180
2025-01-20 01:56:01.725,-108.9,40.766994,-111.844231,180
2025-01-20 01:56:02.324,-108.9,40.767033,-111.844246,180
2025-01-20 01:56:04.438,-111.3,40.767113,-111.844269,180
2025-01-20 01:56:04.839,-111.3,40.767155,-111.844276,180
2025-01-20 01:56:05.441,-111.3,40.767155,-111.844276,180
2025-01-20 01:56:05.965,-111.3,40.767193,-111.844284,180
2025-01-20 01:56:06.422,-111.3,40.767193,-111.844284,180
2025-01-20 01:56:07.000,-111.3,40.767235,-111.844299,180
2025-01-20 01:56:07.519,-111.3,40.767235,-111.844299,180
2025-01-20 01:56:07.997,-111.3,40.767277,-111.844315,180
2025-01-20 01:56:16.289,-114.5,40.767677,-111.844414,180
2025-01-20 01:56:16.973,-114.3,40.767735,-111.844429,180
2025-01-20 01:56:17.493,-115.3,40.767735,-111.844429,180
2025-01-20 01:56:18.001,-115.3,40.767788,-111.844437,180
2025-01-20 01:56:18.527,-115.3,40.767788,-111.844437,180
2025-01-20 01:56:19.064,-115.3,40.767845,-111.844444,180
2025-01-20 01:56:34.535,-109.4,40.768707,-111.844673,180
2025-01-20 01:56:34.985,-109.6,40.768764,-111.844696,180
2025-01-20 01:56:35.561,-110.8,40.768764,-111.844696,180
2025-01-20 01:56:36.070,-109.8,40.768826,-111.844711,180
2025-01-20 01:56:36.591,-106.3,40.768826,-111.844711,180
2025-01-20 01:56:36.781,-106.3,40.768826,-111.844711,180
2025-01-20 01:56:37.461,-109.6,40.768883,-111.844727,180
2025-01-20 01:56:38.101,-110.0,40.76894,-111.844749,180
2025-01-20 01:56:38.740,-110.4,40.76894,-111.844749,180
2025-01-20 01:56:39.245,-106.4,40.768997,-111.844765,180
2025-01-20 01:56:39.792,-108.4,40.768997,-111.844765,180
2025-01-20 01:56:40.258,-107.8,40.769054,-111.84478,180
2025-01-20 01:56:40.844,-106.2,40.769112,-111.844795,180
2025-01-20 01:56:41.370,-107.3,40.769112,-111.844795,180
2025-01-20 01:56:41.894,-109.6,40.769169,-111.84481,180
2025-01-20 01:56:42.416,-106.3,40.769169,-111.84481,180
2025-01-20 01:56:42.917,-108.3,40.769226,-111.844818,180
2025-01-20 01:56:43.436,-106.7,40.769226,-111.844818,180
2025-01-20 01:56:43.975,-104.9,40.769283,-111.844826,180
2025-01-20 01:56:44.520,-105.3,40.769283,-111.844826,180
2025-01-20 01:56:45.034,-108.4,40.769344,-111.844826,180
2025-01-20 01:56:45.559,-104.7,40.769344,-111.844826,180
2025-01-20 01:56:46.089,-110.2,40.769402,-111.844833,180
2025-01-20 01:56:46.620,-107.4,40.769402,-111.844833,180
2025-01-20 01:56:47.164,-108.3,40.769459,-111.844841,180
2025-01-20 01:56:47.624,-105.9,40.769459,-111.844841,180
2025-01-20 01:56:48.185,-105.2,40.769516,-111.844841,180
2025-01-20 01:56:48.670,-101.8,40.769516,-111.844841,180
2025-01-20 01:56:49.239,-106.6,40.769577,-111.844841,180
2025-01-20 01:56:49.710,-104.6,40.769577,-111.844841,180
2025-01-20 01:56:50.228,-105.5,40.769638,-111.844841,180
2025-01-20 01:56:50.819,-105.5,40.769638,-111.844841,180
2025-01-20 01:56:51.282,-103.2,40.769695,-111.844841,180
2025-01-20 01:56:51.857,-103.2,40.769756,-111.844841,180
2025-01-20 01:56:52.357,-96.4,40.769756,-111.844841,180
2025-01-20 01:56:52.888,-96.4,40.769814,-111.844849,180
2025-01-20 01:56:53.347,-96.4,40.769814,-111.844849,180
2025-01-20 01:56:53.864,-96.4,40.769875,-111.844849,180
2025-01-20 01:56:54.400,-96.4,40.769875,-111.844849,180
2025-01-20 01:56:54.991,-106.0,40.769932,-111.844849,180
2025-01-20 01:56:55.499,-104.6,40.769932,-111.844849,180
2025-01-20 01:56:55.965,-104.3,40.769989,-111.844849,180
2025-01-20 01:56:56.470,-102.1,40.769989,-111.844849,180
2025-01-20 01:56:57.040,-104.1,40.770046,-111.844849,180
2025-01-20 01:56:57.544,-105.8,40.770046,-111.844849,180
2025-01-20 01:56:58.039,-107.8,40.770107,-111.844849,180
2025-01-20 01:56:58.629,-105.1,40.770107,-111.844849,180
2025-01-20 01:56:59.132,-106.5,40.770168,-111.844849,180
2025-01-20 01:56:59.642,-106.8,40.770168,-111.844849,180
2025-01-20 01:57:00.156,-105.8,40.770229,-111.844849,180
2025-01-20 01:57:00.646,-104.0,40.770229,-111.844849,180
2025-01-20 01:57:01.211,-104.8,40.77029,-111.844849,180
2025-01-20 01:57:01.674,-103.5,40.77029,-111.844849,180
2025-01-20 01:57:02.236,-105.7,40.770351,-111.844849,180
2025-01-20 01:57:02.764,-104.7,40.770351,-111.844849,180
2025-01-20 01:57:03.285,-105.6,40.770412,-111.844849,180
2025-01-20 01:57:03.804,-107.1,40.770412,-111.844849,180
2025-01-20 01:57:04.269,-103.4,40.770477,-111.844849,180
2025-01-20 01:57:04.813,-104.8,40.770477,-111.844849,180
2025-01-20 01:57:05.404,-105.4,40.770535,-111.844849,180
2025-01-20 01:57:05.942,-104.3,40.770592,-111.844849,180
2025-01-20 01:57:06.393,-104.1,40.770592,-111.844849,180
2025-01-20 01:57:06.962,-103.8,40.770641,-111.844849,180
2025-01-20 01:57:07.465,-106.2,40.770641,-111.844849,180
2025-01-20 01:57:07.965,-103.1,40.770687,-111.844849,180
2025-01-20 01:57:08.484,-102.5,40.770687,-111.844849,180
2025-01-20 01:57:09.011,-104.9,40.770729,-111.844849,180
2025-01-20 01:57:09.521,-102.3,40.770729,-111.844849,180
2025-01-20 01:57:10.041,-102.0,40.770767,-111.844849,180
2025-01-20 01:57:10.551,-105.9,40.770767,-111.844849,180
2025-01-20 01:57:11.043,-102.5,40.770798,-111.844849,180
2025-01-20 01:57:11.545,-100.8,40.770798,-111.844849,180
2025-01-20 01:57:12.105,-103.7,40.770824,-111.844849,180
2025-01-20 01:57:12.644,-106.4,40.770824,-111.844849,180
2025-01-20 01:57:13.169,-98.6,40.770847,-111.844849,180
2025-01-20 01:57:13.633,-100.4,40.770847,-111.844849,180
2025-01-20 01:57:14.162,-100.1,40.77087,-111.844849,180
2025-01-20 01:57:14.742,-104.3,40.77087,-111.844849,180
2025-01-20 01:57:15.243,-101.7,40.770893,-111.844841,180
2025-01-20 01:57:15.754,-100.6,40.770893,-111.844841,180
2025-01-20 01:57:16.271,-99.6,40.77092,-111.844818,180
2025-01-20 01:57:16.772,-97.3,40.77092,-111.844818,180
2025-01-20 01:57:17.306,-105.0,40.770943,-111.844795,180
2025-01-20 01:57:17.822,-101.9,40.770943,-111.844795,180
2025-01-20 01:57:18.347,-100.4,40.770954,-111.844749,180
2025-01-20 01:57:18.871,-107.3,40.770962,-111.844688,180
2025-01-20 01:57:19.322,-108.7,40.770962,-111.844688,180
2025-01-20 01:57:19.849,-112.2,40.770962,-111.844627,180
2025-01-20 01:57:20.402,-110.0,40.770962,-111.844627,180
2025-01-20 01:57:20.924,-109.6,40.770958,-111.844551,180
2025-01-20 01:57:21.396,-110.8,40.770958,-111.844551,180
2025-01-20 01:57:21.954,-109.6,40.770954,-111.844467,180
2025-01-20 01:57:22.465,-108.3,40.770954,-111.844467,180
2025-01-20 01:57:23.012,-107.6,40.77095,-111.844391,180
2025-01-20 01:57:23.517,-109.4,40.77095,-111.844391,180
2025-01-20 01:57:23.972,-112.1,40.77095,-111.844307,180
2025-01-20 01:57:24.505,-112.5,40.77095,-111.844307,180
2025-01-20 01:57:25.042,-114.5,40.770947,-111.844215,180
2025-01-20 01:57:25.563,-114.4,40.770947,-111.844215,180
2025-01-20 01:57:26.084,-108.6,40.770947,-111.844131,180
2025-01-20 01:57:26.644,-107.0,40.770947,-111.844131,180
2025-01-20 01:57:27.143,-109.7,40.770947,-111.84404,180
2025-01-20 01:57:27.713,-109.2,40.770947,-111.84404,180
2025-01-20 01:57:28.198,-111.1,40.770954,-111.843956,180
2025-01-20 01:57:28.779,-107.4,40.770954,-111.843956,180
2025-01-20 01:57:29.304,-107.4,40.770962,-111.843872,180
2025-01-20 01:57:29.770,-107.4,40.770962,-111.843872,180
2025-01-20 01:57:30.326,-108.3,40.770977,-111.843788,180
2025-01-20 01:57:30.822,-106.9,40.770977,-111.843788,180
2025-01-20 01:57:31.395,-107.6,40.770992,-111.843704,180
2025-01-20 01:57:31.903,-111.3,40.771011,-111.843628,180
2025-01-20 01:57:32.416,-104.4,40.771011,-111.843628,180
2025-01-20 01:57:32.886,-105.1,40.771034,-111.843552,180
2025-01-20 01:57:33.460,-106.1,40.771034,-111.843552,180
2025-01-20 01:57:33.915,-107.9,40.771057,-111.843475,180
2025-01-20 01:57:34.495,-104.8,40.771057,-111.843475,180
2025-01-20 01:57:34.997,-105.8,40.77108,-111.843407,180
2025-01-20 01:57:35.466,-106.6,40.77108,-111.843407,180
2025-01-20 01:57:36.037,-106.6,40.771107,-111.843346,180
2025-01-20 01:57:36.547,-106.6,40.771107,-111.843346,180
2025-01-20 01:57:37.063,-103.3,40.771126,-111.843285,180
2025-01-20 01:57:37.554,-107.0,40.771126,-111.843285,180
2025-01-20 01:57:38.080,-107.0,40.771137,-111.843224,180
2025-01-20 01:57:38.600,-102.3,40.771137,-111.843224,180
2025-01-20 01:57:39.176,-105.6,40.771137,-111.84317,180
2025-01-20 01:57:39.631,-107.3,40.771137,-111.84317,180
2025-01-20 01:57:40.134,-112.3,40.771126,-111.843117,180
2025-01-20 01:57:40.644,-108.6,40.771126,-111.843117,180
2025-01-20 01:57:41.223,-103.6,40.771099,-111.843063,180
2025-01-20 01:57:41.765,-104.3,40.771099,-111.843063,180
2025-01-20 01:57:42.281,-110.8,40.771061,-111.843025,180
2025-01-20 01:57:42.755,-110.6,40.771061,-111.843025,180
2025-01-20 01:57:43.311,-110.3,40.771015,-111.842987,180
2025-01-20 01:57:43.809,-112.7,40.771015,-111.842987,180
2025-01-20 01:57:44.349,-110.7,40.770958,-111.842949,180
2025-01-20 01:57:44.820,-110.3,40.770958,-111.842949,180
2025-01-20 01:57:45.328,-109.9,40.770901,-111.842911,180
2025-01-20 01:57:45.848,-109.0,40.77084,-111.84288,180
2025-01-20 01:57:46.375,-107.7,40.77084,-111.84288,180
2025-01-20 01:57:46.888,-107.7,40.770775,-111.842842,180
2025-01-20 01:57:47.442,-107.7,40.770775,-111.842842,180
2025-01-20 01:57:47.972,-103.5,40.77071,-111.842804,180
2025-01-20 01:57:48.450,-109.7,40.77071,-111.842804,180
2025-01-20 01:57:48.965,-109.1,40.770649,-111.842766,180
2025-01-20 01:57:49.529,-113.1,40.770649,-111.842766,180
2025-01-20 01:57:50.025,-107.4,40.770588,-111.84272,180
2025-01-20 01:57:50.612,-111.6,40.770588,-111.84272,180
2025-01-20 01:57:51.106,-107.4,40.770531,-111.842682,180
2025-01-20 01:57:51.665,-107.3,40.770531,-111.842682,180
2025-01-20 01:57:52.157,-106.8,40.770477,-111.842644,180
2025-01-20 01:57:52.731,-105.5,40.770477,-111.842644,180
2025-01-20 01:57:53.180,-111.6,40.770428,-111.842606,180
2025-01-20 01:57:53.736,-107.3,40.770428,-111.842606,180
2025-01-20 01:57:54.317,-108.8,40.770378,-111.842567,180
2025-01-20 01:57:54.839,-106.1,40.770332,-111.842529,180
2025-01-20 01:57:55.344,-106.1,40.770332,-111.842529,180
2025-01-20 01:57:55.857,-106.1,40.77029,-111.842499,180
2025-01-20 01:57:56.288,-106.1,40.77029,-111.842499,180
2025-01-20 01:58:15.083,-109.0,40.769642,-111.841843,180
2025-01-20 01:58:15.448,-109.4,40.769642,-111.841843,180
2025-01-20 01:58:16.258,-105.6,40.769596,-111.841789,180
2025-01-20 01:58:16.767,-105.9,40.769596,-111.841789,180
2025-01-20 01:58:17.307,-105.2,40.769554,-111.841736,180
2025-01-20 01:58:17.808,-103.4,40.769554,-111.841736,180
2025-01-20 01:58:18.300,-104.5,40.769512,-111.841682,180
2025-01-20 01:58:18.891,-104.9,40.76947,-111.841629,180
2025-01-20 01:58:19.392,-101.1,40.76947,-111.841629,180
2025-01-20 01:58:19.868,-105.7,40.769432,-111.841583,180
2025-01-20 01:58:20.357,-109.7,40.769432,-111.841583,180
2025-01-20 01:58:20.927,-108.4,40.76939,-111.84153,180
2025-01-20 01:58:21.846,-109.9,40.769352,-111.841484,180
2025-01-20 01:58:22.598,-108.8,40.769352,-111.841484,180
2025-01-20 01:58:23.081,-108.8,40.769314,-111.841438,180
2025-01-20 01:58:23.645,-108.8,40.769314,-111.841438,180
2025-01-20 01:58:24.186,-108.8,40.769276,-111.841385,180
2025-01-20 01:58:24.607,-108.8,40.769276,-111.841385,180
2025-01-20 01:58:25.247,-108.8,40.769238,-111.841339,180
2025-01-20 01:58:25.777,-108.8,40.769238,-111.841339,180
2025-01-20 01:58:26.286,-108.8,40.769203,-111.841293,180
2025-01-20 01:58:32.502,-106.2,40.769009,-111.841049,180
2025-01-20 01:58:33.072,-107.4,40.768986,-111.841026,180
2025-01-20 01:58:33.615,-105.3,40.768986,-111.841026,180
2025-01-20 01:58:34.124,-104.4,40.76897,-111.841003,180
2025-01-20 01:58:34.593,-106.0,40.76897,-111.841003,180
2025-01-20 01:58:35.149,-106.2,40.768959,-111.840988,180
2025-01-20 01:58:35.629,-106.3,40.768959,-111.840988,180
2025-01-20 01:58:36.200,-105.1,40.768944,-111.840981,180
2025-01-20 01:58:36.681,-107.3,40.768944,-111.840981,180
2025-01-20 01:58:37.196,-104.9,40.768929,-111.840958,180
2025-01-20 01:58:37.785,-105.0,40.768929,-111.840958,180
2025-01-20 01:58:38.300,-98.8,40.768898,-111.840942,180
2025-01-20 01:58:38.820,-102.3,40.768898,-111.840942,180
2025-01-20 01:58:39.345,-106.7,40.768864,-111.840927,180
2025-01-20 01:58:39.873,-106.1,40.768822,-111.840912,180
2025-01-20 01:58:40.413,-107.2,40.768822,-111.840912,180
2025-01-20 01:58:40.932,-106.2,40.768772,-111.840897,180
2025-01-20 01:58:41.450,-104.5,40.768772,-111.840897,180
2025-01-20 01:58:41.950,-105.3,40.768726,-111.840874,180
2025-01-20 01:58:42.454,-104.1,40.768726,-111.840874,180
2025-01-20 01:58:42.845,-106.9,40.768681,-111.840836,180
2025-01-20 01:58:43.210,-105.1,40.768681,-111.840836,180
2025-01-20 01:58:43.849,-103.2,40.76865,-111.84079,180
2025-01-20 01:58:44.490,-107.1,40.76865,-111.84079,180
2025-01-20 01:58:44.810,-107.1,40.76865,-111.84079,180
2025-01-20 01:58:45.630,-110.1,40.768631,-111.840736,180
2025-01-20 01:58:46.165,-109.5,40.768616,-111.840683,180
2025-01-20 01:58:46.684,-108.1,40.768616,-111.840683,180
2025-01-20 01:58:47.190,-107.4,40.768608,-111.84063,180
2025-01-20 01:58:47.720,-108.8,40.768608,-111.84063,180
2025-01-20 01:58:48.244,-106.9,40.768593,-111.840576,180
2025-01-20 01:58:48.773,-106.9,40.768593,-111.840576,180
2025-01-20 01:58:49.807,-106.1,40.768578,-111.840523,180
2025-01-20 01:58:50.311,-106.3,40.768555,-111.840469,180
2025-01-20 01:58:50.846,-102.1,40.768524,-111.840416,180
2025-01-20 01:58:51.371,-101.7,40.768524,-111.840416,180
2025-01-20 01:58:51.877,-102.8,40.768494,-111.840363,180
2025-01-20 01:58:52.407,-101.3,40.768494,-111.840363,180
2025-01-20 01:58:52.942,-104.5,40.768456,-111.840309,180
2025-01-20 01:58:53.456,-106.3,40.768456,-111.840309,180
2025-01-20 01:58:53.982,-102.4,40.768417,-111.840256,180
2025-01-20 01:58:54.487,-104.9,40.768417,-111.840256,180
2025-01-20 01:58:54.992,-104.4,40.768379,-111.840202,180
2025-01-20 01:58:55.513,-103.1,40.768379,-111.840202,180
2025-01-20 01:58:56.051,-111.6,40.768337,-111.840149,180
2025-01-20 01:58:56.557,-105.8,40.768337,-111.840149,180
2025-01-20 01:58:57.078,-107.1,40.768299,-111.840096,180
2025-01-20 01:58:57.613,-109.7,40.768299,-111.840096,180
2025-01-20 01:58:58.112,-108.8,40.768261,-111.84005,180
2025-01-20 01:58:58.648,-105.8,40.768261,-111.84005,180
2025-01-20 01:58:59.188,-104.5,40.768219,-111.840004,180
2025-01-20 01:58:59.726,-100.4,40.768219,-111.840004,180
2025-01-20 01:59:00.255,-103.3,40.768181,-111.839951,180
2025-01-20 01:59:00.786,-104.7,40.768181,-111.839951,180
2025-01-20 01:59:01.301,-104.6,40.768143,-111.839905,180
2025-01-20 01:59:01.832,-106.7,40.768108,-111.839851,180
2025-01-20 01:59:02.372,-112.8,40.768108,-111.839851,180
2025-01-20 01:59:02.915,-113.3,40.768074,-111.839806,180
2025-01-20 01:59:03.452,-107.7,40.768074,-111.839806,180
2025-01-20 01:59:03.969,-109.3,40.76804,-111.83976,180
2025-01-20 01:59:04.503,-107.9,40.76804,-111.83976,180
2025-01-20 01:59:05.008,-107.4,40.768005,-111.839722,180
2025-01-20 01:59:05.526,-108.0,40.768005,-111.839722,180
2025-01-20 01:59:06.029,-109.4,40.767975,-111.839676,180
2025-01-20 01:59:06.534,-106.0,40.767975,-111.839676,180
2025-01-20 01:59:07.039,-109.4,40.767941,-111.839638,180
2025-01-20 01:59:07.566,-104.6,40.767941,-111.839638,180
2025-01-20 01:59:08.086,-104.1,40.76791,-111.839592,180
2025-01-20 01:59:08.591,-104.0,40.76791,-111.839592,180
2025-01-20 01:59:09.110,-111.0,40.767876,-111.839546,180
2025-01-20 01:59:09.610,-112.1,40.767876,-111.839546,180
2025-01-20 01:59:10.117,-108.7,40.767838,-111.839493,180
2025-01-20 01:59:10.599,-110.1,40.767838,-111.839493,180
2025-01-20 01:59:11.171,-110.6,40.767803,-111.839447,180
2025-01-20 01:59:11.671,-114.2,40.767803,-111.839447,180
2025-01-20 01:59:12.183,-111.6,40.767765,-111.839401,180
2025-01-20 01:59:12.641,-112.5,40.767765,-111.839401,180
2025-01-20 01:59:13.220,-111.6,40.767731,-111.839355,180
2025-01-20 01:59:13.737,-114.2,40.767731,-111.839355,180
2025-01-20 01:59:17.441,-112.1,40.76757,-111.839149,180
2025-01-20 01:59:17.977,-108.8,40.767532,-111.839096,180
2025-01-20 01:59:18.506,-105.7,40.767532,-111.839096,180
2025-01-20 01:59:19.012,-113.4,40.76749,-111.839043,180
2025-01-20 01:59:19.531,-112.9,40.76749,-111.839043,180
2025-01-20 01:59:20.032,-113.1,40.767448,-111.838989,180
2025-01-20 01:59:20.556,-109.1,40.767448,-111.838989,180
2025-01-20 01:59:21.102,-112.4,40.76741,-111.838936,180
2025-01-20 01:59:21.603,-113.3,40.76741,-111.838936,180
2025-01-20 01:59:22.111,-112.0,40.767368,-111.838882,180
2025-01-20 01:59:22.572,-112.6,40.767368,-111.838882,180
2025-01-20 01:59:23.136,-113.1,40.76733,-111.838829,180
2025-01-20 01:59:23.643,-111.6,40.76733,-111.838829,180
2025-01-20 01:59:24.166,-111.6,40.767288,-111.838783,180
2025-01-20 01:59:24.712,-112.3,40.767288,-111.838783,180
2025-01-20 01:59:25.246,-112.1,40.767246,-111.83873,180
2025-01-20 01:59:25.753,-111.8,40.767246,-111.83873,180
2025-01-20 01:59:26.282,-111.4,40.767204,-111.838676,180
2025-01-20 01:59:26.803,-111.4,40.767204,-111.838676,180
2025-01-20 01:59:27.296,-111.4,40.767162,-111.838631,180
2025-01-20 01:59:27.883,-111.4,40.767124,-111.838585,180
2025-01-20 01:59:28.391,-111.4,40.767124,-111.838585,180
2025-01-20 01:59:28.892,-111.4,40.767082,-111.838539,180
2025-01-20 01:59:29.401,-111.4,40.767082,-111.838539,180
2025-01-20 01:59:29.891,-113.6,40.767044,-111.838493,180
2025-01-20 01:59:30.478,-111.5,40.767044,-111.838493,180
2025-01-20 01:59:30.997,-113.0,40.767006,-111.838448,180
2025-01-20 01:59:31.501,-113.0,40.767006,-111.838448,180
2025-01-20 01:59:32.007,-113.0,40.766972,-111.838402,180
2025-01-20 01:59:32.523,-113.0,40.766972,-111.838402,180
2025-01-20 01:59:33.004,-113.0,40.766933,-111.838364,180
2025-01-20 01:59:33.596,-113.0,40.766933,-111.838364,180
2025-01-20 01:59:34.110,-113.0,40.766899,-111.838318,180
2025-01-20 01:59:34.617,-111.9,40.766899,-111.838318,180
2025-01-20 01:59:35.122,-110.1,40.766865,-111.838272,180
2025-01-20 01:59:35.636,-110.1,40.766865,-111.838272,180
2025-01-20 01:59:36.173,-110.1,40.76683,-111.838234,180
2025-01-20 01:59:36.677,-110.1,40.76683,-111.838234,180
2025-01-20 01:59:37.212,-110.1,40.766796,-111.838196,180
2025-01-20 01:59:37.726,-110.1,40.766796,-111.838196,180
2025-01-20 01:59:38.272,-110.1,40.766758,-111.838158,180
2025-01-20 01:59:38.772,-109.1,40.766758,-111.838158,180
2025-01-20 01:59:39.303,-112.1,40.76672,-111.838112,180
2025-01-20 01:59:39.753,-108.0,40.76672,-111.838112,180
2025-01-20 01:59:40.331,-111.5,40.766682,-111.838074,180
2025-01-20 01:59:40.692,-112.1,40.766682,-111.838074,180
2025-01-20 01:59:41.251,-111.8,40.76664,-111.838028,180
2025-01-20 01:59:41.891,-109.6,40.766598,-111.837982,180
2025-01-20 01:59:42.431,-108.8,40.766598,-111.837982,180
2025-01-20 01:59:43.419,-105.8,40.766552,-111.837929,180
2025-01-20 01:59:43.943,-103.4,40.766506,-111.837875,180
2025-01-20 01:59:44.501,-105.3,40.766506,-111.837875,180
2025-01-20 01:59:45.020,-106.9,40.76646,-111.837814,180
2025-01-20 01:59:45.521,-105.1,40.76646,-111.837814,180
2025-01-20 01:59:46.033,-107.4,40.766411,-111.837761,180
2025-01-20 01:59:46.496,-108.1,40.766411,-111.837761,180
2025-01-20 02:01:22.515,-115.8,40.763355,-111.835815,180
2025-01-20 02:01:23.588,-116.1,40.763428,-111.835846,180
2025-01-20 02:02:02.599,-111.9,40.766376,-111.836601,180
2025-01-20 02:02:03.104,-111.4,40.76646,-111.836563,180
2025-01-20 02:02:03.607,-111.4,40.76646,-111.836563,180
2025-01-20 02:02:04.141,-111.4,40.766548,-111.836533,180
2025-01-20 02:02:04.665,-111.4,40.766548,-111.836533,180
2025-01-20 02:02:05.188,-112.3,40.766632,-111.836494,180
2025-01-20 02:02:05.692,-112.1,40.766632,-111.836494,180
2025-01-20 02:02:06.213,-110.1,40.76672,-111.836456,180
2025-01-20 02:02:06.752,-104.4,40.76672,-111.836456,180
2025-01-20 02:02:07.274,-105.4,40.766808,-111.836426,180
2025-01-20 02:02:07.814,-103.4,40.766808,-111.836426,180
2025-01-20 02:02:08.353,-99.4,40.766895,-111.836388,180
2025-01-20 02:02:08.856,-99.4,40.766987,-111.836357,180
2025-01-20 02:02:09.364,-100.6,40.766987,-111.836357,180
2025-01-20 02:02:09.901,-95.8,40.767075,-111.836319,180
2025-01-20 02:02:10.422,-97.9,40.767075,-111.836319,180
2025-01-20 02:02:10.962,-99.0,40.767162,-111.836288,180
2025-01-20 02:02:11.502,-98.7,40.767162,-111.836288,180
2025-01-20 02:02:12.043,-102.2,40.767246,-111.836258,180
2025-01-20 02:02:12.566,-104.0,40.767246,-111.836258,180
2025-01-20 02:02:13.084,-102.9,40.767326,-111.836235,180
2025-01-20 02:02:13.618,-102.9,40.767326,-111.836235,180
2025-01-20 02:02:14.691,-107.0,40.767399,-111.836212,180
2025-01-20 02:02:17.296,-100.5,40.76757,-111.836174,180
2025-01-20 02:02:17.824,-100.6,40.767616,-111.836159,180
2025-01-20 02:02:18.346,-101.1,40.767616,-111.836159,180
2025-01-20 02:02:18.850,-104.3,40.767654,-111.836136,180
2025-01-20 02:02:19.389,-104.3,40.767654,-111.836136,180
2025-01-20 02:02:19.899,-98.6,40.767685,-111.836105,180
2025-01-20 02:02:20.415,-98.6,40.767685,-111.836105,180
2025-01-20 02:02:20.955,-100.0,40.767708,-111.836067,180
2025-01-20 02:02:21.482,-97.2,40.767708,-111.836067,180
2025-01-20 02:02:22.028,-97.7,40.767727,-111.836029,180
2025-01-20 02:02:22.541,-99.8,40.767727,-111.836029,180
2025-01-20 02:02:23.050,-99.4,40.767738,-111.835991,180
2025-01-20 02:02:23.576,-101.9,40.767738,-111.835991,180
2025-01-20 02:02:24.089,-103.4,40.767738,-111.835945,180
2025-01-20 02:02:24.609,-104.2,40.767738,-111.835945,180
2025-01-20 02:02:25.116,-104.2,40.767735,-111.835899,180
2025-01-20 02:02:25.646,-101.1,40.767735,-111.835899,180
2025-01-20 02:02:26.195,-107.8,40.767719,-111.835869,180
2025-01-20 02:02:26.726,-110.5,40.767719,-111.835869,180
2025-01-20 02:02:27.247,-110.4,40.767704,-111.835838,180
2025-01-20 02:02:27.786,-110.4,40.767704,-111.835838,180
2025-01-20 02:02:28.310,-110.4,40.767681,-111.835808,180
2025-01-20 02:02:28.849,-110.4,40.767654,-111.835777,180
2025-01-20 02:02:29.395,-110.4,40.767654,-111.835777,180
2025-01-20 02:02:29.918,-110.4,40.767632,-111.835754,180
2025-01-20 02:02:30.447,-110.4,40.767632,-111.835754,180
2025-01-20 02:02:30.985,-110.4,40.767605,-111.835747,180
2025-01-20 02:02:34.725,-98.2,40.76754,-111.835754,180
2025-01-20 02:02:35.775,-97.1,40.767513,-111.835762,180
2025-01-20 02:02:36.282,-98.1,40.767487,-111.835762,180
2025-01-20 02:02:36.808,-96.1,40.767487,-111.835762,180
2025-01-20 02:02:37.335,-92.6,40.76746,-111.835754,180
2025-01-20 02:02:37.865,-94.4,40.767441,-111.835739,180
2025-01-20 02:02:38.385,-95.8,40.767441,-111.835739,180
2025-01-20 02:02:38.898,-92.4,40.767429,-111.835732,180
2025-01-20 02:02:39.419,-90.3,40.767429,-111.835732,180
2025-01-20 02:02:39.929,-90.5,40.767422,-111.835724,180
2025-01-20 02:02:40.469,-91.6,40.767422,-111.835724,180
2025-01-20 02:02:40.998,-93.7,40.767422,-111.835724,180
2025-01-20 02:02:41.535,-92.4,40.767422,-111.835724,180
2025-01-20 02:02:42.060,-94.3,40.767422,-111.835724,180
2025-01-20 02:02:42.584,-94.3,40.767422,-111.835724,180
2025-01-20 02:02:43.107,-92.6,40.767426,-111.835732,180
2025-01-20 02:02:43.628,-92.7,40.767426,-111.835732,180
2025-01-20 02:02:44.133,-96.4,40.767433,-111.835739,180
2025-01-20 02:02:44.644,-97.7,40.767433,-111.835739,180
2025-01-20 02:02:45.146,-94.8,40.767437,-111.835747,180
2025-01-20 02:02:45.649,-101.1,40.767437,-111.835747,180
2025-01-20 02:02:46.169,-100.9,40.767445,-111.835754,180
2025-01-20 02:02:46.673,-102.4,40.767445,-111.835754,180
2025-01-20 02:02:47.178,-101.9,40.767448,-111.835754,180
2025-01-20 02:02:47.692,-104.1,40.767448,-111.835754,180
2025-01-20 02:02:48.218,-99.9,40.767456,-111.835762,180
2025-01-20 02:02:48.759,-105.1,40.767456,-111.835762,180
2025-01-20 02:02:49.274,-104.3,40.76746,-111.835762,180
2025-01-20 02:02:49.807,-103.4,40.76746,-111.835762,180
2025-01-20 02:02:50.308,-102.2,40.767464,-111.83577,180
2025-01-20 02:02:50.848,-106.1,40.767467,-111.835777,180
2025-01-20 02:02:51.374,-106.1,40.767467,-111.835777,180
2025-01-20 02:02:51.884,-106.1,40.767471,-111.835785,180
2025-01-20 02:02:52.428,-99.3,40.767471,-111.835785,180
2025-01-20 02:02:52.939,-101.1,40.767471,-111.835785,180
2025-01-20 02:02:53.468,-98.5,40.767471,-111.835785,180
2025-01-20 02:02:53.978,-99.8,40.767471,-111.835793,180
2025-01-20 02:02:54.507,-99.3,40.767471,-111.835793,180
2025-01-20 02:04:54.618,-108.5,40.771496,-111.84034,180
2025-01-20 02:04:55.163,-104.9,40.771564,-111.840385,180
2025-01-20 02:04:55.692,-104.9,40.771564,-111.840385,180
2025-01-20 02:04:56.197,-101.9,40.771637,-111.840424,180
2025-01-20 02:04:56.737,-104.0,40.771637,-111.840424,180
2025-01-20 02:04:57.242,-101.6,40.771709,-111.840454,180
2025-01-20 02:04:57.763,-99.8,40.771709,-111.840454,180
2025-01-20 02:04:58.302,-100.1,40.771786,-111.840485,180
2025-01-20 02:04:58.825,-100.1,40.771862,-111.840508,180
2025-01-20 02:04:59.366,-102.1,40.771862,-111.840508,180
2025-01-20 02:04:59.909,-102.1,40.771938,-111.84053,180
2025-01-20 02:05:00.429,-99.8,40.771938,-111.84053,180
2025-01-20 02:05:00.955,-98.1,40.772018,-111.840553,180
2025-01-20 02:05:01.483,-101.4,40.772018,-111.840553,180
2025-01-20 02:05:02.001,-100.1,40.772099,-111.840569,180
2025-01-20 02:05:02.514,-98.5,40.772099,-111.840569,180
2025-01-20 02:05:03.052,-100.3,40.772179,-111.840576,180
2025-01-20 02:05:03.571,-101.7,40.772179,-111.840576,180
2025-01-20 02:05:04.075,-101.7,40.772259,-111.840584,180
2025-01-20 02:05:04.609,-101.7,40.772259,-111.840584,180
2025-01-20 02:05:05.112,-101.7,40.772343,-111.840591,180
2025-01-20 02:05:05.614,-101.7,40.772343,-111.840591,180
2025-01-20 02:05:06.145,-101.7,40.772423,-111.840599,180
2025-01-20 02:05:06.664,-101.7,40.772423,-111.840599,180
2025-01-20 02:05:07.185,-101.7,40.772503,-111.840599,180
2025-01-20 02:05:09.245,-100.8,40.772648,-111.840599,180
2025-01-20 02:05:09.793,-103.7,40.772648,-111.840599,180
2025-01-20 02:05:10.313,-100.8,40.772709,-111.840599,180
2025-01-20 02:05:10.822,-103.9,40.772758,-111.840599,180
2025-01-20 02:05:11.350,-100.8,40.772758,-111.840599,180
2025-01-20 02:05:11.870,-98.9,40.772793,-111.840591,180
2025-01-20 02:05:12.381,-99.5,40.772793,-111.840591,180
2025-01-20 02:05:12.905,-101.1,40.772804,-111.840591,180
2025-01-20 02:05:13.421,-99.3,40.772804,-111.840591,180
2025-01-20 02:05:13.951,-98.8,40.772808,-111.840591,180
2025-01-20 02:05:14.480,-97.8,40.772808,-111.840591,180
2025-01-20 02:05:15.021,-99.2,40.772808,-111.840591,180
2025-01-20 02:05:15.547,-98.1,40.772808,-111.840591,180
2025-01-20 02:05:16.096,-99.0,40.772812,-111.840591,180
2025-01-20 02:05:16.626,-99.6,40.772812,-111.840591,180
2025-01-20 02:05:17.153,-97.8,40.772812,-111.840591,180
2025-01-20 02:05:17.673,-98.3,40.772812,-111.840591,180
2025-01-20 02:05:18.204,-97.8,40.772812,-111.840591,180
2025-01-20 02:05:18.742,-97.6,40.772812,-111.840591,180
2025-01-20 02:05:19.250,-99.1,40.772812,-111.840591,180
2025-01-20 02:05:19.773,-97.8,40.772812,-111.840591,180
2025-01-20 02:05:20.273,-99.4,40.772812,-111.840591,180
2025-01-20 02:05:20.794,-97.9,40.772812,-111.840591,180
2025-01-20 02:05:21.328,-99.0,40.772812,-111.840591,180
2025-01-20 02:05:21.859,-98.9,40.772812,-111.840591,180
2025-01-20 02:05:22.380,-98.9,40.772812,-111.840591,180
2025-01-20 02:05:22.923,-97.6,40.772812,-111.840591,180
2025-01-20 02:05:23.436,-98.1,40.772812,-111.840591,180
2025-01-20 02:05:23.966,-101.3,40.772812,-111.840591,180
2025-01-20 02:05:24.474,-100.8,40.772812,-111.840591,180
2025-01-20 02:05:24.978,-100.8,40.77282,-111.840591,180
2025-01-20 02:05:25.506,-100.4,40.77282,-111.840591,180
2025-01-20 02:05:26.046,-103.9,40.772823,-111.840591,180
2025-01-20 02:05:26.581,-102.9,40.772823,-111.840591,180
2025-01-20 02:05:27.090,-103.1,40.772827,-111.840591,180
2025-01-20 02:05:27.611,-104.1,40.772827,-111.840591,180
2025-01-20 02:05:28.122,-101.7,40.772827,-111.840584,180
2025-01-20 02:05:28.654,-104.4,40.772827,-111.840584,180
2025-01-20 02:05:29.171,-103.1,40.772827,-111.840584,180
2025-01-20 02:05:29.695,-103.4,40.772827,-111.840584,180
2025-01-20 02:05:30.231,-101.6,40.772827,-111.840584,180
2025-01-20 02:05:30.741,-102.6,40.772827,-111.840584,180
2025-01-20 02:05:31.276,-103.6,40.772827,-111.840584,180
2025-01-20 02:05:31.796,-102.7,40.772827,-111.840584,180
2025-01-20 02:05:32.329,-104.8,40.772827,-111.840584,180
2025-01-20 02:05:32.846,-104.3,40.772827,-111.840584,180
2025-01-20 02:05:33.362,-103.8,40.772827,-111.840584,180
2025-01-20 02:05:33.901,-103.8,40.772823,-111.840584,180
2025-01-20 02:05:34.436,-101.9,40.772823,-111.840584,180
2025-01-20 02:05:34.936,-102.6,40.772823,-111.840584,180
2025-01-20 02:05:35.471,-101.7,40.772823,-111.840584,180
2025-01-20 02:05:36.010,-105.1,40.772823,-111.840584,180
2025-01-20 02:05:36.547,-103.9,40.772823,-111.840584,180
2025-01-20 02:05:37.051,-101.9,40.772823,-111.840584,180
2025-01-20 02:05:37.552,-99.9,40.772823,-111.840584,180
2025-01-20 02:05:38.056,-103.8,40.772823,-111.840584,180
2025-01-20 02:05:38.575,-102.8,40.772823,-111.840584,180
2025-01-20 02:05:39.075,-104.6,40.772827,-111.840584,180
2025-01-20 02:05:39.582,-102.6,40.772827,-111.840584,180
2025-01-20 02:05:40.115,-97.5,40.772835,-111.840584,180
2025-01-20 02:05:40.619,-100.6,40.772835,-111.840584,180
2025-01-20 02:05:41.149,-96.9,40.772842,-111.840584,180
2025-01-20 02:05:41.688,-98.3,40.772842,-111.840584,180
2025-01-20 02:05:42.199,-101.8,40.772854,-111.840576,180
2025-01-20 02:05:42.729,-96.1,40.772854,-111.840576,180
2025-01-20 02:05:43.277,-97.7,40.772865,-111.840569,180
2025-01-20 02:05:43.821,-97.6,40.772888,-111.840553,180
2025-01-20 02:05:44.351,-100.8,40.772888,-111.840553,180
2025-01-20 02:05:44.891,-98.6,40.772915,-111.840515,180
2025-01-20 02:05:45.416,-98.3,40.772915,-111.840515,180
2025-01-20 02:05:45.920,-99.7,40.772934,-111.840462,180
2025-01-20 02:05:46.425,-99.1,40.772934,-111.840462,180
2025-01-20 02:05:46.956,-102.3,40.772945,-111.840393,180
2025-01-20 02:05:47.457,-99.6,40.772945,-111.840393,180
2025-01-20 02:05:47.975,-100.6,40.772949,-111.840309,180
2025-01-20 02:05:48.491,-97.9,40.772949,-111.840309,180
2025-01-20 02:05:48.994,-97.4,40.772945,-111.840225,180
2025-01-20 02:05:49.541,-95.3,40.772945,-111.840225,180
2025-01-20 02:05:50.072,-95.9,40.772942,-111.840134,180
2025-01-20 02:05:50.575,-99.6,40.772942,-111.840134,180
2025-01-20 02:05:51.111,-100.8,40.772938,-111.84005,180
2025-01-20 02:05:51.641,-98.3,40.772938,-111.84005,180
2025-01-20 02:05:52.161,-104.8,40.77293,-111.839958,180
2025-01-20 02:05:52.705,-101.2,40.77293,-111.839958,180
2025-01-20 02:05:53.219,-100.9,40.772919,-111.839874,180
2025-01-20 02:05:53.766,-101.0,40.772919,-111.839874,180
2025-01-20 02:05:54.266,-104.1,40.772907,-111.83979,180
2025-01-20 02:05:54.800,-107.2,40.772907,-111.83979,180
2025-01-20 02:05:55.311,-104.1,40.772888,-111.839706,180
2025-01-20 02:05:55.823,-106.3,40.772888,-111.839706,180
2025-01-20 02:05:56.360,-105.1,40.772869,-111.83963,180
2025-01-20 02:05:56.881,-103.8,40.772846,-111.839561,180
2025-01-20 02:05:57.415,-109.3,40.772846,-111.839561,180
2025-01-20 02:05:57.919,-105.8,40.772827,-111.839485,180
2025-01-20 02:05:58.430,-106.3,40.772827,-111.839485,180
2025-01-20 02:05:58.944,-105.3,40.772808,-111.839417,180
2025-01-20 02:05:59.465,-106.3,40.772808,-111.839417,180
2025-01-20 02:05:59.991,-107.6,40.772789,-111.839348,180
2025-01-20 02:06:00.500,-108.1,40.772789,-111.839348,180
2025-01-20 02:06:01.036,-108.1,40.77277,-111.839279,180
2025-01-20 02:06:01.565,-108.1,40.77277,-111.839279,180
2025-01-20 02:06:02.070,-108.1,40.772751,-111.839211,180
2025-01-20 02:06:02.596,-101.6,40.772751,-111.839211,180
2025-01-20 02:06:03.140,-103.1,40.772732,-111.839142,180
2025-01-20 02:06:03.664,-104.8,40.772732,-111.839142,180
2025-01-20 02:06:04.190,-103.4,40.772717,-111.839073,180
2025-01-20 02:06:04.694,-104.2,40.772717,-111.839073,180
2025-01-20 02:06:05.224,-106.2,40.772697,-111.839005,180
2025-01-20 02:06:05.732,-103.0,40.772697,-111.839005,180
2025-01-20 02:06:06.274,-106.9,40.772682,-111.838928,180
2025-01-20 02:06:06.775,-106.9,40.772682,-111.838928,180
2025-01-20 02:06:07.312,-106.9,40.772671,-111.83886,180
2025-01-20 02:06:07.819,-106.9,40.772671,-111.83886,180
2025-01-20 02:06:08.324,-106.9,40.772667,-111.838783,180
2025-01-20 02:06:08.849,-106.9,40.772663,-111.838707,180
2025-01-20 02:06:09.379,-105.1,40.772663,-111.838707,180
2025-01-20 02:06:09.915,-104.9,40.772675,-111.838631,180
2025-01-20 02:06:10.423,-104.9,40.772675,-111.838631,180
2025-01-20 02:06:10.941,-104.9,40.772686,-111.838562,180
2025-01-20 02:06:11.480,-104.9,40.772686,-111.838562,180
2025-01-20 02:06:12.016,-103.4,40.772705,-111.838493,180
2025-01-20 02:06:12.551,-105.7,40.772705,-111.838493,180
2025-01-20 02:06:13.061,-105.9,40.77272,-111.838432,180
2025-01-20 02:06:13.569,-105.9,40.77272,-111.838432,180
2025-01-20 02:06:14.089,-105.9,40.772732,-111.838387,180
2025-01-20 02:06:14.591,-105.9,40.772732,-111.838387,180
2025-01-20 02:06:15.134,-103.8,40.772743,-111.838356,180
2025-01-20 02:06:15.659,-103.8,40.772743,-111.838356,180
2025-01-20 02:06:16.176,-104.4,40.772751,-111.838318,180
2025-01-20 02:06:16.680,-104.4,40.772751,-111.838318,180
2025-01-20 02:06:17.194,-103.1,40.772751,-111.838272,180
2025-01-20 02:06:17.741,-103.9,40.772751,-111.838272,180
2025-01-20 02:06:18.269,-102.4,40.772755,-111.838219,180
2025-01-20 02:06:18.810,-102.4,40.772755,-111.838219,180
2025-01-20 02:06:19.310,-102.4,40.772758,-111.838158,180
2025-01-20 02:06:19.839,-102.4,40.77277,-111.838104,180
2025-01-20 02:06:20.339,-102.4,40.77277,-111.838104,180
2025-01-20 02:06:20.865,-102.4,40.772793,-111.838051,180
2025-01-20 02:06:21.395,-102.4,40.772793,-111.838051,180
2025-01-20 02:06:21.895,-102.4,40.772827,-111.838005,180
2025-01-20 02:06:24.516,-103.5,40.772896,-111.837906,180
2025-01-20 02:06:25.021,-102.5,40.772923,-111.837845,180
2025-01-20 02:06:25.544,-101.3,40.772923,-111.837845,180
2025-01-20 02:06:26.067,-102.8,40.772949,-111.837791,180
2025-01-20 02:06:26.595,-104.8,40.772949,-111.837791,180
2025-01-20 02:06:27.106,-104.8,40.772972,-111.83773,180
2025-01-20 02:06:27.650,-104.5,40.772972,-111.83773,180
2025-01-20 02:06:28.185,-103.3,40.772991,-111.837677,180
2025-01-20 02:06:28.725,-100.9,40.772991,-111.837677,180
2025-01-20 02:06:29.254,-101.1,40.773006,-111.837624,180
2025-01-20 02:06:29.794,-99.7,40.773006,-111.837624,180
2025-01-20 02:06:30.300,-100.8,40.77301,-111.83757,180
2025-01-20 02:06:30.834,-101.1,40.77301,-111.837517,180
2025-01-20 02:06:31.365,-100.8,40.77301,-111.837517,180
2025-01-20 02:06:31.876,-105.4,40.77301,-111.837456,180
2025-01-20 02:06:32.380,-102.4,40.77301,-111.837456,180
2025-01-20 02:06:32.916,-103.0,40.773022,-111.837395,180
2025-01-20 02:06:33.451,-103.0,40.773022,-111.837395,180
2025-01-20 02:06:33.987,-103.3,40.773041,-111.837341,180
2025-01-20 02:06:34.524,-103.3,40.773041,-111.837341,180
2025-01-20 02:06:35.071,-103.3,40.77306,-111.83728,180
2025-01-20 02:06:35.595,-103.3,40.77306,-111.83728,180
2025-01-20 02:06:36.125,-103.8,40.773071,-111.837234,180
2025-01-20 02:06:36.670,-102.7,40.773071,-111.837234,180
2025-01-20 02:06:37.179,-102.7,40.773075,-111.837181,180
2025-01-20 02:06:37.679,-102.7,40.773075,-111.837181,180
2025-01-20 02:06:38.219,-102.7,40.773067,-111.837135,180
2025-01-20 02:06:38.762,-102.7,40.773067,-111.837135,180
2025-01-20 02:06:39.299,-102.7,40.773056,-111.83709,180
2025-01-20 02:06:39.799,-102.7,40.773056,-111.83709,180
2025-01-20 02:06:42.379,-107.9,40.773014,-111.836906,180
2025-01-20 02:06:42.885,-109.2,40.772995,-111.836838,180
2025-01-20 02:06:43.399,-110.9,40.772995,-111.836838,180
2025-01-20 02:06:43.900,-106.8,40.772976,-111.836769,180
2025-01-20 02:06:44.441,-106.8,40.772976,-111.836769,180
2025-01-20 02:06:44.960,-110.3,40.772961,-111.8367,180
2025-01-20 02:06:45.509,-109.8,40.772961,-111.8367,180
2025-01-20 02:06:46.024,-111.4,40.772949,-111.836632,180
2025-01-20 02:06:46.528,-109.8,40.772949,-111.836632,180
2025-01-20 02:06:47.052,-108.7,40.772942,-111.836563,180
2025-01-20 02:06:47.588,-110.1,40.772942,-111.836563,180
2025-01-20 02:06:48.099,-107.4,40.772942,-111.836494,180
2025-01-20 02:06:48.631,-109.1,40.772942,-111.836494,180
2025-01-20 02:06:49.148,-109.1,40.772949,-111.836426,180
2025-01-20 02:06:49.663,-109.1,40.772949,-111.836426,180
2025-01-20 02:06:50.201,-109.1,40.772961,-111.836365,180
2025-01-20 02:06:50.727,-106.2,40.772961,-111.836365,180
2025-01-20 02:06:51.230,-106.0,40.772964,-111.836296,180
2025-01-20 02:06:51.769,-108.0,40.772964,-111.836296,180
2025-01-20 02:06:52.311,-108.2,40.772968,-111.836235,180
2025-01-20 02:06:52.857,-107.9,40.772961,-111.836174,180
2025-01-20 02:06:53.395,-107.9,40.772961,-111.836174,180
2025-01-20 02:06:53.907,-110.4,40.772949,-111.836113,180
2025-01-20 02:06:54.435,-108.8,40.772949,-111.836113,180
2025-01-20 02:06:54.971,-108.8,40.772923,-111.83606,180
2025-01-20 02:06:55.495,-108.8,40.772923,-111.83606,180
2025-01-20 02:06:56.007,-113.9,40.772881,-111.836006,180
2025-01-20 02:06:56.553,-111.9,40.772881,-111.836006,180
2025-01-20 02:06:57.094,-113.6,40.772835,-111.835953,180
2025-01-20 02:06:57.596,-111.8,40.772835,-111.835953,180
2025-01-20 02:06:58.139,-113.9,40.772785,-111.835907,180
2025-01-20 02:06:58.645,-114.3,40.772785,-111.835907,180
2025-01-20 02:06:59.163,-114.3,40.772736,-111.835854,180
2025-01-20 02:06:59.696,-114.3,40.772736,-111.835854,180
2025-01-20 02:07:00.201,-114.3,40.772686,-111.835808,180
2025-01-20 02:07:00.729,-114.3,40.772686,-111.835808,180
2025-01-20 02:07:01.270,-111.1,40.77264,-111.835754,180
2025-01-20 02:07:01.809,-113.0,40.77264,-111.835754,180
2025-01-20 02:07:02.337,-108.6,40.772594,-111.835709,180
2025-01-20 02:07:02.850,-114.2,40.772549,-111.835663,180
2025-01-20 02:07:03.359,-112.3,40.772549,-111.835663,180
2025-01-20 02:07:03.860,-112.1,40.772507,-111.835617,180
2025-01-20 02:07:04.360,-112.1,40.772507,-111.835617,180
2025-01-20 02:07:04.863,-112.1,40.772469,-111.835571,180
2025-01-20 02:07:05.365,-112.9,40.772469,-111.835571,180
2025-01-20 02:07:05.880,-111.5,40.77243,-111.835533,180
2025-01-20 02:07:06.394,-111.4,40.77243,-111.835533,180
2025-01-20 02:07:06.905,-113.6,40.772396,-111.835495,180
2025-01-20 02:07:07.447,-113.6,40.772396,-111.835495,180
2025-01-20 02:07:07.983,-110.0,40.772358,-111.835464,180
2025-01-20 02:07:08.496,-111.8,40.772358,-111.835464,180
2025-01-20 02:07:09.021,-110.3,40.772316,-111.835449,180
2025-01-20 02:07:09.524,-110.2,40.772316,-111.835449,180
2025-01-20 02:07:10.025,-111.1,40.77227,-111.835434,180
2025-01-20 02:07:10.555,-114.4,40.77227,-111.835434,180
2025-01-20 02:07:11.064,-113.2,40.772224,-111.835419,180
2025-01-20 02:07:11.574,-109.8,40.772224,-111.835419,180
2025-01-20 02:07:12.074,-108.3,40.772179,-111.835403,180
2025-01-20 02:07:12.593,-112.0,40.772179,-111.835403,180
2025-01-20 02:07:13.134,-112.9,40.772133,-111.835381,180
2025-01-20 02:07:13.638,-112.3,40.772133,-111.835381,180
2025-01-20 02:07:14.167,-112.2,40.772087,-111.83535,180
2025-01-20 02:07:14.681,-113.4,40.772087,-111.83535,180
2025-01-20 02:07:15.191,-113.4,40.772045,-111.83532,180
2025-01-20 02:07:15.728,-112.4,40.772045,-111.83532,180
2025-01-20 02:07:16.249,-111.5,40.772007,-111.835274,180
2025-01-20 02:07:16.780,-107.4,40.772007,-111.835274,180
2025-01-20 02:07:17.299,-110.9,40.771973,-111.835228,180
2025-01-20 02:07:17.799,-112.8,40.771973,-111.835228,180
2025-01-20 02:07:18.312,-113.0,40.771938,-111.835175,180
2025-01-20 02:07:18.855,-111.6,40.771912,-111.835121,180
2025-01-20 02:07:19.384,-116.1,40.771912,-111.835121,180
2025-01-20 02:07:19.919,-112.1,40.771889,-111.83506,180
2025-01-20 02:07:20.455,-110.9,40.771889,-111.83506,180
2025-01-20 02:07:20.959,-113.1,40.771873,-111.834999,180
2025-01-20 02:07:21.491,-113.1,40.771873,-111.834999,180
2025-01-20 02:07:21.995,-114.3,40.771858,-111.83493,180
2025-01-20 02:07:22.498,-116.4,40.771858,-111.83493,180
2025-01-20 02:07:23.018,-114.2,40.771854,-111.834862,180
2025-01-20 02:07:23.537,-113.6,40.771854,-111.834862,180
2025-01-20 02:07:24.037,-112.5,40.771851,-111.834793,180
2025-01-20 02:08:37.532,-116.8,40.769661,-111.83194,180
2025-01-20 02:08:38.078,-113.1,40.769653,-111.831932,180
2025-01-20 02:08:38.588,-113.1,40.769653,-111.831932,180
2025-01-20 02:08:39.089,-113.1,40.769638,-111.831924,180
2025-01-20 02:08:39.600,-113.1,40.769638,-111.831924,180
2025-01-20 02:08:40.102,-113.1,40.769611,-111.831909,180
2025-01-20 02:08:41.165,-113.1,40.769585,-111.831894,180
2025-01-20 02:08:41.704,-113.1,40.769585,-111.831894,180
2025-01-20 02:08:42.229,-113.1,40.769554,-111.831886,180
2025-01-20 02:09:24.104,-110.4,40.768055,-111.832916,180
2025-01-20 02:09:35.926,-115.5,40.767761,-111.833412,180
2025-01-20 02:09:36.949,-115.5,40.767735,-111.833458,180
2025-01-20 02:09:38.980,-115.1,40.767685,-111.833565,180
2025-01-20 02:09:40.036,-115.5,40.76767,-111.833626,180
2025-01-20 02:09:48.819,-110.4,40.76775,-111.834122,180
2025-01-20 02:09:50.350,-109.2,40.76778,-111.83416,180
2025-01-20 02:09:58.083,-110.1,40.768005,-111.834412,180
2025-01-20 02:09:59.109,-109.9,40.768036,-111.83445,180
2025-01-20 02:10:00.163,-109.9,40.768063,-111.834496,180
2025-01-20 02:10:09.968,-103.3,40.768215,-111.835159,180
2025-01-20 02:10:11.000,-104.2,40.768223,-111.835213,180
2025-01-20 02:10:11.542,-100.1,40.768223,-111.835213,180
2025-01-20 02:10:54.058,-103.9,40.769173,-111.83799,180
2025-01-20 02:10:54.489,-105.9,40.769173,-111.83799,180
2025-01-20 02:10:55.041,-103.4,40.769218,-111.838066,180
2025-01-20 02:10:55.594,-105.4,40.769218,-111.838066,180
2025-01-20 02:10:56.116,-104.4,40.769268,-111.838135,180
2025-01-20 02:10:56.593,-105.3,40.769268,-111.838135,180
2025-01-20 02:10:57.038,-105.3,40.769318,-111.838203,180
2025-01-20 02:10:57.679,-101.1,40.769318,-111.838203,180
2025-01-20 02:10:57.997,-101.1,40.769375,-111.838272,180
2025-01-20 02:10:58.637,-105.5,40.769375,-111.838272,180
2025-01-20 02:10:59.278,-104.3,40.769428,-111.838341,180
2025-01-20 02:10:59.775,-102.5,40.769428,-111.838341,180
2025-01-20 02:11:00.238,-110.2,40.769489,-111.838409,180
2025-01-20 02:11:00.878,-106.8,40.76955,-111.838478,180
2025-01-20 02:11:01.198,-104.0,40.76955,-111.838478,180
2025-01-20 02:11:01.837,-105.5,40.769611,-111.838547,180
2025-01-20 02:11:02.478,-109.8,40.769611,-111.838547,180
2025-01-20 02:11:03.048,-106.4,40.769676,-111.838623,180
2025-01-20 02:11:03.567,-104.4,40.769676,-111.838623,180
2025-01-20 02:11:04.067,-106.8,40.769741,-111.838692,180
2025-01-20 02:11:04.583,-103.4,40.769741,-111.838692,180
2025-01-20 02:11:05.112,-104.9,40.769806,-111.83876,180
2025-01-20 02:11:05.383,-106.8,40.769806,-111.83876,180
2025-01-20 02:11:06.645,-106.8,40.769871,-111.838829,180
2025-01-20 02:11:24.583,-110.1,40.770901,-111.839905,180
2025-01-20 02:11:25.119,-110.8,40.770958,-111.839966,180
2025-01-20 02:11:25.569,-109.6,40.770958,-111.839966,180
2025-01-20 02:11:26.033,-108.3,40.771019,-111.840027,180
2025-01-20 02:11:26.520,-108.3,40.771019,-111.840027,180
2025-01-20 02:11:27.118,-107.3,40.771076,-111.84008,180
2025-01-20 02:11:27.757,-109.3,40.771076,-111.84008,180
2025-01-20 02:11:28.119,-109.3,40.771137,-111.840134,180
2025-01-20 02:11:28.719,-109.3,40.771137,-111.840134,180
2025-01-20 02:11:29.358,-109.3,40.771202,-111.840187,180
2025-01-20 02:11:29.801,-107.7,40.771202,-111.840187,180
2025-01-20 02:11:30.317,-109.0,40.771263,-111.84024,180
2025-01-20 02:11:30.838,-109.0,40.771328,-111.840286,180
2025-01-20 02:11:31.318,-104.4,40.771328,-111.840286,180
2025-01-20 02:11:31.918,-105.2,40.771393,-111.840332,180
2025-01-20 02:11:32.559,-108.0,40.771393,-111.840332,180
2025-01-20 02:11:32.879,-108.0,40.771458,-111.840378,180
2025-01-20 02:11:33.517,-108.0,40.771458,-111.840378,180
2025-01-20 02:11:34.158,-102.0,40.771526,-111.840416,180
2025-01-20 02:11:34.478,-102.0,40.771526,-111.840416,180
2025-01-20 02:12:30.285,-120.6,40.771626,-111.842873,180
2025-01-20 02:12:32.552,-112.0,40.771511,-111.842964,180
2025-01-20 02:12:33.833,-107.6,40.7714,-111.843079,180
2025-01-20 02:12:35.113,-107.6,40.771355,-111.843147,180
2025-01-20 02:12:36.393,-112.0,40.771309,-111.843208,180
2025-01-20 02:12:43.383,-97.1,40.771091,-111.843727,180
2025-01-20 02:12:43.874,-97.6,40.771076,-111.843803,180
2025-01-20 02:12:44.153,-100.3,40.771076,-111.843803,180
2025-01-20 02:12:44.795,-100.3,40.771076,-111.843803,180
2025-01-20 02:12:45.436,-100.3,40.771061,-111.843887,180
2025-01-20 02:12:45.755,-100.3,40.771061,-111.843887,180
2025-01-20 02:12:46.355,-97.3,40.771049,-111.843964,180
2025-01-20 02:12:47.037,-95.4,40.771038,-111.844048,180
2025-01-20 02:12:47.357,-95.4,40.771038,-111.844048,180
2025-01-20 02:12:47.961,-95.4,40.771027,-111.844131,180
2025-01-20 02:12:48.633,-95.4,40.771027,-111.844131,180
2025-01-20 02:12:48.885,-95.4,40.771015,-111.844215,180
2025-01-20 02:12:49.598,-95.4,40.771015,-111.844215,180
2025-01-20 02:12:50.559,-95.4,40.771008,-111.844299,180
2025-01-20 02:12:51.195,-95.4,40.771004,-111.844391,180
2025-01-20 02:12:55.937,-101.1,40.771,-111.844727,180
2025-01-20 02:12:56.473,-102.0,40.771,-111.844727,180
2025-01-20 02:12:57.433,-104.2,40.770992,-111.84478,180
2025-01-20 02:12:58.027,-106.7,40.770973,-111.844833,180
2025-01-20 02:12:58.391,-106.3,40.770973,-111.844833,180
2025-01-20 02:12:59.032,-106.3,40.770943,-111.844879,180
2025-01-20 02:12:59.670,-106.3,40.770943,-111.844879,180
2025-01-20 02:12:59.991,-106.3,40.770897,-111.844917,180
2025-01-20 02:13:00.632,-106.3,40.770897,-111.844917,180
2025-01-20 02:13:01.270,-106.3,40.770847,-111.84494,180
2025-01-20 02:13:01.591,-106.3,40.770847,-111.84494,180
2025-01-20 02:13:02.229,-106.3,40.77079,-111.844955,180
2025-01-20 02:13:02.912,-106.3,40.770737,-111.844963,180
2025-01-20 02:13:05.317,-102.8,40.770618,-111.844963,180
2025-01-20 02:13:05.992,-101.6,40.770557,-111.844971,180
2025-01-20 02:13:06.317,-103.9,40.770557,-111.844971,180
2025-01-20 02:13:07.043,-102.8,40.770496,-111.844971,180
2025-01-20 02:13:07.596,-103.0,40.770496,-111.844971,180
2025-01-20 02:13:07.916,-103.7,40.770435,-111.844978,180
2025-01-20 02:13:08.557,-107.6,40.770435,-111.844978,180
2025-01-20 02:13:08.878,-105.4,40.77037,-111.844978,180
2025-01-20 02:13:09.516,-101.3,40.77037,-111.844978,180
2025-01-20 02:13:10.215,-102.4,40.770309,-111.844986,180
2025-01-20 02:13:11.248,-106.8,40.770252,-111.844986,180
2025-01-20 02:13:11.942,-106.8,40.770191,-111.844986,180
2025-01-20 02:13:16.450,-106.8,40.769989,-111.845001,180
