Time,RSRP,Latitude,Longitude,PCI
2025-01-20 02:02:35.244,-106.1,40.767513,-111.835762,81
2025-01-20 02:02:35.775,-108.2,40.767513,-111.835762,81
2025-01-20 02:02:36.282,-104.8,40.767487,-111.835762,81
2025-01-20 02:02:36.808,-109.2,40.767487,-111.835762,81
2025-01-20 02:02:37.335,-109.0,40.76746,-111.835754,81
2025-01-20 02:02:37.865,-111.7,40.767441,-111.835739,81
2025-01-20 02:02:38.385,-106.2,40.767441,-111.835739,81
2025-01-20 02:02:38.898,-111.8,40.767429,-111.835732,81
2025-01-20 02:02:39.419,-108.3,40.767429,-111.835732,81
2025-01-20 02:02:39.929,-109.2,40.767422,-111.835724,81
2025-01-20 02:02:40.469,-107.6,40.767422,-111.835724,81
2025-01-20 02:02:40.998,-106.7,40.767422,-111.835724,81
2025-01-20 02:02:41.535,-109.6,40.767422,-111.835724,81
2025-01-20 02:02:42.060,-113.2,40.767422,-111.835724,81
2025-01-20 02:02:42.584,-114.0,40.767422,-111.835724,81
2025-01-20 02:02:43.107,-111.3,40.767426,-111.835732,81
2025-01-20 02:02:43.628,-114.4,40.767426,-111.835732,81
2025-01-20 02:02:44.133,-107.8,40.767433,-111.835739,81
2025-01-20 02:02:44.644,-105.1,40.767433,-111.835739,81
2025-01-20 02:02:45.146,-107.0,40.767437,-111.835747,81
2025-01-20 02:02:45.649,-111.0,40.767437,-111.835747,81
2025-01-20 02:02:46.169,-109.0,40.767445,-111.835754,81
2025-01-20 02:02:46.673,-112.3,40.767445,-111.835754,81
2025-01-20 02:02:47.178,-111.0,40.767448,-111.835754,81
2025-01-20 02:02:47.692,-113.9,40.767448,-111.835754,81
2025-01-20 02:02:48.218,-105.9,40.767456,-111.835762,81
2025-01-20 02:02:48.759,-109.4,40.767456,-111.835762,81
2025-01-20 02:02:49.274,-110.3,40.76746,-111.835762,81
2025-01-20 02:02:49.807,-110.5,40.76746,-111.835762,81
2025-01-20 02:02:50.308,-109.6,40.767464,-111.83577,81
2025-01-20 02:02:50.848,-113.3,40.767467,-111.835777,81
2025-01-20 02:02:51.374,-113.4,40.767467,-111.835777,81
2025-01-20 02:02:51.884,-116.1,40.767471,-111.835785,81
2025-01-20 02:02:52.428,-115.1,40.767471,-111.835785,81
2025-01-20 02:02:52.939,-115.0,40.767471,-111.835785,81
2025-01-20 02:02:53.468,-113.2,40.767471,-111.835785,81
2025-01-20 02:02:53.978,-113.6,40.767471,-111.835793,81
2025-01-20 02:02:54.507,-113.4,40.767471,-111.835793,81
2025-01-20 02:10:33.789,-110.0,40.768097,-111.836357,81
2025-01-20 01:54:35.115,-118.8,40.764595,-111.844978,81
2025-01-20 01:54:35.645,-112.1,40.764595,-111.844978,81
2025-01-20 01:54:36.159,-112.1,40.764553,-111.84494,81
2025-01-20 01:54:36.663,-112.1,40.764553,-111.84494,81
2025-01-20 01:54:37.194,-112.1,40.764511,-111.844894,81
2025-01-20 01:54:37.733,-112.1,40.764511,-111.844894,81
2025-01-20 01:54:38.268,-112.1,40.764465,-111.844856,81
2025-01-20 01:54:38.722,-112.1,40.764465,-111.844856,81
2025-01-20 01:54:41.331,-111.1,40.76437,-111.844772,81
2025-01-20 01:54:41.884,-111.1,40.764347,-111.844749,81
2025-01-20 01:54:42.424,-111.6,40.764347,-111.844749,81
2025-01-20 01:54:42.963,-113.2,40.764324,-111.844734,81
2025-01-20 01:54:43.487,-113.2,40.764324,-111.844734,81
2025-01-20 01:54:43.965,-113.2,40.764305,-111.844711,81
2025-01-20 01:54:44.529,-113.2,40.764305,-111.844711,81
2025-01-20 01:54:44.851,-113.2,40.764282,-111.844688,81
2025-01-20 01:54:45.600,-113.2,40.764282,-111.844688,81
2025-01-20 01:54:45.749,-117.9,40.764282,-111.844688,81
2025-01-20 01:54:46.496,-117.3,40.764259,-111.844658,81
2025-01-20 01:54:47.090,-117.3,40.764236,-111.844612,81
2025-01-20 01:54:47.453,-118.3,40.764236,-111.844612,81
2025-01-20 01:54:48.241,-118.3,40.764221,-111.844566,81
2025-01-20 01:54:48.747,-118.3,40.764221,-111.844566,81
2025-01-20 01:54:49.262,-118.3,40.764214,-111.844513,81
2025-01-20 01:54:49.782,-118.3,40.764214,-111.844513,81
2025-01-20 01:54:50.242,-118.3,40.764214,-111.84446,81
2025-01-20 01:55:12.286,-115.7,40.764851,-111.843903,81
2025-01-20 01:55:13.239,-115.7,40.764893,-111.843941,81
2025-01-20 01:55:14.340,-115.7,40.764938,-111.843979,81
2025-01-20 01:55:57.063,-109.9,40.766815,-111.844185,81
2025-01-20 01:55:57.643,-113.2,40.766815,-111.844185,81
2025-01-20 01:55:58.143,-112.2,40.766861,-111.8442,81
2025-01-20 01:55:58.666,-112.2,40.766861,-111.8442,81
2025-01-20 01:55:59.175,-112.2,40.766911,-111.844208,81
2025-01-20 01:55:59.714,-112.2,40.766911,-111.844208,81
2025-01-20 01:56:00.243,-112.2,40.766953,-111.844223,81
2025-01-20 01:56:00.722,-112.2,40.766953,-111.844223,81
2025-01-20 01:56:01.315,-112.2,40.766994,-111.844231,81
2025-01-20 01:56:12.137,-117.1,40.76746,-111.844368,81
2025-01-20 01:57:00.646,-108.3,40.770229,-111.844849,81
2025-01-20 01:57:01.211,-106.3,40.77029,-111.844849,81
2025-01-20 01:57:01.674,-109.1,40.77029,-111.844849,81
2025-01-20 01:57:02.236,-108.1,40.770351,-111.844849,81
2025-01-20 01:57:02.764,-108.1,40.770351,-111.844849,81
2025-01-20 01:57:03.285,-108.1,40.770412,-111.844849,81
2025-01-20 01:57:03.804,-108.1,40.770412,-111.844849,81
2025-01-20 01:57:04.269,-108.1,40.770477,-111.844849,81
2025-01-20 01:57:04.813,-108.1,40.770477,-111.844849,81
2025-01-20 01:57:05.404,-108.1,40.770535,-111.844849,81
2025-01-20 01:57:05.942,-108.1,40.770592,-111.844849,81
2025-01-20 01:57:07.965,-104.9,40.770687,-111.844849,81
2025-01-20 01:57:08.484,-106.2,40.770687,-111.844849,81
2025-01-20 01:57:09.011,-106.2,40.770729,-111.844849,81
2025-01-20 01:57:09.521,-106.2,40.770729,-111.844849,81
2025-01-20 01:57:10.041,-106.2,40.770767,-111.844849,81
2025-01-20 01:57:10.551,-103.3,40.770767,-111.844849,81
2025-01-20 01:57:11.043,-103.1,40.770798,-111.844849,81
2025-01-20 01:57:11.545,-103.9,40.770798,-111.844849,81
2025-01-20 01:57:12.105,-103.8,40.770824,-111.844849,81
2025-01-20 01:57:12.644,-102.4,40.770824,-111.844849,81
2025-01-20 01:57:13.169,-103.8,40.770847,-111.844849,81
2025-01-20 01:57:13.633,-103.4,40.770847,-111.844849,81
2025-01-20 01:57:14.162,-103.0,40.77087,-111.844849,81
2025-01-20 01:57:14.742,-106.1,40.77087,-111.844849,81
2025-01-20 01:57:15.243,-103.7,40.770893,-111.844841,81
2025-01-20 01:57:15.754,-103.7,40.770893,-111.844841,81
2025-01-20 01:57:16.271,-105.1,40.77092,-111.844818,81
2025-01-20 01:57:16.772,-102.9,40.77092,-111.844818,81
2025-01-20 01:57:17.306,-103.4,40.770943,-111.844795,81
2025-01-20 01:57:17.822,-104.1,40.770943,-111.844795,81
2025-01-20 01:57:18.347,-104.8,40.770954,-111.844749,81
2025-01-20 01:57:18.871,-104.8,40.770962,-111.844688,81
2025-01-20 01:57:19.322,-104.8,40.770962,-111.844688,81
2025-01-20 01:57:19.849,-104.8,40.770962,-111.844627,81
2025-01-20 01:57:20.402,-104.8,40.770962,-111.844627,81
2025-01-20 01:57:20.924,-104.8,40.770958,-111.844551,81
2025-01-20 01:57:21.396,-104.8,40.770958,-111.844551,81
2025-01-20 01:57:21.954,-104.8,40.770954,-111.844467,81
2025-01-20 01:57:46.888,-111.2,40.770775,-111.842842,81
2025-01-20 01:57:47.442,-106.6,40.770775,-111.842842,81
2025-01-20 01:57:47.972,-109.0,40.77071,-111.842804,81
2025-01-20 01:57:48.450,-110.4,40.77071,-111.842804,81
2025-01-20 01:57:48.965,-112.5,40.770649,-111.842766,81
2025-01-20 01:57:49.529,-112.5,40.770649,-111.842766,81
2025-01-20 01:57:50.025,-112.5,40.770588,-111.84272,81
2025-01-20 01:57:50.612,-112.5,40.770588,-111.84272,81
2025-01-20 01:57:51.106,-114.2,40.770531,-111.842682,81
2025-01-20 01:57:51.665,-111.1,40.770531,-111.842682,81
2025-01-20 01:57:52.157,-108.0,40.770477,-111.842644,81
2025-01-20 01:57:52.731,-109.4,40.770477,-111.842644,81
2025-01-20 01:57:53.180,-109.4,40.770428,-111.842606,81
2025-01-20 01:57:53.736,-109.4,40.770428,-111.842606,81
2025-01-20 01:57:54.317,-109.4,40.770378,-111.842567,81
2025-01-20 01:57:54.839,-108.1,40.770332,-111.842529,81
2025-01-20 01:57:55.344,-109.1,40.770332,-111.842529,81
2025-01-20 01:57:55.857,-109.5,40.77029,-111.842499,81
2025-01-20 01:57:56.288,-109.9,40.77029,-111.842499,81
2025-01-20 01:58:16.767,-110.2,40.769596,-111.841789,81
2025-01-20 01:58:17.307,-109.7,40.769554,-111.841736,81
2025-01-20 01:58:17.808,-108.5,40.769554,-111.841736,81
2025-01-20 01:58:18.300,-108.1,40.769512,-111.841682,81
2025-01-20 01:58:18.891,-111.0,40.76947,-111.841629,81
2025-01-20 01:58:19.392,-106.5,40.76947,-111.841629,81
2025-01-20 01:58:19.868,-107.3,40.769432,-111.841583,81
2025-01-20 01:58:20.357,-107.3,40.769432,-111.841583,81
2025-01-20 01:58:20.927,-107.3,40.76939,-111.84153,81
2025-01-20 01:58:21.846,-107.3,40.769352,-111.841484,81
2025-01-20 01:58:22.598,-107.3,40.769352,-111.841484,81
2025-01-20 01:58:23.081,-107.3,40.769314,-111.841438,81
2025-01-20 01:58:23.645,-107.3,40.769314,-111.841438,81
2025-01-20 01:58:25.247,-109.1,40.769238,-111.841339,81
2025-01-20 01:58:25.777,-107.3,40.769238,-111.841339,81
2025-01-20 01:58:26.286,-107.3,40.769203,-111.841293,81
2025-01-20 01:58:26.804,-107.3,40.769203,-111.841293,81
2025-01-20 01:58:27.319,-107.3,40.769165,-111.841248,81
2025-01-20 01:58:27.830,-107.3,40.769165,-111.841248,81
2025-01-20 01:58:28.313,-107.3,40.769127,-111.841202,81
2025-01-20 01:58:28.901,-107.3,40.769093,-111.841156,81
2025-01-20 01:58:29.354,-107.3,40.769093,-111.841156,81
2025-01-20 01:58:41.950,-110.8,40.768726,-111.840874,81
2025-01-20 01:58:42.454,-108.9,40.768726,-111.840874,81
2025-01-20 01:58:42.845,-109.1,40.768681,-111.840836,81
2025-01-20 01:58:43.210,-109.1,40.768681,-111.840836,81
2025-01-20 01:58:43.849,-109.1,40.76865,-111.84079,81
2025-01-20 01:58:44.490,-109.1,40.76865,-111.84079,81
2025-01-20 01:58:44.810,-109.1,40.76865,-111.84079,81
2025-01-20 01:58:45.630,-109.1,40.768631,-111.840736,81
2025-01-20 01:58:46.165,-109.1,40.768616,-111.840683,81
2025-01-20 01:58:46.684,-109.1,40.768616,-111.840683,81
2025-01-20 01:58:47.190,-109.1,40.768608,-111.84063,81
2025-01-20 01:59:07.566,-105.6,40.767941,-111.839638,81
2025-01-20 01:59:08.086,-107.2,40.76791,-111.839592,81
2025-01-20 01:59:08.591,-107.2,40.76791,-111.839592,81
2025-01-20 01:59:09.110,-107.2,40.767876,-111.839546,81
2025-01-20 01:59:09.610,-107.2,40.767876,-111.839546,81
2025-01-20 01:59:10.117,-107.2,40.767838,-111.839493,81
2025-01-20 01:59:10.599,-107.2,40.767838,-111.839493,81
2025-01-20 01:59:11.171,-107.2,40.767803,-111.839447,81
2025-01-20 01:59:11.671,-107.2,40.767803,-111.839447,81
2025-01-20 01:59:17.441,-110.9,40.76757,-111.839149,81
2025-01-20 01:59:17.977,-109.1,40.767532,-111.839096,81
2025-01-20 01:59:18.506,-109.1,40.767532,-111.839096,81
2025-01-20 01:59:19.012,-109.1,40.76749,-111.839043,81
2025-01-20 01:59:19.531,-109.1,40.76749,-111.839043,81
2025-01-20 01:59:20.032,-109.1,40.767448,-111.838989,81
2025-01-20 01:59:20.556,-109.1,40.767448,-111.838989,81
2025-01-20 01:59:21.102,-109.1,40.76741,-111.838936,81
2025-01-20 01:59:21.603,-109.1,40.76741,-111.838936,81
2025-01-20 01:59:43.419,-109.2,40.766552,-111.837929,81
2025-01-20 01:59:43.943,-108.8,40.766506,-111.837875,81
2025-01-20 01:59:48.650,-106.7,40.766308,-111.837654,81
2025-01-20 01:59:49.715,-109.2,40.766251,-111.837608,81
2025-01-20 01:59:50.201,-113.6,40.766193,-111.83757,81
2025-01-20 01:59:51.155,-113.6,40.76614,-111.837532,81
2025-01-20 01:59:51.838,-111.7,40.766083,-111.837494,81
2025-01-20 01:59:52.117,-114.5,40.766083,-111.837494,81
2025-01-20 01:59:52.876,-112.0,40.766029,-111.837456,81
2025-01-20 01:59:53.396,-112.0,40.766029,-111.837456,81
2025-01-20 01:59:53.688,-112.0,40.766029,-111.837456,81
2025-01-20 01:59:54.356,-112.0,40.76598,-111.83741,81
2025-01-20 01:59:54.960,-112.0,40.765934,-111.837364,81
2025-01-20 01:59:55.495,-112.0,40.765934,-111.837364,81
2025-01-20 01:59:56.010,-112.0,40.765892,-111.837311,81
2025-01-20 01:59:56.539,-112.0,40.765892,-111.837311,81
2025-01-20 02:00:34.797,-114.4,40.76334,-111.835953,81
2025-01-20 02:00:35.297,-112.1,40.763264,-111.83593,81
2025-01-20 02:00:35.804,-106.4,40.763264,-111.83593,81
2025-01-20 02:00:36.305,-105.3,40.763184,-111.835907,81
2025-01-20 02:00:36.841,-105.8,40.763107,-111.835884,81
2025-01-20 02:00:37.376,-106.0,40.763107,-111.835884,81
2025-01-20 02:00:37.895,-106.2,40.763031,-111.835861,81
2025-01-20 02:00:38.420,-111.0,40.763031,-111.835861,81
2025-01-20 02:00:38.945,-111.8,40.762959,-111.835838,81
2025-01-20 02:00:39.482,-111.4,40.762959,-111.835838,81
2025-01-20 02:00:39.737,-111.9,40.762959,-111.835838,81
2025-01-20 02:00:40.491,-112.8,40.762886,-111.835808,81
2025-01-20 02:00:40.671,-110.8,40.762886,-111.835808,81
2025-01-20 02:00:41.531,-110.3,40.762821,-111.835785,81
2025-01-20 02:00:42.048,-110.3,40.762756,-111.835762,81
2025-01-20 02:00:42.495,-113.6,40.762756,-111.835762,81
2025-01-20 02:00:43.128,-112.5,40.762699,-111.835739,81
2025-01-20 02:00:43.670,-109.1,40.762699,-111.835739,81
2025-01-20 02:00:43.909,-107.2,40.762646,-111.835724,81
2025-01-20 02:00:44.743,-108.1,40.762646,-111.835724,81
2025-01-20 02:00:45.162,-109.3,40.762604,-111.835709,81
2025-01-20 02:00:45.506,-104.9,40.762604,-111.835709,81
2025-01-20 02:00:46.210,-104.9,40.762573,-111.835693,81
2025-01-20 02:00:46.771,-109.9,40.762573,-111.835693,81
2025-01-20 02:00:47.719,-109.9,40.76255,-111.835686,81
2025-01-20 02:00:50.519,-109.9,40.762531,-111.835686,81
2025-01-20 02:01:02.900,-104.9,40.762489,-111.835648,81
2025-01-20 02:01:03.429,-108.0,40.762489,-111.835648,81
2025-01-20 02:01:03.943,-108.0,40.762486,-111.835617,81
2025-01-20 02:01:04.479,-108.0,40.762486,-111.835617,81
2025-01-20 02:01:05.013,-108.2,40.762489,-111.835602,81
2025-01-20 02:01:05.560,-108.2,40.762489,-111.835602,81
2025-01-20 02:01:06.070,-102.1,40.762489,-111.835602,81
2025-01-20 02:01:06.574,-103.9,40.762489,-111.835602,81
2025-01-20 02:01:07.096,-103.9,40.762489,-111.835609,81
2025-01-20 02:01:07.600,-103.9,40.762489,-111.835609,81
2025-01-20 02:01:08.100,-111.3,40.762489,-111.835625,81
2025-01-20 02:01:08.603,-111.3,40.762489,-111.835625,81
2025-01-20 02:01:09.119,-103.4,40.762489,-111.835625,81
2025-01-20 02:01:09.649,-107.6,40.762489,-111.835625,81
2025-01-20 02:01:11.210,-107.6,40.762531,-111.835609,81
2025-01-20 02:01:11.750,-107.1,40.762531,-111.835609,81
2025-01-20 02:01:12.772,-112.1,40.762581,-111.835609,81
2025-01-20 02:01:15.831,-114.0,40.762886,-111.835686,81
2025-01-20 02:01:16.877,-113.4,40.76297,-111.835709,81
2025-01-20 02:01:17.885,-113.0,40.76305,-111.835724,81
2025-01-20 02:01:18.411,-113.2,40.76305,-111.835724,81
2025-01-20 02:01:19.439,-110.1,40.763126,-111.835747,81
2025-01-20 02:01:22.515,-113.3,40.763355,-111.835815,81
2025-01-20 02:01:23.588,-115.9,40.763428,-111.835846,81
2025-01-20 02:02:12.043,-106.3,40.767246,-111.836258,81
2025-01-20 02:02:12.566,-105.4,40.767246,-111.836258,81
2025-01-20 02:02:13.084,-108.8,40.767326,-111.836235,81
2025-01-20 02:02:13.618,-108.0,40.767326,-111.836235,81
2025-01-20 02:02:20.415,-105.3,40.767685,-111.836105,81
2025-01-20 02:02:20.955,-106.3,40.767708,-111.836067,81
2025-01-20 02:02:21.482,-106.3,40.767708,-111.836067,81
2025-01-20 02:02:22.028,-106.3,40.767727,-111.836029,81
2025-01-20 02:02:22.541,-103.2,40.767727,-111.836029,81
2025-01-20 02:02:23.050,-103.2,40.767738,-111.835991,81
2025-01-20 02:02:23.576,-103.2,40.767738,-111.835991,81
2025-01-20 02:02:24.089,-104.3,40.767738,-111.835945,81
2025-01-20 02:02:24.609,-104.3,40.767738,-111.835945,81
2025-01-20 02:02:25.116,-104.3,40.767735,-111.835899,81
2025-01-20 02:02:25.646,-104.3,40.767735,-111.835899,81
2025-01-20 02:02:26.195,-104.3,40.767719,-111.835869,81
2025-01-20 02:02:26.726,-104.3,40.767719,-111.835869,81
2025-01-20 02:02:27.247,-104.3,40.767704,-111.835838,81
2025-01-20 02:02:27.786,-104.3,40.767704,-111.835838,81
2025-01-20 02:02:28.310,-104.3,40.767681,-111.835808,81
2025-01-20 02:02:28.849,-104.3,40.767654,-111.835777,81
2025-01-20 02:02:29.395,-104.3,40.767654,-111.835777,81
2025-01-20 02:02:29.918,-104.3,40.767632,-111.835754,81
2025-01-20 02:02:31.507,-109.8,40.767605,-111.835747,81
2025-01-20 02:02:32.046,-105.6,40.767582,-111.835739,81
2025-01-20 02:02:32.585,-107.8,40.767582,-111.835739,81
2025-01-20 02:02:33.099,-107.8,40.767563,-111.835747,81
2025-01-20 02:02:33.646,-108.1,40.767563,-111.835747,81
2025-01-20 02:02:34.187,-102.9,40.76754,-111.835754,81
2025-01-20 02:02:34.725,-102.1,40.76754,-111.835754,81
2025-01-20 02:02:55.529,-108.3,40.767471,-111.835793,81
2025-01-20 02:02:57.076,-101.2,40.767479,-111.835785,81
2025-01-20 02:02:57.605,-109.1,40.767479,-111.835785,81
2025-01-20 02:02:58.112,-109.3,40.767494,-111.83577,81
2025-01-20 02:02:58.612,-108.6,40.767494,-111.83577,81
2025-01-20 02:02:59.151,-108.6,40.767513,-111.835754,81
2025-01-20 02:02:59.662,-109.2,40.767513,-111.835754,81
2025-01-20 02:03:00.162,-112.2,40.767525,-111.835739,81
2025-01-20 02:03:00.674,-107.3,40.767525,-111.835739,81
2025-01-20 02:03:01.211,-107.3,40.76754,-111.835732,81
2025-01-20 02:03:02.235,-107.3,40.767563,-111.835716,81
2025-01-20 02:03:02.761,-107.3,40.767563,-111.835716,81
2025-01-20 02:03:03.306,-107.3,40.767586,-111.835709,81
2025-01-20 02:03:03.833,-107.3,40.767612,-111.835709,81
2025-01-20 02:03:04.364,-107.3,40.767612,-111.835709,81
2025-01-20 02:03:05.410,-112.3,40.767639,-111.835716,81
2025-01-20 02:03:05.915,-114.5,40.767662,-111.835732,81
2025-01-20 02:03:06.435,-114.5,40.767662,-111.835732,81
2025-01-20 02:03:06.935,-114.5,40.767685,-111.835747,81
2025-01-20 02:03:07.449,-114.5,40.767685,-111.835747,81
2025-01-20 02:03:07.969,-114.5,40.767696,-111.835762,81
2025-01-20 02:03:08.491,-114.5,40.767696,-111.835762,81
2025-01-20 02:03:09.007,-114.5,40.767704,-111.83577,81
2025-01-20 02:03:09.529,-114.5,40.767704,-111.83577,81
2025-01-20 02:03:13.770,-106.9,40.767715,-111.835777,81
2025-01-20 02:03:14.276,-105.8,40.767719,-111.835785,81
2025-01-20 02:03:14.785,-105.8,40.767719,-111.835785,81
2025-01-20 02:03:15.309,-105.8,40.767727,-111.835793,81
2025-01-20 02:03:15.840,-105.8,40.767738,-111.8358,81
2025-01-20 02:03:16.349,-105.8,40.767738,-111.8358,81
2025-01-20 02:03:16.851,-105.8,40.767757,-111.835808,81
2025-01-20 02:03:17.355,-105.8,40.767757,-111.835808,81
2025-01-20 02:03:18.375,-105.1,40.767776,-111.835815,81
2025-01-20 02:03:18.921,-104.6,40.767799,-111.835808,81
2025-01-20 02:03:19.421,-104.6,40.767799,-111.835808,81
2025-01-20 02:03:19.931,-103.8,40.767826,-111.835793,81
2025-01-20 02:03:20.473,-105.8,40.767826,-111.835793,81
2025-01-20 02:03:21.010,-105.8,40.76786,-111.83577,81
2025-01-20 02:03:21.520,-105.8,40.76786,-111.83577,81
2025-01-20 02:03:22.025,-107.9,40.767891,-111.835739,81
2025-01-20 02:03:22.544,-103.4,40.767891,-111.835739,81
2025-01-20 02:03:23.063,-103.6,40.767921,-111.835716,81
2025-01-20 02:03:23.597,-101.5,40.767921,-111.835716,81
2025-01-20 02:03:24.122,-105.6,40.767948,-111.835709,81
2025-01-20 02:03:24.622,-103.5,40.767948,-111.835709,81
2025-01-20 02:03:25.133,-103.5,40.767971,-111.835716,81
2025-01-20 02:03:25.649,-98.1,40.767971,-111.835716,81
2025-01-20 02:03:26.181,-98.1,40.767986,-111.835732,81
2025-01-20 02:03:26.708,-98.1,40.767986,-111.835732,81
2025-01-20 02:03:27.229,-98.1,40.767994,-111.83577,81
2025-01-20 02:03:27.748,-97.3,40.767994,-111.83577,81
2025-01-20 02:03:28.268,-101.8,40.76799,-111.835815,81
2025-01-20 02:03:28.794,-99.4,40.76799,-111.835815,81
2025-01-20 02:03:29.315,-99.4,40.767979,-111.835861,81
2025-01-20 02:03:29.837,-99.4,40.767963,-111.835915,81
2025-01-20 02:03:30.344,-99.4,40.767963,-111.835915,81
2025-01-20 02:03:30.870,-99.4,40.767948,-111.835968,81
2025-01-20 02:03:31.403,-99.4,40.767948,-111.835968,81
2025-01-20 02:03:31.924,-99.4,40.767944,-111.836014,81
2025-01-20 02:03:32.985,-106.4,40.767944,-111.836075,81
2025-01-20 02:03:33.493,-106.3,40.767944,-111.836075,81
2025-01-20 02:03:34.024,-106.0,40.767956,-111.836128,81
2025-01-20 02:03:34.528,-109.4,40.767956,-111.836128,81
2025-01-20 02:03:35.029,-105.9,40.767975,-111.836189,81
2025-01-20 02:03:35.554,-105.9,40.767975,-111.836189,81
2025-01-20 02:03:36.058,-109.0,40.768005,-111.83625,81
2025-01-20 02:03:36.565,-110.4,40.768005,-111.83625,81
2025-01-20 02:03:37.099,-108.0,40.768047,-111.836304,81
2025-01-20 02:03:37.634,-109.1,40.768047,-111.836304,81
2025-01-20 02:03:38.164,-110.1,40.768093,-111.836357,81
2025-01-20 02:03:38.669,-108.1,40.768093,-111.836357,81
2025-01-20 02:03:39.178,-109.7,40.768143,-111.836403,81
2025-01-20 02:03:39.700,-108.9,40.768143,-111.836403,81
2025-01-20 02:03:40.220,-106.8,40.768196,-111.836464,81
2025-01-20 02:03:40.754,-106.8,40.768196,-111.836464,81
2025-01-20 02:03:41.290,-106.8,40.768246,-111.836517,81
2025-01-20 02:03:41.792,-107.3,40.768246,-111.836517,81
2025-01-20 02:03:42.304,-109.9,40.768299,-111.836578,81
2025-01-20 02:03:42.814,-110.6,40.768299,-111.836578,81
2025-01-20 02:03:43.340,-109.8,40.768345,-111.836647,81
2025-01-20 02:03:43.848,-110.1,40.768391,-111.836716,81
2025-01-20 02:03:44.348,-110.1,40.768391,-111.836716,81
2025-01-20 02:03:44.850,-110.1,40.768433,-111.836784,81
2025-01-20 02:03:45.381,-110.3,40.768433,-111.836784,81
2025-01-20 02:03:45.903,-110.3,40.768478,-111.836853,81
2025-01-20 02:03:46.409,-107.9,40.768478,-111.836853,81
2025-01-20 02:03:46.918,-109.7,40.76852,-111.836922,81
2025-01-20 02:03:47.440,-109.0,40.76852,-111.836922,81
2025-01-20 02:03:47.971,-110.1,40.768562,-111.836998,81
2025-01-20 02:03:48.502,-110.3,40.768562,-111.836998,81
2025-01-20 02:03:49.035,-110.3,40.768604,-111.837067,81
2025-01-20 02:03:49.563,-110.3,40.768604,-111.837067,81
2025-01-20 02:03:50.097,-110.3,40.768646,-111.837135,81
2025-01-20 02:03:50.619,-110.3,40.768646,-111.837135,81
2025-01-20 02:03:51.139,-108.9,40.768688,-111.837204,81
2025-01-20 02:03:51.678,-111.5,40.768688,-111.837204,81
2025-01-20 02:03:52.182,-111.5,40.76873,-111.837265,81
2025-01-20 02:03:52.683,-111.5,40.76873,-111.837265,81
2025-01-20 02:03:53.185,-108.3,40.768772,-111.837334,81
2025-01-20 02:03:53.709,-109.4,40.768772,-111.837334,81
2025-01-20 02:03:54.222,-109.9,40.768814,-111.837402,81
2025-01-20 02:03:54.755,-109.9,40.768814,-111.837402,81
2025-01-20 02:03:55.274,-109.9,40.768852,-111.837463,81
2025-01-20 02:03:55.808,-109.9,40.768852,-111.837463,81
2025-01-20 02:03:56.329,-109.9,40.768894,-111.837532,81
2025-01-20 02:03:56.859,-109.9,40.768932,-111.837593,81
2025-01-20 02:03:57.368,-109.9,40.768932,-111.837593,81
2025-01-20 02:03:57.908,-109.9,40.768974,-111.837662,81
2025-01-20 02:04:05.695,-107.9,40.769283,-111.83812,81
2025-01-20 02:04:06.239,-107.9,40.769337,-111.838181,81
2025-01-20 02:04:06.754,-107.9,40.769337,-111.838181,81
2025-01-20 02:04:07.276,-107.9,40.76939,-111.838242,81
2025-01-20 02:04:07.814,-107.9,40.76939,-111.838242,81
2025-01-20 02:04:08.324,-107.7,40.76944,-111.83831,81
2025-01-20 02:04:08.829,-106.1,40.769493,-111.838371,81
2025-01-20 02:04:09.355,-106.1,40.769493,-111.838371,81
2025-01-20 02:04:09.881,-106.1,40.769547,-111.838425,81
2025-01-20 02:04:10.384,-106.1,40.769547,-111.838425,81
2025-01-20 02:04:10.893,-107.9,40.7696,-111.838486,81
2025-01-20 02:04:11.400,-109.6,40.7696,-111.838486,81
2025-01-20 02:04:11.904,-110.6,40.769653,-111.838539,81
2025-01-20 02:04:12.438,-110.6,40.769653,-111.838539,81
2025-01-20 02:04:12.948,-110.6,40.769703,-111.838593,81
2025-01-20 02:04:13.477,-110.6,40.769703,-111.838593,81
2025-01-20 02:04:13.987,-110.6,40.769749,-111.838646,81
2025-01-20 02:04:14.501,-110.6,40.769749,-111.838646,81
2025-01-20 02:04:15.009,-110.6,40.769791,-111.838684,81
2025-01-20 02:04:15.513,-110.6,40.769791,-111.838684,81
2025-01-20 02:04:16.018,-110.6,40.769821,-111.838722,81
2025-01-20 02:04:16.528,-105.6,40.769821,-111.838722,81
2025-01-20 02:04:17.048,-105.6,40.769844,-111.838737,81
2025-01-20 02:04:17.569,-106.4,40.769844,-111.838737,81
2025-01-20 02:04:18.096,-106.4,40.769852,-111.838753,81
2025-01-20 02:04:18.638,-108.7,40.769852,-111.838753,81
2025-01-20 02:04:19.143,-107.3,40.769855,-111.838753,81
2025-01-20 02:04:19.650,-109.2,40.769855,-111.838753,81
2025-01-20 02:04:20.190,-109.1,40.769855,-111.838753,81
2025-01-20 02:04:20.723,-108.4,40.769855,-111.838753,81
2025-01-20 02:04:21.268,-109.3,40.769855,-111.838753,81
2025-01-20 02:04:21.804,-110.2,40.769855,-111.838753,81
2025-01-20 02:04:22.305,-107.8,40.769855,-111.838753,81
2025-01-20 02:04:22.828,-108.5,40.769855,-111.838753,81
2025-01-20 02:04:23.363,-108.4,40.769855,-111.838753,81
2025-01-20 02:04:23.885,-107.1,40.769855,-111.838753,81
2025-01-20 02:04:24.403,-108.3,40.769855,-111.838753,81
2025-01-20 02:04:24.924,-108.6,40.769855,-111.838753,81
2025-01-20 02:04:25.432,-109.3,40.769855,-111.838753,81
2025-01-20 02:04:25.968,-108.4,40.769855,-111.838753,81
2025-01-20 02:04:26.501,-108.6,40.769855,-111.838753,81
2025-01-20 02:04:27.033,-107.9,40.769859,-111.838753,81
2025-01-20 02:04:27.543,-110.6,40.769859,-111.838753,81
2025-01-20 02:04:28.053,-110.6,40.769867,-111.83876,81
2025-01-20 02:04:28.588,-110.6,40.769867,-111.83876,81
2025-01-20 02:04:29.108,-110.6,40.769886,-111.838776,81
2025-01-20 02:04:29.613,-110.6,40.769886,-111.838776,81
2025-01-20 02:04:30.128,-107.6,40.76992,-111.838814,81
2025-01-20 02:04:30.642,-112.5,40.76992,-111.838814,81
2025-01-20 02:04:31.154,-112.5,40.769962,-111.83886,81
2025-01-20 02:04:31.674,-110.9,40.769962,-111.83886,81
2025-01-20 02:04:32.213,-109.7,40.770012,-111.838913,81
2025-01-20 02:04:32.743,-112.9,40.770012,-111.838913,81
2025-01-20 02:04:33.272,-111.1,40.770065,-111.838974,81
2025-01-20 02:04:33.808,-111.1,40.770065,-111.838974,81
2025-01-20 02:04:34.333,-111.1,40.770126,-111.839043,81
2025-01-20 02:04:34.854,-111.1,40.770195,-111.839111,81
2025-01-20 02:04:35.369,-111.1,40.770195,-111.839111,81
2025-01-20 02:04:35.894,-111.1,40.770264,-111.839188,81
2025-01-20 02:04:36.402,-111.1,40.770264,-111.839188,81
2025-01-20 02:04:36.907,-111.1,40.770336,-111.839256,81
2025-01-20 02:04:43.648,-108.9,40.77076,-111.839706,81
2025-01-20 02:04:44.167,-112.3,40.770828,-111.839775,81
2025-01-20 02:04:44.702,-111.8,40.770828,-111.839775,81
2025-01-20 02:04:45.238,-111.4,40.770893,-111.839844,81
2025-01-20 02:04:45.773,-111.4,40.770893,-111.839844,81
2025-01-20 02:04:46.292,-111.4,40.770962,-111.839905,81
2025-01-20 02:04:46.794,-111.4,40.770962,-111.839905,81
2025-01-20 02:04:47.305,-111.4,40.77103,-111.839966,81
2025-01-20 02:04:47.830,-111.4,40.771095,-111.840027,81
2025-01-20 02:04:48.378,-111.4,40.771095,-111.840027,81
2025-01-20 02:04:48.883,-111.4,40.771164,-111.840088,81
2025-01-20 02:04:49.429,-111.4,40.771164,-111.840088,81
2025-01-20 02:04:59.909,-102.8,40.771938,-111.84053,81
2025-01-20 02:05:00.429,-105.3,40.771938,-111.84053,81
2025-01-20 02:05:00.955,-105.1,40.772018,-111.840553,81
2025-01-20 02:05:01.483,-105.1,40.772018,-111.840553,81
2025-01-20 02:05:02.001,-105.1,40.772099,-111.840569,81
2025-01-20 02:05:02.514,-105.1,40.772099,-111.840569,81
2025-01-20 02:05:03.052,-105.1,40.772179,-111.840576,81
2025-01-20 02:05:03.571,-105.1,40.772179,-111.840576,81
2025-01-20 02:05:04.075,-105.1,40.772259,-111.840584,81
2025-01-20 02:05:04.609,-105.1,40.772259,-111.840584,81
2025-01-20 02:07:11.574,-107.8,40.772224,-111.835419,81
2025-01-20 02:07:12.074,-110.1,40.772179,-111.835403,81
2025-01-20 02:07:12.593,-110.1,40.772179,-111.835403,81
2025-01-20 02:07:13.134,-110.1,40.772133,-111.835381,81
2025-01-20 02:07:13.638,-110.1,40.772133,-111.835381,81
2025-01-20 02:07:14.167,-110.1,40.772087,-111.83535,81
2025-01-20 02:07:14.681,-110.1,40.772087,-111.83535,81
2025-01-20 02:07:15.191,-110.1,40.772045,-111.83532,81
2025-01-20 02:07:15.728,-110.1,40.772045,-111.83532,81
2025-01-20 02:07:29.717,-111.7,40.771793,-111.834503,81
2025-01-20 02:07:30.252,-111.7,40.77177,-111.834465,81
2025-01-20 02:07:30.758,-111.7,40.77177,-111.834465,81
2025-01-20 02:07:31.272,-111.7,40.77174,-111.834419,81
2025-01-20 02:07:31.777,-111.7,40.77174,-111.834419,81
2025-01-20 02:07:32.288,-111.7,40.771706,-111.834381,81
2025-01-20 02:07:32.807,-111.7,40.771706,-111.834381,81
2025-01-20 02:07:33.349,-111.7,40.771667,-111.834335,81
2025-01-20 02:09:01.458,-114.1,40.768768,-111.831993,81
2025-01-20 02:09:03.003,-111.6,40.768688,-111.832054,81
2025-01-20 02:09:03.549,-111.6,40.768688,-111.832054,81
2025-01-20 02:09:08.223,-109.0,40.768528,-111.832237,81
2025-01-20 02:09:08.747,-115.7,40.768528,-111.832237,81
2025-01-20 02:09:09.289,-114.8,40.768497,-111.832275,81
2025-01-20 02:09:10.834,-115.5,40.768436,-111.832344,81
2025-01-20 02:09:11.336,-115.5,40.768436,-111.832344,81
2025-01-20 02:09:11.848,-115.5,40.76841,-111.83239,81
2025-01-20 02:09:13.906,-115.5,40.768353,-111.832466,81
2025-01-20 02:09:14.410,-113.8,40.768353,-111.832466,81
2025-01-20 02:09:15.943,-115.9,40.768291,-111.832558,81
2025-01-20 02:09:16.956,-113.8,40.768261,-111.832603,81
2025-01-20 02:10:14.638,-100.9,40.768238,-111.835327,81
2025-01-20 02:10:15.141,-100.9,40.768242,-111.835381,81
2025-01-20 02:10:15.668,-100.9,40.768242,-111.835381,81
2025-01-20 02:10:16.189,-100.9,40.768238,-111.835434,81
2025-01-20 02:10:16.730,-101.8,40.768238,-111.835434,81
2025-01-20 02:10:17.270,-99.4,40.768227,-111.835495,81
2025-01-20 02:10:17.779,-99.4,40.768227,-111.835495,81
2025-01-20 02:10:18.284,-99.4,40.768204,-111.835548,81
2025-01-20 02:10:18.792,-99.4,40.768204,-111.835548,81
2025-01-20 02:10:19.338,-99.4,40.768169,-111.835602,81
2025-01-20 02:10:19.877,-99.4,40.768131,-111.835655,81
2025-01-20 02:10:20.420,-99.4,40.768131,-111.835655,81
2025-01-20 02:10:20.969,-98.9,40.768093,-111.835701,81
2025-01-20 02:10:22.514,-100.1,40.768055,-111.835754,81
2025-01-20 02:10:23.538,-100.4,40.768017,-111.8358,81
2025-01-20 02:10:24.582,-98.4,40.76799,-111.835846,81
2025-01-20 02:10:25.083,-98.4,40.767963,-111.835899,81
2025-01-20 02:10:26.097,-99.1,40.767948,-111.835953,81
2025-01-20 02:10:28.658,-100.6,40.767941,-111.836067,81
2025-01-20 02:10:30.173,-103.0,40.767967,-111.836189,81
2025-01-20 02:10:41.650,-113.3,40.768532,-111.836952,81
2025-01-20 02:10:44.211,-111.6,40.768692,-111.837204,81
2025-01-20 02:10:45.236,-111.6,40.768745,-111.837288,81
2025-01-20 02:10:46.771,-108.3,40.768795,-111.837372,81
2025-01-20 02:10:47.596,-114.2,40.768845,-111.837456,81
2025-01-20 02:10:48.876,-114.2,40.76894,-111.837608,81
2025-01-20 02:10:49.767,-114.2,40.76894,-111.837608,81
2025-01-20 02:10:50.154,-114.2,40.768986,-111.837685,81
2025-01-20 02:10:50.720,-114.2,40.768986,-111.837685,81
2025-01-20 02:10:51.011,-114.2,40.769035,-111.837761,81
2025-01-20 02:10:56.593,-107.4,40.769268,-111.838135,81
2025-01-20 02:10:57.038,-107.4,40.769318,-111.838203,81
2025-01-20 02:10:57.679,-107.4,40.769318,-111.838203,81
2025-01-20 02:10:57.997,-107.4,40.769375,-111.838272,81
2025-01-20 02:10:58.637,-107.4,40.769375,-111.838272,81
2025-01-20 02:10:59.278,-107.4,40.769428,-111.838341,81
2025-01-20 02:10:59.775,-107.4,40.769428,-111.838341,81
2025-01-20 02:11:00.238,-107.4,40.769489,-111.838409,81
2025-01-20 02:11:00.878,-107.4,40.76955,-111.838478,81
2025-01-20 02:11:01.198,-107.4,40.76955,-111.838478,81
2025-01-20 02:11:01.837,-107.4,40.769611,-111.838547,81
2025-01-20 02:12:16.852,-107.4,40.772446,-111.842407,81
2025-01-20 02:12:17.205,-106.7,40.772446,-111.842407,81
2025-01-20 02:12:18.474,-105.0,40.772381,-111.842453,81
2025-01-20 02:12:19.753,-106.7,40.772312,-111.842491,81
2025-01-20 02:12:21.034,-106.7,40.772182,-111.842567,81
2025-01-20 02:12:27.866,-111.5,40.771744,-111.842796,81
2025-01-20 02:13:01.270,-107.0,40.770847,-111.84494,81
2025-01-20 02:13:01.591,-107.0,40.770847,-111.84494,81
2025-01-20 02:13:02.229,-103.4,40.77079,-111.844955,81
2025-01-20 02:13:02.912,-105.4,40.770737,-111.844963,81
2025-01-20 02:13:03.429,-105.4,40.770737,-111.844963,81
2025-01-20 02:13:03.948,-105.4,40.770679,-111.844963,81
2025-01-20 02:13:04.481,-105.4,40.770679,-111.844963,81
