Time,RSRP,Latitude,Longitude,PCI
2025-01-20 02:07:25.084,-116.1,40.771847,-111.834724,450
2025-01-20 02:08:55.271,-115.7,40.769016,-111.831894,450
2025-01-20 02:08:56.306,-113.9,40.768978,-111.831902,450
2025-01-20 02:09:24.104,-117.8,40.768055,-111.832916,450
2025-01-20 02:09:28.770,-118.1,40.76796,-111.833076,450
2025-01-20 02:09:51.881,-107.9,40.767841,-111.834229,450
2025-01-20 02:09:52.934,-107.1,40.767872,-111.834267,450
2025-01-20 02:09:53.986,-113.3,40.767899,-111.834297,450
2025-01-20 02:09:55.519,-109.1,40.767925,-111.83432,450
2025-01-20 02:09:58.083,-112.8,40.768005,-111.834412,450
2025-01-20 02:09:59.109,-110.2,40.768036,-111.83445,450
2025-01-20 02:10:00.163,-109.8,40.768063,-111.834496,450
2025-01-20 02:10:01.691,-113.5,40.768085,-111.834541,450
2025-01-20 01:52:42.036,-115.6,40.768696,-111.844727,450
2025-01-20 01:52:42.494,-112.2,40.768696,-111.844727,450
2025-01-20 01:52:43.041,-112.2,40.768642,-111.844711,450
2025-01-20 01:52:43.562,-112.2,40.768642,-111.844711,450
2025-01-20 01:52:44.091,-112.2,40.768589,-111.844696,450
2025-01-20 01:52:44.671,-112.2,40.768589,-111.844696,450
2025-01-20 01:52:45.183,-112.2,40.768536,-111.844673,450
2025-01-20 01:52:45.644,-112.2,40.768536,-111.844673,450
2025-01-20 01:53:40.028,-114.4,40.766098,-111.8442,450
2025-01-20 01:53:40.478,-112.5,40.766098,-111.8442,450
2025-01-20 01:53:41.068,-112.5,40.766056,-111.844208,450
2025-01-20 01:53:41.588,-113.9,40.766056,-111.844208,450
2025-01-20 01:53:42.108,-112.8,40.766014,-111.844223,450
2025-01-20 01:53:42.645,-114.4,40.766014,-111.844223,450
2025-01-20 01:53:43.164,-114.4,40.765972,-111.844238,450
2025-01-20 01:53:43.689,-114.4,40.765972,-111.844238,450
2025-01-20 01:53:44.202,-114.4,40.765926,-111.844269,450
2025-01-20 01:53:44.710,-114.4,40.765926,-111.844269,450
2025-01-20 01:53:45.255,-114.4,40.765884,-111.844299,450
2025-01-20 01:53:45.769,-114.4,40.765884,-111.844299,450
2025-01-20 01:53:46.308,-114.4,40.765846,-111.844337,450
2025-01-20 01:54:54.455,-116.4,40.764263,-111.844261,450
2025-01-20 01:54:54.986,-116.1,40.764286,-111.844208,450
2025-01-20 01:54:55.506,-116.5,40.764286,-111.844208,450
2025-01-20 01:54:55.755,-116.5,40.764286,-111.844208,450
2025-01-20 01:54:56.526,-116.5,40.764309,-111.844162,450
2025-01-20 01:54:57.041,-116.5,40.764332,-111.844109,450
2025-01-20 01:54:57.551,-116.5,40.764332,-111.844109,450
2025-01-20 01:54:58.088,-116.5,40.764359,-111.844063,450
2025-01-20 01:54:58.569,-116.5,40.764359,-111.844063,450
2025-01-20 01:55:52.862,-113.6,40.766632,-111.844154,450
2025-01-20 01:55:53.380,-111.8,40.766632,-111.844154,450
2025-01-20 01:55:53.875,-112.9,40.766678,-111.844154,450
2025-01-20 01:55:54.399,-113.5,40.766678,-111.844154,450
2025-01-20 01:55:54.933,-113.5,40.766724,-111.844162,450
2025-01-20 01:55:55.510,-113.5,40.766724,-111.844162,450
2025-01-20 01:55:56.043,-113.5,40.766769,-111.844177,450
2025-01-20 01:55:56.590,-113.5,40.766769,-111.844177,450
2025-01-20 01:55:57.063,-113.5,40.766815,-111.844185,450
2025-01-20 01:55:57.643,-113.5,40.766815,-111.844185,450
2025-01-20 01:55:58.143,-113.5,40.766861,-111.8442,450
2025-01-20 01:58:24.607,-106.8,40.769276,-111.841385,450
2025-01-20 01:58:25.247,-108.9,40.769238,-111.841339,450
2025-01-20 01:58:25.777,-108.9,40.769238,-111.841339,450
2025-01-20 01:58:26.286,-108.9,40.769203,-111.841293,450
2025-01-20 01:58:26.804,-108.9,40.769203,-111.841293,450
2025-01-20 01:58:27.319,-108.9,40.769165,-111.841248,450
2025-01-20 01:58:27.830,-108.9,40.769165,-111.841248,450
2025-01-20 01:58:28.313,-108.9,40.769127,-111.841202,450
2025-01-20 01:58:28.901,-108.9,40.769093,-111.841156,450
2025-01-20 01:58:32.502,-106.6,40.769009,-111.841049,450
2025-01-20 01:58:33.072,-108.9,40.768986,-111.841026,450
2025-01-20 01:58:33.615,-105.3,40.768986,-111.841026,450
2025-01-20 01:58:34.124,-107.6,40.76897,-111.841003,450
2025-01-20 01:58:34.593,-107.6,40.76897,-111.841003,450
2025-01-20 01:58:35.149,-111.9,40.768959,-111.840988,450
2025-01-20 01:58:35.629,-106.9,40.768959,-111.840988,450
2025-01-20 01:58:36.200,-106.9,40.768944,-111.840981,450
2025-01-20 01:58:36.681,-110.6,40.768944,-111.840981,450
2025-01-20 01:58:37.196,-108.0,40.768929,-111.840958,450
2025-01-20 01:58:37.785,-108.6,40.768929,-111.840958,450
2025-01-20 01:58:38.300,-108.6,40.768898,-111.840942,450
2025-01-20 01:58:38.820,-108.6,40.768898,-111.840942,450
2025-01-20 01:58:39.345,-108.6,40.768864,-111.840927,450
2025-01-20 01:58:39.873,-108.6,40.768822,-111.840912,450
2025-01-20 01:58:40.413,-108.6,40.768822,-111.840912,450
2025-01-20 01:58:40.932,-108.6,40.768772,-111.840897,450
2025-01-20 01:59:26.803,-114.5,40.767204,-111.838676,450
2025-01-20 01:59:27.296,-111.3,40.767162,-111.838631,450
2025-01-20 01:59:27.883,-111.3,40.767124,-111.838585,450
2025-01-20 01:59:28.391,-111.3,40.767124,-111.838585,450
2025-01-20 01:59:28.892,-111.3,40.767082,-111.838539,450
2025-01-20 01:59:29.401,-111.6,40.767082,-111.838539,450
2025-01-20 01:59:29.891,-113.8,40.767044,-111.838493,450
2025-01-20 01:59:30.478,-113.8,40.767044,-111.838493,450
2025-01-20 01:59:30.997,-113.8,40.767006,-111.838448,450
2025-01-20 01:59:31.501,-113.8,40.767006,-111.838448,450
2025-01-20 01:59:32.007,-113.8,40.766972,-111.838402,450
2025-01-20 01:59:32.523,-113.8,40.766972,-111.838402,450
2025-01-20 01:59:33.004,-113.4,40.766933,-111.838364,450
2025-01-20 01:59:33.596,-114.2,40.766933,-111.838364,450
2025-01-20 01:59:34.110,-111.1,40.766899,-111.838318,450
2025-01-20 01:59:34.617,-111.1,40.766899,-111.838318,450
2025-01-20 01:59:35.122,-111.1,40.766865,-111.838272,450
2025-01-20 01:59:35.636,-111.1,40.766865,-111.838272,450
2025-01-20 01:59:36.173,-111.1,40.76683,-111.838234,450
2025-01-20 01:59:36.677,-111.1,40.76683,-111.838234,450
2025-01-20 01:59:37.212,-111.1,40.766796,-111.838196,450
2025-01-20 02:00:34.797,-108.9,40.76334,-111.835953,450
2025-01-20 02:00:35.297,-108.5,40.763264,-111.83593,450
2025-01-20 02:00:35.804,-104.6,40.763264,-111.83593,450
2025-01-20 02:00:36.305,-107.3,40.763184,-111.835907,450
2025-01-20 02:00:36.841,-108.2,40.763107,-111.835884,450
2025-01-20 02:00:37.376,-106.4,40.763107,-111.835884,450
2025-01-20 02:00:37.895,-106.4,40.763031,-111.835861,450
2025-01-20 02:00:38.420,-113.9,40.763031,-111.835861,450
2025-01-20 02:00:38.945,-109.6,40.762959,-111.835838,450
2025-01-20 02:00:39.482,-110.5,40.762959,-111.835838,450
2025-01-20 02:00:39.737,-111.4,40.762959,-111.835838,450
2025-01-20 02:00:40.491,-111.8,40.762886,-111.835808,450
2025-01-20 02:00:40.671,-113.2,40.762886,-111.835808,450
2025-01-20 02:00:41.531,-109.1,40.762821,-111.835785,450
2025-01-20 02:00:42.048,-109.8,40.762756,-111.835762,450
2025-01-20 02:00:42.495,-113.9,40.762756,-111.835762,450
2025-01-20 02:00:43.128,-112.3,40.762699,-111.835739,450
2025-01-20 02:00:43.670,-109.9,40.762699,-111.835739,450
2025-01-20 02:00:43.909,-109.9,40.762646,-111.835724,450
2025-01-20 02:00:44.743,-110.5,40.762646,-111.835724,450
2025-01-20 02:00:45.162,-110.0,40.762604,-111.835709,450
2025-01-20 02:00:45.506,-107.6,40.762604,-111.835709,450
2025-01-20 02:00:46.210,-107.6,40.762573,-111.835693,450
2025-01-20 02:00:46.771,-107.6,40.762573,-111.835693,450
2025-01-20 02:00:47.719,-107.6,40.76255,-111.835686,450
2025-01-20 02:00:50.519,-107.6,40.762531,-111.835686,450
2025-01-20 02:01:02.900,-107.6,40.762489,-111.835648,450
2025-01-20 02:01:03.429,-107.6,40.762489,-111.835648,450
2025-01-20 02:01:03.943,-107.6,40.762486,-111.835617,450
2025-01-20 02:01:04.479,-107.6,40.762486,-111.835617,450
2025-01-20 02:01:05.013,-107.6,40.762489,-111.835602,450
2025-01-20 02:01:09.649,-105.8,40.762489,-111.835625,450
2025-01-20 02:01:11.210,-105.8,40.762531,-111.835609,450
2025-01-20 02:01:11.750,-108.0,40.762531,-111.835609,450
2025-01-20 02:01:12.772,-111.8,40.762581,-111.835609,450
2025-01-20 02:01:15.831,-111.9,40.762886,-111.835686,450
2025-01-20 02:01:16.877,-114.7,40.76297,-111.835709,450
2025-01-20 02:01:17.885,-110.4,40.76305,-111.835724,450
2025-01-20 02:01:18.411,-111.9,40.76305,-111.835724,450
2025-01-20 02:01:19.439,-112.8,40.763126,-111.835747,450
2025-01-20 02:01:22.515,-113.4,40.763355,-111.835815,450
2025-01-20 02:01:23.588,-110.9,40.763428,-111.835846,450
2025-01-20 02:01:25.119,-117.1,40.763569,-111.835907,450
2025-01-20 02:01:27.200,-117.1,40.763714,-111.835976,450
2025-01-20 02:02:03.607,-112.1,40.76646,-111.836563,450
2025-01-20 02:02:04.141,-114.6,40.766548,-111.836533,450
2025-01-20 02:02:04.665,-114.6,40.766548,-111.836533,450
2025-01-20 02:02:05.188,-114.6,40.766632,-111.836494,450
2025-01-20 02:02:05.692,-114.6,40.766632,-111.836494,450
2025-01-20 02:02:06.213,-114.6,40.76672,-111.836456,450
2025-01-20 02:02:06.752,-114.6,40.76672,-111.836456,450
2025-01-20 02:02:07.274,-114.6,40.766808,-111.836426,450
2025-01-20 02:02:07.814,-114.6,40.766808,-111.836426,450
2025-01-20 02:02:08.353,-114.6,40.766895,-111.836388,450
2025-01-20 02:02:08.856,-114.6,40.766987,-111.836357,450
2025-01-20 02:02:13.084,-106.9,40.767326,-111.836235,450
2025-01-20 02:02:13.618,-106.9,40.767326,-111.836235,450
2025-01-20 02:02:16.790,-104.5,40.767521,-111.836189,450
2025-01-20 02:02:17.296,-105.8,40.76757,-111.836174,450
2025-01-20 02:02:17.824,-103.1,40.767616,-111.836159,450
2025-01-20 02:02:18.346,-104.5,40.767616,-111.836159,450
2025-01-20 02:02:18.850,-105.9,40.767654,-111.836136,450
2025-01-20 02:02:19.389,-103.3,40.767654,-111.836136,450
2025-01-20 02:02:19.899,-105.0,40.767685,-111.836105,450
2025-01-20 02:02:20.415,-101.9,40.767685,-111.836105,450
2025-01-20 02:02:20.955,-101.9,40.767708,-111.836067,450
2025-01-20 02:02:21.482,-101.9,40.767708,-111.836067,450
2025-01-20 02:02:22.028,-101.9,40.767727,-111.836029,450
2025-01-20 02:02:22.541,-101.9,40.767727,-111.836029,450
2025-01-20 02:02:23.050,-101.9,40.767738,-111.835991,450
2025-01-20 02:02:23.576,-101.9,40.767738,-111.835991,450
2025-01-20 02:02:24.089,-101.9,40.767738,-111.835945,450
2025-01-20 02:02:25.116,-108.2,40.767735,-111.835899,450
2025-01-20 02:02:25.646,-103.3,40.767735,-111.835899,450
2025-01-20 02:02:26.195,-109.6,40.767719,-111.835869,450
2025-01-20 02:02:26.726,-109.8,40.767719,-111.835869,450
2025-01-20 02:02:27.247,-114.2,40.767704,-111.835838,450
2025-01-20 02:02:27.786,-114.2,40.767704,-111.835838,450
2025-01-20 02:02:28.310,-107.7,40.767681,-111.835808,450
2025-01-20 02:02:28.849,-111.0,40.767654,-111.835777,450
2025-01-20 02:02:29.395,-110.3,40.767654,-111.835777,450
2025-01-20 02:02:29.918,-110.4,40.767632,-111.835754,450
2025-01-20 02:02:30.447,-108.8,40.767632,-111.835754,450
2025-01-20 02:02:30.985,-108.8,40.767605,-111.835747,450
2025-01-20 02:02:31.507,-113.1,40.767605,-111.835747,450
2025-01-20 02:02:32.046,-113.1,40.767582,-111.835739,450
2025-01-20 02:02:32.585,-105.5,40.767582,-111.835739,450
2025-01-20 02:02:33.099,-106.8,40.767563,-111.835747,450
2025-01-20 02:02:33.646,-106.8,40.767563,-111.835747,450
2025-01-20 02:02:34.187,-106.8,40.76754,-111.835754,450
2025-01-20 02:02:34.725,-106.3,40.76754,-111.835754,450
2025-01-20 02:02:35.775,-103.1,40.767513,-111.835762,450
2025-01-20 02:02:36.282,-105.2,40.767487,-111.835762,450
2025-01-20 02:02:36.808,-101.9,40.767487,-111.835762,450
2025-01-20 02:02:37.335,-101.4,40.76746,-111.835754,450
2025-01-20 02:02:37.865,-101.6,40.767441,-111.835739,450
2025-01-20 02:02:38.385,-102.6,40.767441,-111.835739,450
2025-01-20 02:02:38.898,-101.9,40.767429,-111.835732,450
2025-01-20 02:02:39.419,-101.9,40.767429,-111.835732,450
2025-01-20 02:02:39.929,-101.9,40.767422,-111.835724,450
2025-01-20 02:02:43.628,-102.3,40.767426,-111.835732,450
2025-01-20 02:02:44.133,-100.5,40.767433,-111.835739,450
2025-01-20 02:02:44.644,-102.3,40.767433,-111.835739,450
2025-01-20 02:02:45.146,-102.0,40.767437,-111.835747,450
2025-01-20 02:02:45.649,-100.5,40.767437,-111.835747,450
2025-01-20 02:02:46.169,-100.5,40.767445,-111.835754,450
2025-01-20 02:02:46.673,-100.5,40.767445,-111.835754,450
2025-01-20 02:02:47.178,-108.4,40.767448,-111.835754,450
2025-01-20 02:02:47.692,-107.1,40.767448,-111.835754,450
2025-01-20 02:02:48.218,-105.2,40.767456,-111.835762,450
2025-01-20 02:02:48.759,-109.6,40.767456,-111.835762,450
2025-01-20 02:02:49.274,-108.6,40.76746,-111.835762,450
2025-01-20 02:02:49.807,-111.4,40.76746,-111.835762,450
2025-01-20 02:02:50.308,-111.4,40.767464,-111.83577,450
2025-01-20 02:02:50.848,-111.4,40.767467,-111.835777,450
2025-01-20 02:02:51.374,-109.4,40.767467,-111.835777,450
2025-01-20 02:02:51.884,-108.6,40.767471,-111.835785,450
2025-01-20 02:02:52.428,-107.5,40.767471,-111.835785,450
2025-01-20 02:02:52.939,-108.3,40.767471,-111.835785,450
2025-01-20 02:02:53.468,-106.3,40.767471,-111.835785,450
2025-01-20 02:02:53.978,-106.1,40.767471,-111.835793,450
2025-01-20 02:02:54.507,-107.7,40.767471,-111.835793,450
2025-01-20 02:02:55.529,-110.4,40.767471,-111.835793,450
2025-01-20 02:02:57.076,-109.6,40.767479,-111.835785,450
2025-01-20 02:02:57.605,-109.8,40.767479,-111.835785,450
2025-01-20 02:02:58.112,-110.5,40.767494,-111.83577,450
2025-01-20 02:02:58.612,-110.5,40.767494,-111.83577,450
2025-01-20 02:02:59.151,-110.5,40.767513,-111.835754,450
2025-01-20 02:02:59.662,-110.5,40.767513,-111.835754,450
2025-01-20 02:03:00.162,-113.4,40.767525,-111.835739,450
2025-01-20 02:03:00.674,-113.4,40.767525,-111.835739,450
2025-01-20 02:03:01.211,-113.4,40.76754,-111.835732,450
2025-01-20 02:03:02.235,-113.4,40.767563,-111.835716,450
2025-01-20 02:03:02.761,-113.4,40.767563,-111.835716,450
2025-01-20 02:03:03.306,-113.4,40.767586,-111.835709,450
2025-01-20 02:03:03.833,-113.4,40.767612,-111.835709,450
2025-01-20 02:03:04.364,-113.4,40.767612,-111.835709,450
2025-01-20 02:03:04.895,-109.3,40.767639,-111.835716,450
2025-01-20 02:03:05.410,-109.0,40.767639,-111.835716,450
2025-01-20 02:03:05.915,-111.1,40.767662,-111.835732,450
2025-01-20 02:03:06.435,-112.8,40.767662,-111.835732,450
2025-01-20 02:03:06.935,-110.3,40.767685,-111.835747,450
2025-01-20 02:03:07.449,-107.6,40.767685,-111.835747,450
2025-01-20 02:03:07.969,-107.6,40.767696,-111.835762,450
2025-01-20 02:03:08.491,-107.6,40.767696,-111.835762,450
2025-01-20 02:03:09.007,-107.6,40.767704,-111.83577,450
2025-01-20 02:03:09.529,-107.6,40.767704,-111.83577,450
2025-01-20 02:03:10.062,-107.6,40.767708,-111.83577,450
2025-01-20 02:03:10.601,-107.6,40.767708,-111.83577,450
2025-01-20 02:03:11.140,-102.1,40.767708,-111.83577,450
2025-01-20 02:03:11.677,-109.4,40.767708,-111.83577,450
2025-01-20 02:03:12.217,-109.4,40.767708,-111.83577,450
2025-01-20 02:03:12.739,-109.4,40.767708,-111.83577,450
2025-01-20 02:03:13.241,-109.4,40.767715,-111.835777,450
2025-01-20 02:03:13.770,-106.7,40.767715,-111.835777,450
2025-01-20 02:03:14.276,-103.7,40.767719,-111.835785,450
2025-01-20 02:03:14.785,-103.9,40.767719,-111.835785,450
2025-01-20 02:03:15.309,-103.9,40.767727,-111.835793,450
2025-01-20 02:03:15.840,-104.3,40.767738,-111.8358,450
2025-01-20 02:03:16.349,-106.0,40.767738,-111.8358,450
2025-01-20 02:03:16.851,-106.0,40.767757,-111.835808,450
2025-01-20 02:03:17.355,-105.8,40.767757,-111.835808,450
2025-01-20 02:03:17.874,-105.3,40.767776,-111.835815,450
2025-01-20 02:03:18.375,-104.3,40.767776,-111.835815,450
2025-01-20 02:03:18.921,-108.3,40.767799,-111.835808,450
2025-01-20 02:03:19.421,-105.5,40.767799,-111.835808,450
2025-01-20 02:03:19.931,-102.7,40.767826,-111.835793,450
2025-01-20 02:03:20.473,-102.7,40.767826,-111.835793,450
2025-01-20 02:03:21.010,-108.1,40.76786,-111.83577,450
2025-01-20 02:03:21.520,-106.8,40.76786,-111.83577,450
2025-01-20 02:03:22.025,-106.5,40.767891,-111.835739,450
2025-01-20 02:03:22.544,-105.8,40.767891,-111.835739,450
2025-01-20 02:03:23.063,-103.3,40.767921,-111.835716,450
2025-01-20 02:03:23.597,-103.3,40.767921,-111.835716,450
2025-01-20 02:03:24.122,-106.4,40.767948,-111.835709,450
2025-01-20 02:03:24.622,-106.6,40.767948,-111.835709,450
2025-01-20 02:03:25.133,-106.6,40.767971,-111.835716,450
2025-01-20 02:03:25.649,-106.6,40.767971,-111.835716,450
2025-01-20 02:03:26.181,-103.1,40.767986,-111.835732,450
2025-01-20 02:03:26.708,-97.9,40.767986,-111.835732,450
2025-01-20 02:03:27.229,-101.8,40.767994,-111.83577,450
2025-01-20 02:03:27.748,-97.9,40.767994,-111.83577,450
2025-01-20 02:03:28.268,-101.8,40.76799,-111.835815,450
2025-01-20 02:03:28.794,-100.6,40.76799,-111.835815,450
2025-01-20 02:03:29.315,-103.6,40.767979,-111.835861,450
2025-01-20 02:03:29.837,-100.8,40.767963,-111.835915,450
2025-01-20 02:03:30.344,-101.4,40.767963,-111.835915,450
2025-01-20 02:03:30.870,-101.9,40.767948,-111.835968,450
2025-01-20 02:03:31.403,-106.5,40.767948,-111.835968,450
2025-01-20 02:03:31.924,-106.5,40.767944,-111.836014,450
2025-01-20 02:03:32.448,-107.0,40.767944,-111.836014,450
2025-01-20 02:03:32.985,-105.3,40.767944,-111.836075,450
2025-01-20 02:03:33.493,-104.1,40.767944,-111.836075,450
2025-01-20 02:03:34.024,-104.1,40.767956,-111.836128,450
2025-01-20 02:03:34.528,-108.7,40.767956,-111.836128,450
2025-01-20 02:03:35.029,-109.0,40.767975,-111.836189,450
2025-01-20 02:03:35.554,-107.8,40.767975,-111.836189,450
2025-01-20 02:03:36.058,-107.4,40.768005,-111.83625,450
2025-01-20 02:03:36.565,-106.4,40.768005,-111.83625,450
2025-01-20 02:03:37.099,-106.4,40.768047,-111.836304,450
2025-01-20 02:03:37.634,-106.4,40.768047,-111.836304,450
2025-01-20 02:03:38.164,-106.4,40.768093,-111.836357,450
2025-01-20 02:03:38.669,-111.6,40.768093,-111.836357,450
2025-01-20 02:03:39.178,-108.5,40.768143,-111.836403,450
2025-01-20 02:03:39.700,-108.0,40.768143,-111.836403,450
2025-01-20 02:03:40.220,-110.4,40.768196,-111.836464,450
2025-01-20 02:03:40.754,-109.1,40.768196,-111.836464,450
2025-01-20 02:03:41.290,-109.5,40.768246,-111.836517,450
2025-01-20 02:03:41.792,-109.5,40.768246,-111.836517,450
2025-01-20 02:03:42.304,-109.5,40.768299,-111.836578,450
2025-01-20 02:03:42.814,-109.5,40.768299,-111.836578,450
2025-01-20 02:03:43.340,-109.5,40.768345,-111.836647,450
2025-01-20 02:03:43.848,-109.5,40.768391,-111.836716,450
2025-01-20 02:03:44.348,-111.1,40.768391,-111.836716,450
2025-01-20 02:03:44.850,-109.4,40.768433,-111.836784,450
2025-01-20 02:03:45.381,-109.4,40.768433,-111.836784,450
2025-01-20 02:03:45.903,-112.9,40.768478,-111.836853,450
2025-01-20 02:03:46.409,-111.7,40.768478,-111.836853,450
2025-01-20 02:03:46.918,-111.7,40.76852,-111.836922,450
2025-01-20 02:03:47.440,-111.7,40.76852,-111.836922,450
2025-01-20 02:03:47.971,-111.7,40.768562,-111.836998,450
2025-01-20 02:03:48.502,-111.7,40.768562,-111.836998,450
2025-01-20 02:03:49.035,-111.7,40.768604,-111.837067,450
2025-01-20 02:03:49.563,-109.2,40.768604,-111.837067,450
2025-01-20 02:03:50.097,-111.6,40.768646,-111.837135,450
2025-01-20 02:03:50.619,-110.8,40.768646,-111.837135,450
2025-01-20 02:03:51.139,-108.8,40.768688,-111.837204,450
2025-01-20 02:03:51.678,-112.1,40.768688,-111.837204,450
2025-01-20 02:03:52.182,-111.8,40.76873,-111.837265,450
2025-01-20 02:03:52.683,-110.6,40.76873,-111.837265,450
2025-01-20 02:03:53.185,-107.1,40.768772,-111.837334,450
2025-01-20 02:03:53.709,-110.5,40.768772,-111.837334,450
2025-01-20 02:03:54.222,-109.5,40.768814,-111.837402,450
2025-01-20 02:03:54.755,-111.3,40.768814,-111.837402,450
2025-01-20 02:03:55.274,-112.9,40.768852,-111.837463,450
2025-01-20 02:03:55.808,-109.6,40.768852,-111.837463,450
2025-01-20 02:03:56.329,-110.3,40.768894,-111.837532,450
2025-01-20 02:03:56.859,-110.4,40.768932,-111.837593,450
2025-01-20 02:03:57.368,-109.9,40.768932,-111.837593,450
2025-01-20 02:03:57.908,-107.9,40.768974,-111.837662,450
2025-01-20 02:03:58.420,-107.9,40.768974,-111.837662,450
2025-01-20 02:03:58.935,-105.5,40.769012,-111.83773,450
2025-01-20 02:03:59.480,-107.1,40.769012,-111.83773,450
2025-01-20 02:04:00.013,-107.8,40.769054,-111.837799,450
2025-01-20 02:04:00.555,-110.9,40.769054,-111.837799,450
2025-01-20 02:04:01.073,-106.9,40.769096,-111.837868,450
2025-01-20 02:04:01.608,-108.7,40.769096,-111.837868,450
2025-01-20 02:04:02.109,-108.2,40.769138,-111.837936,450
2025-01-20 02:04:02.644,-109.1,40.769138,-111.837936,450
2025-01-20 02:04:03.148,-108.6,40.769184,-111.837997,450
2025-01-20 02:04:03.649,-108.6,40.769184,-111.837997,450
2025-01-20 02:04:04.168,-107.3,40.769234,-111.838058,450
2025-01-20 02:04:04.679,-102.9,40.769234,-111.838058,450
2025-01-20 02:04:05.183,-106.3,40.769283,-111.83812,450
2025-01-20 02:04:05.695,-102.8,40.769283,-111.83812,450
2025-01-20 02:04:06.239,-107.1,40.769337,-111.838181,450
2025-01-20 02:04:06.754,-107.5,40.769337,-111.838181,450
2025-01-20 02:04:07.276,-107.0,40.76939,-111.838242,450
2025-01-20 02:04:07.814,-109.3,40.76939,-111.838242,450
2025-01-20 02:04:08.324,-107.9,40.76944,-111.83831,450
2025-01-20 02:04:08.829,-108.9,40.769493,-111.838371,450
2025-01-20 02:04:09.355,-107.1,40.769493,-111.838371,450
2025-01-20 02:04:09.881,-112.1,40.769547,-111.838425,450
2025-01-20 02:04:10.384,-108.5,40.769547,-111.838425,450
2025-01-20 02:04:10.893,-107.0,40.7696,-111.838486,450
2025-01-20 02:04:11.400,-105.6,40.7696,-111.838486,450
2025-01-20 02:04:11.904,-107.3,40.769653,-111.838539,450
2025-01-20 02:04:12.438,-110.8,40.769653,-111.838539,450
2025-01-20 02:04:12.948,-109.8,40.769703,-111.838593,450
2025-01-20 02:04:13.477,-108.8,40.769703,-111.838593,450
2025-01-20 02:04:13.987,-108.8,40.769749,-111.838646,450
2025-01-20 02:04:14.501,-108.5,40.769749,-111.838646,450
2025-01-20 02:04:15.009,-108.8,40.769791,-111.838684,450
2025-01-20 02:04:15.513,-111.7,40.769791,-111.838684,450
2025-01-20 02:04:16.018,-108.8,40.769821,-111.838722,450
2025-01-20 02:04:16.528,-109.7,40.769821,-111.838722,450
2025-01-20 02:04:17.048,-106.6,40.769844,-111.838737,450
2025-01-20 02:04:17.569,-106.6,40.769844,-111.838737,450
2025-01-20 02:04:18.096,-108.7,40.769852,-111.838753,450
2025-01-20 02:04:18.638,-110.1,40.769852,-111.838753,450
2025-01-20 02:04:19.143,-110.1,40.769855,-111.838753,450
2025-01-20 02:04:19.650,-110.1,40.769855,-111.838753,450
2025-01-20 02:04:20.190,-110.1,40.769855,-111.838753,450
2025-01-20 02:04:20.723,-110.1,40.769855,-111.838753,450
2025-01-20 02:04:21.268,-110.1,40.769855,-111.838753,450
2025-01-20 02:04:21.804,-110.1,40.769855,-111.838753,450
2025-01-20 02:04:25.968,-112.9,40.769855,-111.838753,450
2025-01-20 02:04:26.501,-110.2,40.769855,-111.838753,450
2025-01-20 02:04:27.033,-109.3,40.769859,-111.838753,450
2025-01-20 02:04:27.543,-106.3,40.769859,-111.838753,450
2025-01-20 02:04:28.053,-108.9,40.769867,-111.83876,450
2025-01-20 02:04:28.588,-108.4,40.769867,-111.83876,450
2025-01-20 02:04:29.108,-108.9,40.769886,-111.838776,450
2025-01-20 02:04:29.613,-109.2,40.769886,-111.838776,450
2025-01-20 02:04:30.128,-109.4,40.76992,-111.838814,450
2025-01-20 02:04:30.642,-108.3,40.76992,-111.838814,450
2025-01-20 02:04:31.154,-108.1,40.769962,-111.83886,450
2025-01-20 02:04:31.674,-114.1,40.769962,-111.83886,450
2025-01-20 02:04:32.213,-112.9,40.770012,-111.838913,450
2025-01-20 02:04:32.743,-111.0,40.770012,-111.838913,450
2025-01-20 02:04:33.272,-111.0,40.770065,-111.838974,450
2025-01-20 02:04:33.808,-113.2,40.770065,-111.838974,450
2025-01-20 02:04:34.333,-112.4,40.770126,-111.839043,450
2025-01-20 02:04:34.854,-113.9,40.770195,-111.839111,450
2025-01-20 02:04:35.369,-113.6,40.770195,-111.839111,450
2025-01-20 02:04:35.894,-111.9,40.770264,-111.839188,450
2025-01-20 02:04:36.402,-112.8,40.770264,-111.839188,450
2025-01-20 02:04:36.907,-112.8,40.770336,-111.839256,450
2025-01-20 02:04:37.429,-110.9,40.770336,-111.839256,450
2025-01-20 02:04:37.939,-111.9,40.770409,-111.839333,450
2025-01-20 02:04:38.448,-113.4,40.770409,-111.839333,450
2025-01-20 02:04:38.969,-112.2,40.770481,-111.839409,450
2025-01-20 02:04:39.485,-112.2,40.770481,-111.839409,450
2025-01-20 02:04:40.022,-114.3,40.770554,-111.839485,450
2025-01-20 02:04:40.532,-116.0,40.770554,-111.839485,450
2025-01-20 02:04:41.059,-116.0,40.770622,-111.839561,450
2025-01-20 02:04:41.593,-116.0,40.770622,-111.839561,450
2025-01-20 02:04:42.123,-116.0,40.770691,-111.83963,450
2025-01-20 02:04:42.628,-116.0,40.770691,-111.83963,450
2025-01-20 02:04:43.148,-116.0,40.77076,-111.839706,450
2025-01-20 02:04:43.648,-116.0,40.77076,-111.839706,450
2025-01-20 02:04:44.167,-116.0,40.770828,-111.839775,450
2025-01-20 02:06:54.971,-114.7,40.772923,-111.83606,450
2025-01-20 02:06:57.596,-113.2,40.772835,-111.835953,450
2025-01-20 02:06:58.139,-115.9,40.772785,-111.835907,450
2025-01-20 02:06:58.645,-113.1,40.772785,-111.835907,450
2025-01-20 02:06:59.163,-112.7,40.772736,-111.835854,450
2025-01-20 02:06:59.696,-112.7,40.772736,-111.835854,450
2025-01-20 02:07:00.201,-111.8,40.772686,-111.835808,450
2025-01-20 02:07:00.729,-111.0,40.772686,-111.835808,450
2025-01-20 02:07:01.270,-111.0,40.77264,-111.835754,450
2025-01-20 02:07:01.809,-106.0,40.77264,-111.835754,450
2025-01-20 02:07:02.337,-109.1,40.772594,-111.835709,450
2025-01-20 02:07:02.850,-110.4,40.772549,-111.835663,450
2025-01-20 02:07:03.359,-110.4,40.772549,-111.835663,450
2025-01-20 02:07:03.860,-110.4,40.772507,-111.835617,450
2025-01-20 02:07:04.360,-110.4,40.772507,-111.835617,450
2025-01-20 02:07:04.863,-112.0,40.772469,-111.835571,450
2025-01-20 02:07:05.365,-114.2,40.772469,-111.835571,450
2025-01-20 02:07:05.880,-114.2,40.77243,-111.835533,450
2025-01-20 02:07:06.394,-116.1,40.77243,-111.835533,450
2025-01-20 02:07:06.905,-113.4,40.772396,-111.835495,450
2025-01-20 02:07:07.447,-112.8,40.772396,-111.835495,450
2025-01-20 02:07:07.983,-110.7,40.772358,-111.835464,450
2025-01-20 02:07:08.496,-110.7,40.772358,-111.835464,450
2025-01-20 02:07:09.021,-110.7,40.772316,-111.835449,450
2025-01-20 02:07:09.524,-110.7,40.772316,-111.835449,450
2025-01-20 02:07:10.025,-113.9,40.77227,-111.835434,450
2025-01-20 02:07:10.555,-113.9,40.77227,-111.835434,450
2025-01-20 02:07:11.064,-113.9,40.772224,-111.835419,450
2025-01-20 02:07:11.574,-113.8,40.772224,-111.835419,450
2025-01-20 02:07:12.074,-113.2,40.772179,-111.835403,450
2025-01-20 02:07:12.593,-112.9,40.772179,-111.835403,450
2025-01-20 02:07:13.134,-112.8,40.772133,-111.835381,450
2025-01-20 02:07:13.638,-112.8,40.772133,-111.835381,450
2025-01-20 02:07:14.167,-112.8,40.772087,-111.83535,450
2025-01-20 02:07:14.681,-112.8,40.772087,-111.83535,450
2025-01-20 02:07:15.191,-112.8,40.772045,-111.83532,450
2025-01-20 02:07:15.728,-110.3,40.772045,-111.83532,450
2025-01-20 02:07:16.249,-110.9,40.772007,-111.835274,450
2025-01-20 02:07:16.780,-112.9,40.772007,-111.835274,450
2025-01-20 02:07:17.299,-110.9,40.771973,-111.835228,450
2025-01-20 02:07:17.799,-112.9,40.771973,-111.835228,450
2025-01-20 02:07:18.312,-112.1,40.771938,-111.835175,450
2025-01-20 02:07:18.855,-113.3,40.771912,-111.835121,450
2025-01-20 02:07:19.384,-112.1,40.771912,-111.835121,450
2025-01-20 02:07:19.919,-114.9,40.771889,-111.83506,450
2025-01-20 02:07:20.455,-114.9,40.771889,-111.83506,450
2025-01-20 02:07:20.959,-113.2,40.771873,-111.834999,450
2025-01-20 02:07:21.491,-114.4,40.771873,-111.834999,450
2025-01-20 02:07:21.995,-116.9,40.771858,-111.83493,450
2025-01-20 02:07:22.498,-116.0,40.771858,-111.83493,450
2025-01-20 02:07:23.018,-114.9,40.771854,-111.834862,450
2025-01-20 02:07:23.537,-113.6,40.771854,-111.834862,450
2025-01-20 02:07:24.037,-113.6,40.771851,-111.834793,450
2025-01-20 02:07:27.167,-108.6,40.771832,-111.83461,450
2025-01-20 02:07:28.188,-110.6,40.771816,-111.834557,450
2025-01-20 02:07:28.709,-110.6,40.771816,-111.834557,450
2025-01-20 02:07:29.211,-113.6,40.771793,-111.834503,450
2025-01-20 02:07:29.717,-111.8,40.771793,-111.834503,450
2025-01-20 02:07:30.252,-111.8,40.77177,-111.834465,450
2025-01-20 02:07:30.758,-111.8,40.77177,-111.834465,450
2025-01-20 02:07:31.272,-116.7,40.77174,-111.834419,450
2025-01-20 02:07:31.777,-114.3,40.77174,-111.834419,450
2025-01-20 02:07:32.288,-114.3,40.771706,-111.834381,450
2025-01-20 02:07:32.807,-110.9,40.771706,-111.834381,450
2025-01-20 02:07:33.349,-111.4,40.771667,-111.834335,450
2025-01-20 02:07:33.872,-114.3,40.771629,-111.83429,450
2025-01-20 02:07:34.376,-114.3,40.771629,-111.83429,450
2025-01-20 02:07:34.892,-114.3,40.771591,-111.834244,450
2025-01-20 02:07:35.427,-114.3,40.771591,-111.834244,450
2025-01-20 02:07:35.927,-114.3,40.771553,-111.83419,450
2025-01-20 02:07:36.437,-114.3,40.771553,-111.83419,450
2025-01-20 02:07:36.956,-114.3,40.771515,-111.834145,450
2025-01-20 02:07:37.492,-114.3,40.771515,-111.834145,450
2025-01-20 02:07:39.607,-109.8,40.771442,-111.834038,450
2025-01-20 02:07:40.127,-113.4,40.771404,-111.833984,450
2025-01-20 02:07:40.632,-111.8,40.771404,-111.833984,450
2025-01-20 02:07:41.142,-111.8,40.77137,-111.833931,450
2025-01-20 02:07:41.642,-111.8,40.77137,-111.833931,450
2025-01-20 02:07:42.142,-111.8,40.771336,-111.833878,450
2025-01-20 02:07:42.657,-111.8,40.771336,-111.833878,450
2025-01-20 02:07:43.157,-111.8,40.771301,-111.833824,450
2025-01-20 02:07:43.657,-111.8,40.771301,-111.833824,450
2025-01-20 02:07:44.187,-111.8,40.771267,-111.833771,450
2025-01-20 02:07:44.690,-116.5,40.771267,-111.833771,450
2025-01-20 02:07:45.227,-112.9,40.771233,-111.833725,450
2025-01-20 02:07:45.755,-112.9,40.771233,-111.833725,450
2025-01-20 02:07:46.266,-113.1,40.771198,-111.833672,450
2025-01-20 02:07:46.780,-112.8,40.771198,-111.833672,450
2025-01-20 02:07:47.290,-115.9,40.771164,-111.833626,450
2025-01-20 02:07:47.821,-117.2,40.771133,-111.83358,450
2025-01-20 02:07:48.338,-118.6,40.771133,-111.83358,450
2025-01-20 02:07:48.846,-117.9,40.771103,-111.833534,450
2025-01-20 02:07:49.350,-116.6,40.771103,-111.833534,450
2025-01-20 02:07:49.869,-117.3,40.771072,-111.833488,450
2025-01-20 02:07:50.394,-117.1,40.771072,-111.833488,450
2025-01-20 02:07:50.929,-117.1,40.771042,-111.83345,450
2025-01-20 02:07:51.977,-117.1,40.771011,-111.833412,450
2025-01-20 02:08:37.532,-114.0,40.769661,-111.83194,450
2025-01-20 02:08:38.078,-116.2,40.769653,-111.831932,450
2025-01-20 02:08:38.588,-116.2,40.769653,-111.831932,450
2025-01-20 02:08:39.089,-116.2,40.769638,-111.831924,450
2025-01-20 02:08:39.600,-107.7,40.769638,-111.831924,450
2025-01-20 02:08:40.102,-107.7,40.769611,-111.831909,450
2025-01-20 02:08:41.165,-107.7,40.769585,-111.831894,450
2025-01-20 02:08:41.704,-107.7,40.769585,-111.831894,450
2025-01-20 02:08:42.229,-107.7,40.769554,-111.831886,450
2025-01-20 02:08:42.765,-107.7,40.769554,-111.831886,450
2025-01-20 02:08:43.299,-107.7,40.76952,-111.831879,450
2025-01-20 02:08:43.821,-110.8,40.769482,-111.831879,450
2025-01-20 02:08:44.359,-110.8,40.769482,-111.831879,450
2025-01-20 02:08:44.898,-110.8,40.76944,-111.831879,450
2025-01-20 02:08:45.412,-111.6,40.76944,-111.831879,450
2025-01-20 02:08:45.962,-107.8,40.769402,-111.831879,450
2025-01-20 02:08:46.500,-107.8,40.769402,-111.831879,450
2025-01-20 02:08:47.020,-107.8,40.76936,-111.831879,450
2025-01-20 02:08:47.561,-107.8,40.76936,-111.831879,450
2025-01-20 02:08:48.082,-112.0,40.769318,-111.831871,450
2025-01-20 02:08:48.610,-112.0,40.769318,-111.831871,450
2025-01-20 02:08:50.139,-112.0,40.76923,-111.831879,450
2025-01-20 02:08:50.640,-113.8,40.76923,-111.831879,450
2025-01-20 02:08:51.169,-114.6,40.769184,-111.831879,450
2025-01-20 02:08:52.699,-114.6,40.769138,-111.831879,450
2025-01-20 02:08:53.728,-115.8,40.769096,-111.831879,450
2025-01-20 02:08:54.245,-116.3,40.769058,-111.831886,450
2025-01-20 02:08:58.377,-107.4,40.768894,-111.831932,450
2025-01-20 02:08:58.883,-107.4,40.768848,-111.831947,450
2025-01-20 02:09:00.431,-114.9,40.768806,-111.83197,450
2025-01-20 02:09:01.458,-111.9,40.768768,-111.831993,450
2025-01-20 02:09:03.003,-113.8,40.768688,-111.832054,450
2025-01-20 02:09:03.549,-113.8,40.768688,-111.832054,450
2025-01-20 02:09:08.223,-110.4,40.768528,-111.832237,450
2025-01-20 02:09:08.747,-113.6,40.768528,-111.832237,450
2025-01-20 02:09:09.289,-114.4,40.768497,-111.832275,450
2025-01-20 02:09:10.834,-116.7,40.768436,-111.832344,450
2025-01-20 02:09:11.336,-116.7,40.768436,-111.832344,450
2025-01-20 02:09:11.848,-116.7,40.76841,-111.83239,450
2025-01-20 02:09:13.906,-116.7,40.768353,-111.832466,450
2025-01-20 02:09:14.410,-113.1,40.768353,-111.832466,450
2025-01-20 02:09:15.943,-112.6,40.768291,-111.832558,450
2025-01-20 02:09:16.956,-117.3,40.768261,-111.832603,450
2025-01-20 02:09:35.926,-112.2,40.767761,-111.833412,450
2025-01-20 02:09:36.949,-112.2,40.767735,-111.833458,450
2025-01-20 02:09:38.980,-113.6,40.767685,-111.833565,450
2025-01-20 02:09:40.036,-113.6,40.76767,-111.833626,450
2025-01-20 02:09:41.089,-113.6,40.767654,-111.833687,450
2025-01-20 02:09:43.697,-111.9,40.767647,-111.833809,450
2025-01-20 02:09:44.739,-111.9,40.767651,-111.833862,450
2025-01-20 02:09:45.239,-113.3,40.767658,-111.833923,450
2025-01-20 02:09:46.257,-111.9,40.767673,-111.833977,450
2025-01-20 02:09:47.791,-112.4,40.767696,-111.83403,450
2025-01-20 02:09:48.819,-109.2,40.76775,-111.834122,450
2025-01-20 02:09:50.350,-110.1,40.76778,-111.83416,450
2025-01-20 02:10:02.236,-118.4,40.768108,-111.834602,450
2025-01-20 02:10:03.253,-118.4,40.768131,-111.834663,450
2025-01-20 02:10:04.289,-108.3,40.768147,-111.834732,450
2025-01-20 02:10:04.814,-106.5,40.768147,-111.834732,450
2025-01-20 02:10:05.822,-106.9,40.768173,-111.834877,450
2025-01-20 02:10:08.369,-109.8,40.768196,-111.835022,450
2025-01-20 02:10:09.968,-108.3,40.768215,-111.835159,450
2025-01-20 02:10:11.000,-108.8,40.768223,-111.835213,450
2025-01-20 02:10:11.542,-104.8,40.768223,-111.835213,450
2025-01-20 02:10:15.141,-102.4,40.768242,-111.835381,450
2025-01-20 02:10:15.668,-100.7,40.768242,-111.835381,450
2025-01-20 02:10:16.189,-100.7,40.768238,-111.835434,450
2025-01-20 02:10:16.730,-99.4,40.768238,-111.835434,450
2025-01-20 02:10:17.270,-96.6,40.768227,-111.835495,450
2025-01-20 02:10:17.779,-100.6,40.768227,-111.835495,450
2025-01-20 02:10:18.284,-100.6,40.768204,-111.835548,450
2025-01-20 02:10:18.792,-100.6,40.768204,-111.835548,450
2025-01-20 02:10:19.338,-100.6,40.768169,-111.835602,450
2025-01-20 02:10:19.877,-100.6,40.768131,-111.835655,450
2025-01-20 02:10:20.420,-100.6,40.768131,-111.835655,450
2025-01-20 02:10:20.969,-100.9,40.768093,-111.835701,450
2025-01-20 02:10:22.514,-97.5,40.768055,-111.835754,450
2025-01-20 02:10:23.538,-104.3,40.768017,-111.8358,450
2025-01-20 02:10:24.582,-98.8,40.76799,-111.835846,450
2025-01-20 02:10:25.083,-98.8,40.767963,-111.835899,450
2025-01-20 02:10:26.097,-100.5,40.767948,-111.835953,450
2025-01-20 02:10:28.658,-102.7,40.767941,-111.836067,450
2025-01-20 02:10:30.173,-111.1,40.767967,-111.836189,450
2025-01-20 02:10:45.236,-111.9,40.768745,-111.837288,450
2025-01-20 02:10:46.771,-110.5,40.768795,-111.837372,450
2025-01-20 02:10:47.596,-111.7,40.768845,-111.837456,450
2025-01-20 02:10:48.876,-111.7,40.76894,-111.837608,450
2025-01-20 02:10:49.767,-110.4,40.76894,-111.837608,450
2025-01-20 02:10:50.154,-110.4,40.768986,-111.837685,450
2025-01-20 02:10:50.720,-106.0,40.768986,-111.837685,450
2025-01-20 02:10:51.011,-106.0,40.769035,-111.837761,450
2025-01-20 02:10:52.719,-106.0,40.769081,-111.837837,450
2025-01-20 02:10:54.058,-106.4,40.769173,-111.83799,450
2025-01-20 02:10:54.489,-105.8,40.769173,-111.83799,450
2025-01-20 02:10:55.041,-105.3,40.769218,-111.838066,450
2025-01-20 02:10:55.594,-106.6,40.769218,-111.838066,450
2025-01-20 02:10:56.116,-104.1,40.769268,-111.838135,450
2025-01-20 02:10:56.593,-107.7,40.769268,-111.838135,450
2025-01-20 02:10:57.038,-107.7,40.769318,-111.838203,450
2025-01-20 02:10:57.679,-107.7,40.769318,-111.838203,450
2025-01-20 02:10:57.997,-107.7,40.769375,-111.838272,450
2025-01-20 02:10:58.637,-107.7,40.769375,-111.838272,450
2025-01-20 02:10:59.278,-107.7,40.769428,-111.838341,450
2025-01-20 02:10:59.775,-107.7,40.769428,-111.838341,450
2025-01-20 02:11:00.238,-107.7,40.769489,-111.838409,450
2025-01-20 02:11:00.878,-107.7,40.76955,-111.838478,450
2025-01-20 02:11:01.198,-107.7,40.76955,-111.838478,450
2025-01-20 02:11:01.837,-107.7,40.769611,-111.838547,450
2025-01-20 02:11:08.206,-109.6,40.77,-111.838966,450
2025-01-20 02:11:08.707,-108.9,40.77,-111.838966,450
2025-01-20 02:11:09.227,-108.9,40.770065,-111.839035,450
2025-01-20 02:11:09.731,-108.9,40.770065,-111.839035,450
2025-01-20 02:11:10.240,-110.8,40.770123,-111.839096,450
2025-01-20 02:11:10.749,-110.8,40.770123,-111.839096,450
2025-01-20 02:11:11.277,-110.8,40.77018,-111.839157,450
2025-01-20 02:11:11.783,-110.8,40.77018,-111.839157,450
2025-01-20 02:11:12.305,-110.8,40.770237,-111.839211,450
2025-01-20 02:11:12.832,-110.8,40.770294,-111.839264,450
2025-01-20 02:11:13.342,-110.8,40.770294,-111.839264,450
2025-01-20 02:11:13.842,-110.8,40.770348,-111.839325,450
2025-01-20 02:11:16.031,-115.3,40.770454,-111.839439,450
2025-01-20 02:11:16.936,-115.3,40.770512,-111.839493,450
2025-01-20 02:11:17.137,-115.3,40.770512,-111.839493,450
2025-01-20 02:11:18.882,-115.3,40.770622,-111.839607,450
2025-01-20 02:11:19.992,-115.3,40.770676,-111.839668,450
